Place,Sex,Name,Event,Division,WeightClassKg,Equipment,BodyweightKg,Squat1Kg,Squat2Kg,Squat3Kg,Best3SquatKg,Bench1Kg,Bench2Kg,Bench3Kg,Best3BenchKg,Deadlift1Kg,Deadlift2Kg,Deadlift3Kg,Best3DeadliftKg,TotalKg,BirthYear
1,M,Tony Contino,SBD,MR-M6,105,Raw,99.1,125,142.5,-155,142.5,102.5,107.5,-110,107.5,205,-215,215,215.0,465,
1,M,Craig Maurer,SBD,MR-SO,93,Raw,84.3,45,55,60,60.0,55,62.5,67.5,67.5,82.5,100,110,110.0,237.5,1953
1,M,Zachary Haughney,SBD,MR-T1,83,Raw,80.5,-87.5,87.5,92.5,92.5,-72.5,72.5,75,75.0,165,175,185,185.0,352.5,
1,M,Erik Moyer,SBD,MR-T1,105,Raw,96.4,145,165,-182.5,165.0,92.5,-107.5,-107.5,92.5,182.5,195,205,205.0,462.5,1999
1,M,Nick Vinciguerra,SBD,MR-T3,66,Raw,65.1,180,192.5,-195,192.5,130,-140,140,140.0,187.5,200,207.5,207.5,540,1996
DQ,M,Colt Finnicum,SBD,MR-T3,83,Raw,80,-185,-192.5,-202.5,,102.5,117.5,127.5,127.5,185,202.5,-222.5,202.5,,
1,M,Charles Krohg,SBD,MR-T3,93,Raw,90.9,142.5,157.5,170,170.0,107.5,117.5,125,125.0,167.5,172.5,182.5,182.5,477.5,
1,M,Kevin Wang #2,SBD,MR-T3,105,Raw,105,217.5,225,232.5,232.5,137.5,145,-155,145.0,-185,205,220,220.0,597.5,1995
2,M,Joshua Pfleger,SBD,MR-T3,105,Raw,96.4,172.5,185,192.5,192.5,110,120,-135,120.0,200,227.5,232.5,232.5,545,
3,M,Arthur Yin,SBD,MR-T3,105,Raw,98.3,-172.5,185,195,195.0,117.5,125,130,130.0,185,192.5,210,210.0,535,1996
1,M,Alex Chung,SBD,MR-T3,120,Raw,120,170,195,-215,195.0,125,142.5,-150,142.5,185,195,210,210.0,547.5,
1,M,Francesco Pollaccia,SBD,MR-Jr,83,Raw,81.8,142.5,150,160,160.0,102.5,107.5,112.5,112.5,180,195,207.5,207.5,480,1994
1,M,Kyle Schuster,SBD,MR-Jr,120,Raw,111.4,255,265,272.5,272.5,165,172.5,182.5,182.5,245,260,-272.5,260.0,715,1993
1,M,Michael DeCarlo,SBD,MR-O,59,Raw,57.9,100,115,-125,115.0,90,-100,100,100.0,140,145,152.5,152.5,367.5,1972
1,M,Gavin McCullion,SBD,MR-O,66,Raw,65.4,130,142.5,152.5,152.5,-102.5,102.5,-112.5,102.5,150,157.5,170,170.0,425,1985
2,M,Ryan Garvey,SBD,MR-O,66,Raw,64.7,95,110,-127.5,110.0,85,-102.5,-102.5,85.0,142.5,170,185,185.0,380,
1,M,Blake Yurchak,SBD,MR-O,74,Raw,72.4,165,-182.5,182.5,182.5,107.5,115,120,120.0,195,215,227.5,227.5,530,1989
2,M,Brent Peterson,SBD,MR-O,74,Raw,70.3,142.5,152.5,160,160.0,-102.5,102.5,-107.5,102.5,182.5,192.5,200,200.0,462.5,
DQ,M,Derrick Chance,SBD,MR-O,74,Raw,72.2,-165,165,170,170.0,117.5,125,-127.5,125.0,-222.5,-222.5,-222.5,,,1989
1,M,Steve Cupec,SBD,MR-O,83,Raw,82.9,190,210,227.5,227.5,145,-162.5,-162.5,145.0,220,240,250,250.0,622.5,
2,M,Christopher McKelley,SBD,MR-O,83,Raw,81.1,175,190,-195,190.0,145,155,-157.5,155.0,220,240,245,245.0,590,
3,M,Francesco Pollaccia,SBD,MR-O,83,Raw,81.8,142.5,150,160,160.0,102.5,107.5,112.5,112.5,180,195,207.5,207.5,480,1994
4,M,Zachary Haughney,SBD,MR-O,83,Raw,80.5,-87.5,87.5,92.5,92.5,-72.5,72.5,75,75.0,165,175,185,185.0,352.5,
1,M,Ethan Frank,SBD,MR-O,93,Raw,92.4,217.5,230,-240,230.0,167.5,175,-180,175.0,242.5,262.5,-272.5,262.5,667.5,1990
2,M,Jeffrey Sykora,SBD,MR-O,93,Raw,90.5,210,225,230,230.0,137.5,147.5,152.5,152.5,265,275,-285,275.0,657.5,
3,M,Paul Bullock,SBD,MR-O,93,Raw,91.5,125,137.5,147.5,147.5,115,137.5,147.5,147.5,205,220,227.5,227.5,522.5,
4,M,Matthew Berger,SBD,MR-O,93,Raw,89.3,172.5,182.5,187.5,187.5,127.5,137.5,-140,137.5,182.5,190,-197.5,190.0,515,1977
5,M,Charles Krohg,SBD,MR-O,93,Raw,90.9,142.5,157.5,170,170.0,107.5,117.5,125,125.0,167.5,172.5,182.5,182.5,477.5,
1,M,Bryan Boulden,SBD,MR-O,105,Raw,103.8,205,215,220,220.0,135,142.5,147.5,147.5,205,220,237.5,237.5,605,1991
2,M,Russ McDonnell,SBD,MR-O,105,Raw,100.5,200,215,227.5,227.5,135,147.5,-155,147.5,210,227.5,-240,227.5,602.5,
3,M,Bradley Kull,SBD,MR-O,105,Raw,102.8,165,182.5,-187.5,182.5,100,110,-120,110.0,170,190,197.5,197.5,490,1990
4,M,Tony Contino,SBD,MR-O,105,Raw,99.1,125,142.5,-155,142.5,102.5,107.5,-110,107.5,205,-215,215,215.0,465,
1,M,Levi Perillo,SBD,MR-O,120,Raw,118.7,257.5,-275,282.5,282.5,160,170,-185,170.0,250,265,275,275.0,727.5,1990
2,M,Kevin McGonigal,SBD,MR-O,120,Raw,114.5,185,192.5,-200,192.5,-130,135,142.5,142.5,205,227.5,240,240.0,575,
1,M,Joe Yaron,SBD,MR-O,120+,Raw,127.4,205,225,230,230.0,137.5,142.5,152.5,152.5,230,235,245,245.0,627.5,
2,M,Michael Tomkinson,SBD,MR-O,120+,Raw,136.5,160,170,195,195.0,145,-152.5,,145.0,215,222.5,227.5,227.5,567.5,
3,M,Kenny Toth,SBD,MR-O,120+,Raw,141.6,-100,100,,100.0,100,,,100.0,100,,,100.0,300,
1,M,Jason Sellers,SBD,MR-M1,120,Raw,110.5,142.5,157.5,170,170.0,100,107.5,110,110.0,185,200,205,205.0,485,
1,M,Russ McDonnell,SBD,MR-M2,105,Raw,100.5,200,215,227.5,227.5,135,147.5,-155,147.5,210,227.5,-240,227.5,602.5,
1,M,Howard Asch,SBD,MR-M3,93,Raw,90.9,180,195,202.5,202.5,110,120,-125,120.0,195,210,220,220.0,542.5,
1,M,Jim Ranker,SBD,MR-M4,120+,Raw,126,140,150,160,160.0,95,100,110,110.0,190,205,-220,205.0,475,1958
1,M,Bill Garman,SBD,MR-M5,93,Raw,85.5,80,90,100,100.0,70,77.5,-82.5,77.5,160,167.5,-172.5,167.5,345,
1,M,Bruce Barry,SBD,MR-M5,105,Raw,98.6,-192.5,192.5,202.5,202.5,97.5,-102.5,-102.5,97.5,205,-215,-215,205.0,505,1952
1,F,Joni Talavera,SBD,FR-SO,84,Raw,78.4,55,60,65,65.0,42.5,52.5,,52.5,85,95,105,105.0,222.5,1981
1,F,Samantha Salemno,SBD,FR-T1,57,Raw,52.8,77.5,-90,90,90.0,42.5,45,-50,45.0,87.5,97.5,-105,97.5,232.5,2000
1,F,Ashley Bogan,SBD,FR-T1,72,Raw,66.5,92.5,97.5,102.5,102.5,50,52.5,57.5,57.5,117.5,122.5,132.5,132.5,292.5,1995
1,F,Tessa Wells,SBD,FR-T3,52,Raw,50.5,70,82.5,87.5,87.5,32.5,37.5,-42.5,37.5,90,100,105,105.0,230,
1,F,Patricia Coates,SBD,FR-O,52,Raw,51.7,77.5,82.5,87.5,87.5,40,45,-47.5,45.0,92.5,102.5,107.5,107.5,240,
1,F,Miranda Chambers,SBD,FR-O,57,Raw,55,102.5,112.5,-120,112.5,67.5,70,75,75.0,120,125,132.5,132.5,320,2000
2,F,Amber Waddell,SBD,FR-O,57,Raw,56.1,60,75,-85,75.0,47.5,52.5,-57.5,52.5,120,137.5,142.5,142.5,270,
1,F,Joy Burg,SBD,FR-O,63,Raw,58.9,87.5,97.5,-102.5,97.5,47.5,52.5,-55,52.5,110,117.5,-127.5,117.5,267.5,1965
1,F,Maya Winters,SBD,FR-O,72,Raw,71.7,-120,122.5,137.5,137.5,82.5,-92.5,92.5,92.5,180,187.5,195,195.0,425,1979
2,F,Caitlyn Gant,SBD,FR-O,72,Raw,68.5,112.5,120,-127.5,120.0,57.5,60,62.5,62.5,120,127.5,137.5,137.5,320,1997
3,F,Ashley Bogan,SBD,FR-O,72,Raw,66.5,92.5,97.5,102.5,102.5,50,52.5,57.5,57.5,117.5,122.5,132.5,132.5,292.5,1995
4,F,Shavonna Messina,SBD,FR-O,72,Raw,67.8,65,75,87.5,87.5,42.5,47.5,-50,47.5,95,97.5,105,105.0,240,1991
1,F,Kara Frazier,SBD,FR-O,84,Raw,83.9,115,-125,125,125.0,57.5,62.5,67.5,67.5,150,165,175,175.0,367.5,1982
2,F,Abby Busch,SBD,FR-O,84,Raw,82.6,110,117.5,-125,117.5,55,-62.5,62.5,62.5,125,132.5,145,145.0,325,1991
3,F,Julia Bursten,SBD,FR-O,84,Raw,75,87.5,97.5,105,105.0,-65,-70,70,70.0,125,135,142.5,142.5,317.5,1987
1,F,Joy Burg,SBD,FR-M2,63,Raw,58.9,87.5,97.5,-102.5,97.5,47.5,52.5,-55,52.5,110,117.5,-127.5,117.5,267.5,1965
1,F,Debbie Nahas,SBD,FR-M2,72,Raw,66.5,102.5,107.5,112.5,112.5,57.5,62.5,65,65.0,122.5,130,137.5,137.5,315,1968
