Place,Name,BirthYear,BirthDate,Country,BodyweightKg,Squat1Kg,Squat2Kg,Squat3Kg,Best3SquatKg,Bench1Kg,Bench2Kg,Bench3Kg,Best3BenchKg,Deadlift1Kg,Deadlift2Kg,Deadlift3Kg,Best3DeadliftKg,TotalKg,WeightClassKg,Division,Sex,Equipment,Event
1,Sergey Fedosienko,1982,,Russia,58.43,205,220,227.5,227.5,160,167.5,-171.5,167.5,240,260,265,265,660,59,Open,M,Raw,SBD
2,Franklin León,1983,,Ecuador,59,202.5,215,220,220,130,140,145,145,210,220,227.5,227.5,592.5,59,Open,M,Raw,SBD
3,Dariusz Wszoła,1978,,Poland,58.91,205,212.5,217.5,217.5,140,145,150,150,190,200,205,205,572.5,59,Open,M,Raw,SBD
4,Bill Tenerelli,1985,,USA,58.49,187.5,197.5,200,200,105,110,115,115,232.5,245,-257.5,245,560,59,Open,M,Raw,SBD
5,Mohamed Lakehal,1982,,Algeria,59,207.5,222.5,-230,222.5,-105,105,-112.5,105,230,-237.5,-242.5,230,557.5,59,Open,M,Raw,SBD
6,Yi-Chun Lin,1994,,Taiwan,58.37,195,-207.5,212.5,212.5,110,-120,120,120,210,220,-240,220,552.5,59,Open,M,Raw,SBD
7,Ryhor Tsiareshchanka,1989,,Belarus,58.45,190,-195,-195,190,115,-122.5,-122.5,115,220,240,-245,240,545,59,Open,M,Raw,SBD
8,Takaharu Ebihara,1980,,Japan,58.38,-190,190,-200,190,-130,130,-140,130,200,-215,-220,200,520,59,Open,M,Raw,SBD
9,Dmitriy Vykhodtsev,1989,,Kazakhstan,57.59,182.5,190,197.5,197.5,120,127.5,-132.5,127.5,180,190,-195,190,515,59,Open,M,Raw,SBD
10,Oleksii Hlushenkov,1992,,Ukraine,58.85,170,-175,-175,170,120,127.5,-132.5,127.5,-200,-200,210,210,507.5,59,Open,M,Raw,SBD
DQ,Mehrdad Zafari,1989,,Iran,58.55,-185,185,-190,185,-120,-120,-120,,210,-232.5,-232.5,210,,59,Open,M,Raw,SBD
1,Sergey Gladkikh,1989,,Russia,65.71,235,245,250,250,145,155,160,160,250,260,270,270,680,66,Open,M,Raw,SBD
2,Stephen Cascioli,1991,,Canada,64.79,-227.5,232.5,242.5,242.5,145,-150,-150,145,240,255,-260,255,642.5,66,Open,M,Raw,SBD
3,Alexander Kolbin,1987,,Russia,65.41,225,232.5,-237.5,232.5,147.5,-152.5,-152.5,147.5,250,260,-265,260,640,66,Open,M,Raw,SBD
4,Antti Savolainen,1978,,Finland,65.43,200,210,215,215,150,155,-157.5,155,260,-272.5,-272.5,260,630,66,Open,M,Raw,SBD
5,Mariusz Grotkowski,1989,,Poland,65.44,200,-210,210,210,145,-150,150,150,230,240,-242.5,240,600,66,Open,M,Raw,SBD
6,Alex Ochoa #1,1990,,Ecuador,65.86,205,-215,220,220,132.5,-142.5,-142.5,132.5,225,240,-250,240,592.5,66,Open,M,Raw,SBD
7,Hiroki Ikegami,1991,,Japan,65.44,195,-202.5,202.5,202.5,132.5,-137.5,-137.5,132.5,225,242.5,-257.5,242.5,577.5,66,Open,M,Raw,SBD
8,Volodymyr Fedchenko,1993,,Ukraine,65.76,185,190,195,195,130,135,-140,135,240,-255,-255,240,570,66,Open,M,Raw,SBD
9,Ivo Liepinš,1993,,Latvia,65.18,170,175,177.5,177.5,97.5,100,-102.5,100,240,247.5,-252.5,247.5,525,66,Open,M,Raw,SBD
10,Nicholas Lazarides,1992,,South Africa,65.75,160,170,-177.5,170,107.5,112.5,115,115,207.5,217.5,222.5,222.5,507.5,66,Open,M,Raw,SBD
11,Givi Margvelashvili,1989,,Georgia,65.32,140,160,-180,160,120,130,135,135,180,205,,205,500,66,Open,M,Raw,SBD
DQ,Hayaru Koshimizu,1993,,Japan,65.47,-190,-190,-190,,120,-125,-132.5,120,225,-235,-235,225,,66,Open,M,Raw,SBD
1,Kjell Egil Bakkelund,1988,,Norway,73.63,235,242.5,247.5,247.5,175,182.5,187.5,187.5,311,322,-330,322,757,74,Open,M,Raw,SBD
2,Taylor Atwood,1988,,USA,73.83,245,257.5,265.5,265.5,175,185,-190,185,272.5,282.5,-292.5,282.5,733,74,Open,M,Raw,SBD
3,Yakov Ionin,1986,,Kazakhstan,73.56,245,252.5,257.5,257.5,165,-172.5,172.5,172.5,275,285,-290,285,715,74,Open,M,Raw,SBD
4,Yoshihiro Higa,1991,,Japan,73.61,250,261,270,270,140,150,-152.5,150,100,200,275,275,695,74,Open,M,Raw,SBD
5,Anatolii Goriachok,1979,,Russia,73.41,220,230,240,240,150,157.5,160,160,280,292.5,-315,292.5,692.5,74,Open,M,Raw,SBD
6,Owen Hubbard,1992,,UK,73.64,232.5,-245,-245,232.5,180,187.5,190,190,250,262.5,-272.5,262.5,685,74,Open,M,Raw,SBD
7,Rabah El Fekair,1987,,Algeria,73.76,-252.5,252.5,-261.5,252.5,145,150,-152.5,150,260,275,-292.5,275,677.5,74,Open,M,Raw,SBD
8,Aliaksandr Varabyou,1990,,Belarus,73.92,220,230,235,235,160,170,175,175,255,265,-275,265,675,74,Open,M,Raw,SBD
9,Sami Nieminen,1975,,Finland,73.63,217.5,230,-235,230,150,-152.5,-152.5,150,290,-302.5,-305,290,670,74,Open,M,Raw,SBD
10,Pasi Sipiläinen,1978,,Finland,73.93,205,210,215,215,155,160,-162.5,160,275,285,-290,285,660,74,Open,M,Raw,SBD
11,Karl Di Falco,1990,,Australia,73.14,230,242.5,-250,242.5,135,142.5,-147.5,142.5,252.5,267.5,-282.5,267.5,652.5,74,Open,M,Raw,SBD
12,Oleksandr Makhov,1990,,Ukraine,72.64,-240,240,-252.5,240,140,-147.5,-147.5,140,-270,270,-292.5,270,650,74,Open,M,Raw,SBD
13,Joey Zinghini,1988,,Australia,73.7,215,227.5,235,235,135,140,145,145,255,270,-280,270,650,74,Open,M,Raw,SBD
14,Bryce Thomson,1992,,Canada,73.19,225,237.5,245,245,112.5,120,122.5,122.5,257.5,272.5,277.5,277.5,645,74,Open,M,Raw,SBD
15,Wei-Chun Wu,1990,,Taiwan,72.14,225,-230,-230,225,-160,-160,160,160,245,255,-260,255,640,74,Open,M,Raw,SBD
16,Urban Mur,1993,,Slovenia,73.66,215,225,232.5,232.5,142.5,147.5,152.5,152.5,227.5,242.5,-247.5,242.5,627.5,74,Open,M,Raw,SBD
17,Amir Asadollah Zadeh Rezaabadi,1990,,Iran,71.58,212.5,225,-232.5,225,127.5,137.5,-142.5,137.5,242.5,257.5,-265,257.5,620,74,Open,M,Raw,SBD
18,Ching-Hong Feng,1978,,Taiwan,72.81,180,195,-200,195,172.5,-180,-185,172.5,230,250,-255,250,617.5,74,Open,M,Raw,SBD
19,James Duff,1992,,UK,73.62,230,-237.5,-237.5,230,130,135,-140,135,250,-257.5,,250,615,74,Open,M,Raw,SBD
20,Sven Sigrist,1988,,Switzerland,73.41,185,200,207.5,207.5,125,132.5,-140,132.5,225,245,260,260,600,74,Open,M,Raw,SBD
21,Sergey Asaturov,1984,,Armenia,73.64,200,210,-215,210,160,-162.5,-162.5,160,230,-240,-240,230,600,74,Open,M,Raw,SBD
22,Pedro Lins,1993,,Brazil,72.16,215,220,-227.5,220,125,-130,-130,125,230,247.5,-252.5,247.5,592.5,74,Open,M,Raw,SBD
23,Zurab Chkhetiani,1984,,Georgia,73.93,205,-215,-215,205,140,150,-160,150,220,230,-240,230,585,74,Open,M,Raw,SBD
24,Jason Stolzenberg,1993,,South Africa,73.6,190,200,205,205,120,125,127.5,127.5,230,237.5,242.5,242.5,575,74,Open,M,Raw,SBD
DQ,Tomislav Kesić,1992,,Croatia,73.09,-200,200,-210,200,120,-125,,120,,,,,,74,Open,M,Raw,SBD
1,Ulan Anuar,1993,,Kazakhstan,82.4,260,272.5,277.5,277.5,180,187.5,192.5,192.5,300,315,325,325,795,83,Open,M,Raw,SBD
2,Brett Gibbs,1991,,New Zealand,82.89,275,290,-300,290,192.5,202.5,208.5,208.5,295,-317.5,-317.5,295,793.5,83,Open,M,Raw,SBD
3,Alexey Kuzmin,1982,,Russia,82.58,265,272.5,277.5,277.5,175,182.5,187.5,187.5,300,312.5,322.5,322.5,787.5,83,Open,M,Raw,SBD
4,Jacek Spychała,1978,,Poland,82.79,250,257.5,265,265,167.5,-177.5,177.5,177.5,295,312.5,-315,312.5,755,83,Open,M,Raw,SBD
5,Jure Rus,1991,,Slovenia,82.16,265,275,277.5,277.5,160,-165,165,165,290,310,-315,310,752.5,83,Open,M,Raw,SBD
6,Deamo Baguga,1986,,Nauru,82.88,250,270,-275,270,140,150,152.5,152.5,285,315,-325.5,315,737.5,83,Open,M,Raw,SBD
7,Konstantin Dyashkin,1984,,Russia,82.13,260,-267.5,-267.5,260,170,175,-177.5,175,300,-305,-305,300,735,83,Open,M,Raw,SBD
8,Clinton Lee #1,1993,,Singapore,81.44,252.5,-265,272.5,272.5,167.5,-177.5,-177.5,167.5,270,280,290,290,730,83,Open,M,Raw,SBD
9,Anton Karachentsev,1983,,Ukraine,81.55,240,250,257.5,257.5,165,172.5,175,175,290,-305,-325.5,290,722.5,83,Open,M,Raw,SBD
10,Daniel Worsley,1993,,UK,82.19,240,250,260,260,160,167.5,-170,167.5,267.5,280,290,290,717.5,83,Open,M,Raw,SBD
11,Aman Kapyshev,1987,,Kazakhstan,82.61,260,270,-277.5,270,165,175,-182.5,175,250,-260,-260,250,695,83,Open,M,Raw,SBD
12,Denis Jevdokimov,1981,,Lithuania,82.88,237.5,245,-250,245,182.5,190,-195,190,250,260,-267.5,260,695,83,Open,M,Raw,SBD
13,Mikko Ronkainen,1987,,Finland,82.76,240,-250,-250,240,160,-170,-170,160,270,290,,290,690,83,Open,M,Raw,SBD
14,Jakob Škarabot,1991,,Slovenia,81,232.5,245,252.5,252.5,122.5,130,135,135,275,292.5,-302.5,292.5,680,83,Open,M,Raw,SBD
15,Eddie Prizeman,1986,,Switzerland,82.25,215,232.5,235,235,150,162.5,170,170,240,260,270,270,675,83,Open,M,Raw,SBD
16,Sean Ryan,1987,,Ireland,82.34,227.5,237.5,-245,237.5,147.5,155,-157.5,155,262.5,275,282.5,282.5,675,83,Open,M,Raw,SBD
17,Joey Ma,1993,,Netherlands,82.7,242.5,252.5,-257.5,252.5,125,-145,-145,125,275,290,-302.5,290,667.5,83,Open,M,Raw,SBD
18,Saeid Sharifi Sedeh,1988,,Iran,82.1,240,-247.5,-247.5,240,160,-167.5,167.5,167.5,255,-262.5,-262.5,255,662.5,83,Open,M,Raw,SBD
19,Adam Jones #1,1987,,Australia,82.4,240,247.5,-252.5,247.5,127.5,-132.5,-132.5,127.5,275,287.5,-295,287.5,662.5,83,Open,M,Raw,SBD
20,Jonathan Baptista,1988,,South Africa,81.83,230,240,-247.5,240,152.5,160,-162.5,160,-252.5,252.5,-267.5,252.5,652.5,83,Open,M,Raw,SBD
21,Ryan Lapadat,1979,,Canada,82.1,222.5,230,235,235,137.5,142.5,-145,142.5,260,272.5,-275,272.5,650,83,Open,M,Raw,SBD
22,Masatoshi Yokota,1989,,Japan,82.28,-220,220,230,230,150,157.5,-162.5,157.5,245,255,262.5,262.5,650,83,Open,M,Raw,SBD
23,Adam Keane,1993,,Ireland,82.7,-245,245,250,250,120,127.5,130,130,260,270,-277.5,270,650,83,Open,M,Raw,SBD
24,Fabian Gerritzen,1987,,Germany,81.74,210,-230,230,230,120,127.5,-130,127.5,290,-307.5,-307.5,290,647.5,83,Open,M,Raw,SBD
25,Gian Smit,1990,,South Africa,82.71,222.5,227.5,-235,227.5,140,145,-150,145,255,-265,-265,255,627.5,83,Open,M,Raw,SBD
26,Goran Šimić,1984,,Croatia,82.74,200,-212.5,-212.5,200,162.5,167.5,-172.5,167.5,235,245,-252.5,245,612.5,83,Open,M,Raw,SBD
DQ,Isheanesu Nyandoro,1990,,Australia,82.48,-240,-240,-240,,140,147.5,150,150,260,267.5,-272.5,267.5,,83,Open,M,Raw,SBD
DQ,Faisal Ahmed Obaid,1978,,UAE,81.56,-160,-160,-160,,-182.5,182.5,187.5,187.5,,,,,,83,Open,M,Raw,SBD
1,LS McClain,1978,,USA,92.78,270,285,-292.5,285,212.5,222.5,227.5,227.5,290,305,315,315,827.5,93,Open,M,Raw,SBD
2,Yerlan Smagulov,1994,,Kazakhstan,92.54,300,-310,310,310,190,197.5,-202.5,197.5,300,315,-325,315,822.5,93,Open,M,Raw,SBD
3,Jakub Sedláček,1988,,Czechia,91.59,285,300,310,310,212.5,220,225,225,265,285,-300,285,820,93,Open,M,Raw,SBD
4,Anatolii Novopismennyi,1996,,Ukraine,92.29,-280,285,305,305,180,190,195,195,300,320,-330,320,820,93,Open,M,Raw,SBD
5,Borislav Adov,1987,,Bulgaria,92.49,270,290,-295,290,195,205,-207.5,205,310,320,-327.5,320,815,93,Open,M,Raw,SBD
6,David Ricks,1959,,USA,92.37,-292.5,-292.5,292.5,292.5,185,197.5,205,205,267.5,287.5,305,305,802.5,93,Open,M,Raw,SBD
7,Mehdi Tahmasebi Boldaji,1991,,Iran,91.91,275,290,295,295,190,-197.5,-197.5,190,305,315,-327.5,315,800,93,Open,M,Raw,SBD
8,Pierre Shillingford,1988,,UK,92,247.5,260,-265,260,165,175,180,180,280,300,307.5,307.5,747.5,93,Open,M,Raw,SBD
9,Cale Rowston,1991,,Australia,92.04,240,255,-260,255,160,170,175,175,295,317.5,-322.5,317.5,747.5,93,Open,M,Raw,SBD
10,Alexander Kirketeig,1979,,Norway,92.83,260,270,-275,270,180,-185,185,185,270,285,290,290,745,93,Open,M,Raw,SBD
11,Arthur Lynch,1992,,Ireland,91.51,240,250,255,255,170,175,177.5,177.5,290,297.5,302.5,302.5,735,93,Open,M,Raw,SBD
12,Tanno de Pender,1992,,Netherlands,92.43,240,252.5,-257.5,252.5,180,185,-187.5,185,290,-300,-300,290,727.5,93,Open,M,Raw,SBD
13,Dogan Tekin,1984,,Netherlands,92.13,255,265,-272.5,265,147.5,152.5,155,155,290,302.5,-325,302.5,722.5,93,Open,M,Raw,SBD
14,Hiroki Ochai,1989,,Japan,92.24,220,237.5,245,245,160,175,180,180,242.5,262.5,280,280,705,93,Open,M,Raw,SBD
15,Siim Sammalkivi,1987,,Estonia,92.54,242.5,247.5,,247.5,157.5,165,-167.5,165,265,275,-287.5,275,687.5,93,Open,M,Raw,SBD
16,Otgondalai Tsend-Ayush,1981,,Mongolia,92.63,200,,,200,192.5,205,210,210,200,,,200,610,93,Open,M,Raw,SBD
DQ,Amar Kanane,1987,,Algeria,92.3,-300,-300,,,,,,,,,,,,93,Open,M,Raw,SBD
DQ,Nikolay Bazanov,1981,,Russia,92.43,285,-292.5,-292.5,285,185,192.5,195,195,-305,-305,-305,,,93,Open,M,Raw,SBD
1,Krzysztof Wierzbicki,1990,,Poland,99.35,290,300,307.5,307.5,190,195,197.5,197.5,360,380,-400,380,885,105,Open,M,Raw,SBD
2,Bryce Lewis,1987,,USA,103.87,287.5,302.5,312.5,312.5,197.5,207.5,215,215,327.5,342.5,-360,342.5,870,105,Open,M,Raw,SBD
3,Garrett Blevins,1988,,USA,103.43,305,322.5,-333,322.5,207.5,217.5,-222.5,217.5,305,317.5,322.5,322.5,862.5,105,Open,M,Raw,SBD
4,Stephen Manuel,1988,,UK,104.44,302.5,317.5,-325,317.5,202.5,210,212.5,212.5,300,315,322.5,322.5,852.5,105,Open,M,Raw,SBD
5,Marcin Goleń,1983,,Poland,104.76,280,290,300,300,180,190,200,200,330,347.5,-355,347.5,847.5,105,Open,M,Raw,SBD
6,Ali Ben Hadj Ali,1989,,France,103.23,290,302.5,307.5,307.5,182.5,187.5,190,190,330,-347.5,-347.5,330,827.5,105,Open,M,Raw,SBD
7,Sen Yang,1994,,Taiwan,104.03,-300,300,307.5,307.5,200,210,-220,210,-285,285,300,300,817.5,105,Open,M,Raw,SBD
8,Nick Roberts,1984,,Canada,101.97,275,285,290,290,175,180,185,185,300,307.5,317.5,317.5,792.5,105,Open,M,Raw,SBD
9,Mohamed Sahad,1987,,Algeria,103.26,-277.5,277.5,292.5,292.5,177.5,-185,190,190,300,-317.5,-317.5,300,782.5,105,Open,M,Raw,SBD
10,Yusuke Takeda,1985,,Japan,103.71,-272.5,272.5,-292.5,272.5,205,-215,-215,205,265,285,305,305,782.5,105,Open,M,Raw,SBD
11,Enkhbold Khuder,1985,,Mongolia,104.64,300,307.5,310,310,185,195,-207.5,195,260,270,,270,775,105,Open,M,Raw,SBD
12,Mostafa Yazdani Kachouei,1988,,Iran,102.01,272.5,280,-285,280,155,-162.5,-162.5,155,315,-330,330,330,765,105,Open,M,Raw,SBD
13,Tim Daniel Konertz,1989,,Germany,103.52,260,270,-277.5,270,160,167.5,170,170,302.5,320,-327.5,320,760,105,Open,M,Raw,SBD
14,Rudi Vieira,1983,,Brazil,96.69,245,252.5,-257.5,252.5,195,202.5,-207.5,202.5,255,265,-272.5,265,720,105,Open,M,Raw,SBD
15,Jaka Kržišnik,1992,,Slovenia,103.62,227.5,237.5,245,245,160,165,167.5,167.5,270,287.5,-292.5,287.5,700,105,Open,M,Raw,SBD
16,Dhanushka Kodikara,1992,,Sri Lanka,98.18,-230,230,245,245,130,-140,-140,130,235,-240,-240,235,610,105,Open,M,Raw,SBD
17,Kiril Mihaylov,1979,,Bulgaria,100.14,125,,,125,210,-217.5,-217.5,210,125,,,125,460,105,Open,M,Raw,SBD
DQ,Zalim Kuvambaev,1986,,Kazakhstan,104.16,-300,300,-307.5,300,-200,-200,-200,,280,,,280,,105,Open,M,Raw,SBD
DQ,Andrey Inin,1990,,Russia,104.57,-290,-300,-300,,200,207.5,-212.5,207.5,240,,,240,,105,Open,M,Raw,SBD
1,Dennis Cornelius,1980,,USA,119.5,352.5,372.5,386,386,240,247.5,-250,247.5,317.5,335,-347.5,335,968.5,120,Open,M,Raw,SBD
DD,Amandas Paulauskas,1987,,Lithuania,118.38,305,322.5,-335,322.5,255,-260,260,260,317.5,335,-345,335,,120,Open,M,Raw,SBD
DD,Mohamed Bouafia,1976,,Algeria,119.67,-350,350,360,360,-195,202.5,-210,202.5,332.5,352.5,-360,352.5,,120,Open,M,Raw,SBD
2,Tony Cliffe,1984,,UK,119.18,300,315,325,325,215,225,227.5,227.5,325,347.5,-362.5,347.5,900,120,Open,M,Raw,SBD
3,Piotr Sadowski #1,1993,,Poland,119.9,320,335,-345,335,205,215,-220,215,300,320,-330,320,870,120,Open,M,Raw,SBD
4,Viktor Marynenko,1987,,Ukraine,118.47,302.5,312.5,-317.5,312.5,195,202.5,-207.5,202.5,320,337.5,-347.5,337.5,852.5,120,Open,M,Raw,SBD
5,Mickael Cloutier,1991,,Canada,118.23,300,-312.5,312.5,312.5,210,220,-225,220,302.5,312.5,-320,312.5,845,120,Open,M,Raw,SBD
6,Pavol Demčák,1977,,Czechia,119.2,265,280,292.5,292.5,210,217.5,-225,217.5,265,285,-300,285,795,120,Open,M,Raw,SBD
7,Ransilu Jayathilake,1986,,Sri Lanka,118.09,260,270,280,280,120,130,-135,130,307.5,315,-320,315,725,120,Open,M,Raw,SBD
DQ,Ruslan Sirazov,1987,,Tajikistan,119.39,260,275,282.5,282.5,195,202.5,-205,202.5,-290,-290,-290,,,120,Open,M,Raw,SBD
1,Ray Williams #1,1986,,USA,181.22,450,470,,470,225,235,242.5,242.5,357.5,377.5,-393,377.5,1090,120+,Open,M,Raw,SBD
2,Jezza Uepa,1980,1980-04-13,Nauru,184.81,-425,425,460,460,255,265,270,270,-305,305,-315,305,1035,120+,Open,M,Raw,SBD
3,Kelly Branton,1986,,Canada,164,395,410,420,420,255,260,265,265,290,305,-350,305,990,120+,Open,M,Raw,SBD
4,Martins Kruze,1988,,Latvia,162.38,380,-405,-405,380,215,222.5,227.5,227.5,327.5,340,-350,340,947.5,120+,Open,M,Raw,SBD
5,Ilyes Boughalem,1987,,Algeria,156.33,335,355,-365,355,277.5,-292.5,-292.5,277.5,275,290,307.5,307.5,940,120+,Open,M,Raw,SBD
6,Siim Rast,1988,,Estonia,185.93,335,345,-355,345,227.5,235,240,240,340,355,-360,355,940,120+,Open,M,Raw,SBD
7,Christophe Rebreyend,1988,,Netherlands,162.5,325,340,-345,340,192.5,202.5,205,205,340,355,-360,355,900,120+,Open,M,Raw,SBD
8,Mehdi Mafi Gholami,1982,,Iran,146.87,350,-370,370,370,205,215,-220,215,-312.5,312.5,-320,312.5,897.5,120+,Open,M,Raw,SBD
9,Tyron Senituli,1993,,Australia,149.12,295,317.5,325,325,205,220,232.5,232.5,310,322.5,332.5,332.5,890,120+,Open,M,Raw,SBD
10,Steve Ringoot,1989,,Belgium,150.59,315,330,337.5,337.5,215,222.5,225,225,315,327.5,-332.5,327.5,890,120+,Open,M,Raw,SBD
11,Tony Reinmuth,1989,,Australia,154.36,340,355,-362.5,355,200,207.5,212.5,212.5,302.5,312.5,320,320,887.5,120+,Open,M,Raw,SBD
12,Jari Saario,1985,,Finland,136.84,315,327.5,330,330,190,197.5,200,200,335,352.5,-357.5,352.5,882.5,120+,Open,M,Raw,SBD
13,Jordan McLaughlin,1993,,UK,142.1,310,330,342.5,342.5,205,217.5,222.5,222.5,300,312.5,-320,312.5,877.5,120+,Open,M,Raw,SBD
14,Antti Tommila,1989,,Finland,144.55,305,-320,-320,305,215,225,-227.5,225,310,-315,-315,310,840,120+,Open,M,Raw,SBD
15,Garrett Cartwright-Bentley,1988,,Canada,124.23,285,295,297.5,297.5,182.5,190,197.5,197.5,265,277.5,-282.5,277.5,772.5,120+,Open,M,Raw,SBD
1,Andrey Poddubnyak,1999,,Russia,52.14,145,157.5,162.5,162.5,90,97.5,102.5,102.5,160,172.5,175,175,440,53,Sub-Juniors,M,Raw,SBD
2,Ilya Marichev,2001,,Russia,52.18,130,140,147.5,147.5,-85,87.5,95,95,167.5,180,-185.5,180,422.5,53,Sub-Juniors,M,Raw,SBD
3,Ryo Matsuzaki,1999,,Japan,52.71,140,150,-160,150,-85,85,-90,85,175,-185.5,-185.5,175,410,53,Sub-Juniors,M,Raw,SBD
4,Aliaksandr Antonenka,1999,,Belarus,52.68,120,130,140,140,80,85,-90,85,160,-170,-177.5,160,385,53,Sub-Juniors,M,Raw,SBD
5,Masaya Yamada,2001,,Japan,52.04,110,120,-127.5,120,85,92.5,95,95,155,-170,-170,155,370,53,Sub-Juniors,M,Raw,SBD
6,Uladzislau Trusevich,2001,,Belarus,52.19,100,107.5,115,115,77.5,85,-87.5,85,130,-140,-140,130,330,53,Sub-Juniors,M,Raw,SBD
7,George Diers,2000,,USA,52.77,100,112.5,-120,112.5,52.5,55,-57.5,55,125,132.5,140,140,307.5,53,Sub-Juniors,M,Raw,SBD
1,Kole Metts,1999,,USA,58.5,182.5,193,-200.5,193,105,112.5,115,115,205.5,215.5,-225.5,215.5,523.5,59,Sub-Juniors,M,Raw,SBD
2,Denis Ryabchikov,1999,,Russia,58.55,165,172.5,180,180,85,90,-92.5,90,205,215,225,225,495,59,Sub-Juniors,M,Raw,SBD
3,Mikhail Titov #1,1999,,Russia,57.71,-157.5,157.5,-162.5,157.5,115,122.5,128,128,182.5,190,-195,190,475.5,59,Sub-Juniors,M,Raw,SBD
4,Vadym Hutnyk,1999,,Ukraine,58.87,147.5,-152.5,-152.5,147.5,102.5,107.5,-110,107.5,175,190,-197.5,190,445,59,Sub-Juniors,M,Raw,SBD
5,Bartosz Warszczuk,2001,,Poland,58.89,145,155,162.5,162.5,-75,80,87.5,87.5,175,190,-197.5,190,440,59,Sub-Juniors,M,Raw,SBD
6,Dylan Potter,1999,,Ireland,58.5,145,152.5,-157.5,152.5,105,107.5,110,110,175,-182.5,-182.5,175,437.5,59,Sub-Juniors,M,Raw,SBD
7,Jacob Melvin,1999,,UK,57.86,125,132.5,137.5,137.5,80,85,87.5,87.5,160,172.5,-177.5,172.5,397.5,59,Sub-Juniors,M,Raw,SBD
8,Aliaksandr Yatskevich,2000,,Belarus,58.7,125,132.5,-140,132.5,70,75,-77.5,75,160,172.5,-182.5,172.5,380,59,Sub-Juniors,M,Raw,SBD
9,Kenji Loy,1999,,Singapore,58.63,110,115,-120,115,60,65,-70,65,192.5,195,-200,195,375,59,Sub-Juniors,M,Raw,SBD
10,Yusei Yamazaki,2000,,Japan,57.96,100,105,107.5,107.5,85,-90,-90,85,140,-160,-160,140,332.5,59,Sub-Juniors,M,Raw,SBD
1,Dmitriy Chebanov,1999,,Kazakhstan,63.23,192.5,202.5,207.5,207.5,137.5,142.5,145,145,220,230,-235,230,582.5,66,Sub-Juniors,M,Raw,SBD
2,Matthew Yap,1999,,Singapore,65.42,190,-202.5,208,208,120,125,130,130,212.5,-222.5,-227.5,212.5,550.5,66,Sub-Juniors,M,Raw,SBD
3,Vyacheslav Pereezchikov,2000,,Russia,65.31,180,190,-195,190,125,130,132.5,132.5,210,220,-222.5,220,542.5,66,Sub-Juniors,M,Raw,SBD
4,Jake Rossanese,1999,,Canada,64.3,185,-197.5,-197.5,185,105,-112.5,-112.5,105,225,235,-245.5,235,525,66,Sub-Juniors,M,Raw,SBD
5,Giorgi Bobokhidze,2000,,Georgia,63.39,155,165,180,180,105,-115,115,115,200,220,-225,220,515,66,Sub-Juniors,M,Raw,SBD
6,Henry Diers,1999,,USA,65.04,185,-192.5,192.5,192.5,105,110,-112.5,110,200,-205,-205,200,502.5,66,Sub-Juniors,M,Raw,SBD
7,Vladyslav Makarevych,2000,,Ukraine,65.51,150,160,170,170,105,112.5,-117.5,112.5,205,217.5,-237.5,217.5,500,66,Sub-Juniors,M,Raw,SBD
8,Hayato Muto,2000,,Japan,63.59,155,167.5,180,180,90,-100,-100,90,190,200,-205,200,470,66,Sub-Juniors,M,Raw,SBD
9,Dzianis Krautsou,1999,,Belarus,65.31,155,165,172.5,172.5,100,107.5,-112.5,107.5,180,190,-202.5,190,470,66,Sub-Juniors,M,Raw,SBD
10,Dzmitry Kirkouski,2000,,Belarus,65.62,170,175,-180,175,100,102.5,105,105,170,180,-185,180,460,66,Sub-Juniors,M,Raw,SBD
11,Liam Colman,1999,,South Africa,62.91,130,140,-145,140,90,-95,-95,90,145,155,165,165,395,66,Sub-Juniors,M,Raw,SBD
12,Rikito Uchino,1999,,Japan,64.19,110,120,127.5,127.5,80,-85,85,85,145,155,-160,155,367.5,66,Sub-Juniors,M,Raw,SBD
1,William Veilleux,1999,,Canada,72.96,207.5,217.5,-220,217.5,120,125,130,130,240,250,258,258,605.5,74,Sub-Juniors,M,Raw,SBD
2,James English,1999,,USA,72.1,197.5,210,-215,210,135,142.5,-147.5,142.5,240,250,252.5,252.5,605,74,Sub-Juniors,M,Raw,SBD
3,Timur Kasenov,2000,,Kazakhstan,72.99,185,195,202.5,202.5,120,-125,125,125,230,237.5,-255,237.5,565,74,Sub-Juniors,M,Raw,SBD
4,Ignas Karaliūnas,1999,,Lithuania,73.61,190,200,-205,200,115,120,-122.5,120,210,217.5,-220,217.5,537.5,74,Sub-Juniors,M,Raw,SBD
5,Yevhenii Kasyanchuk,1999,,Ukraine,73.13,170,177.5,-185,177.5,130,137.5,145,145,200,-212.5,-220,200,522.5,74,Sub-Juniors,M,Raw,SBD
6,Nikita Pahunets,2000,,Belarus,73.55,195,202.5,205,205,100,107.5,-112.5,107.5,190,202.5,-207.5,202.5,515,74,Sub-Juniors,M,Raw,SBD
7,Wataru Katakura,1999,,Japan,71.14,150,160,-170,160,95,100,105,105,170,185,-200,185,450,74,Sub-Juniors,M,Raw,SBD
8,Siarhei Tsybulski,2000,,Belarus,71.27,150,160,-165,160,-105,105,107.5,107.5,160,170,175,175,442.5,74,Sub-Juniors,M,Raw,SBD
9,Eiji Kudo,1999,,Japan,72.52,145,155,160,160,90,95,97.5,97.5,170,-180,-180,170,427.5,74,Sub-Juniors,M,Raw,SBD
10,Harrison Wall,2000,,UK,71.45,140,147.5,152.5,152.5,85,90,-92.5,90,152.5,160,-165,160,402.5,74,Sub-Juniors,M,Raw,SBD
1,Matthew Jones #18,1999,,USA,80.16,232.5,246,250.5,250.5,145,152.5,156,156,245,260,267.5,267.5,674,83,Sub-Juniors,M,Raw,SBD
2,Andrew Le,1999,,USA,82.35,-220,220,227.5,227.5,155.5,-165.5,165.5,165.5,257.5,-267.5,-281.5,257.5,650.5,83,Sub-Juniors,M,Raw,SBD
3,Joaquim de Jenga,1999,,South Africa,79.86,205,215,-220,215,140,147.5,-150,147.5,260,267.5,-270.5,267.5,630,83,Sub-Juniors,M,Raw,SBD
4,Noah Lasante,1999,,Canada,81.15,215,227.5,235,235,130,135,140,140,212.5,-220,220,220,595,83,Sub-Juniors,M,Raw,SBD
5,Karel Rada #2,2001,,Czechia,82.01,210,220,-225,220,115,120,125,125,215,230,-240,230,575,83,Sub-Juniors,M,Raw,SBD
6,Teppei Fukuoka,1999,,Japan,81.06,190,-200,-200,190,115,120,-122.5,120,230,-242.5,-242.5,230,540,83,Sub-Juniors,M,Raw,SBD
7,Michael Kiely,1999,,Ireland,81.88,180,185,-187.5,185,115,120,122.5,122.5,210,217.5,222.5,222.5,530,83,Sub-Juniors,M,Raw,SBD
8,Marshall Packer,2001,,UK,81.05,170,-182.5,182.5,182.5,90,100,110,110,190,200,-212.5,200,492.5,83,Sub-Juniors,M,Raw,SBD
1,Ali Hamdan,1999,,Norway,92.58,245,-263.5,264,264,152.5,160,162.5,162.5,-260,265,272.5,272.5,699,93,Sub-Juniors,M,Raw,SBD
2,Blaine Wilson IV,1999,,USA,85.23,240,252.5,263.5,263.5,170.5,-178,178,178,227.5,240,255,255,696.5,93,Sub-Juniors,M,Raw,SBD
3,Viacheslav Riabov,1999,,Russia,89.83,240,-250,250,250,140,150,155,155,265,280,-295,280,685,93,Sub-Juniors,M,Raw,SBD
4,Joshua Kiggen,1999,,South Africa,91.55,230,240,-245,240,145,150,-152.5,150,260,-282.5,-282.5,260,650,93,Sub-Juniors,M,Raw,SBD
5,Anton Biruk,2000,,Ukraine,91.2,230,242.5,-247.5,242.5,130,137.5,-142.5,137.5,252.5,262.5,265,265,645,93,Sub-Juniors,M,Raw,SBD
6,Antons Putnis,2000,,Latvia,92.27,225,235,240,240,152.5,157.5,-160,157.5,235,245,-255,245,642.5,93,Sub-Juniors,M,Raw,SBD
7,Kęstutis Šiaučiūnas,1999,,Lithuania,92.01,200,212.5,-220,212.5,147.5,-152.5,-157.5,147.5,230,242.5,247.5,247.5,607.5,93,Sub-Juniors,M,Raw,SBD
8,Paweł Przybojewski,1999,,Poland,88.44,210,-225,225,225,130,137.5,145,145,230,-242.5,-242.5,230,600,93,Sub-Juniors,M,Raw,SBD
9,Juuso Reinikainen,2000,,Finland,92.27,205,215,220,220,115,125,130,130,235,-245,-245,235,585,93,Sub-Juniors,M,Raw,SBD
10,Mark Kihu,2000,,Estonia,87.04,170,180,185,185,95,100,102.5,102.5,205,215,-220,215,502.5,93,Sub-Juniors,M,Raw,SBD
11,Hiroya Yamagishi,1999,,Japan,90.74,130,140,145,145,80,90,92.5,92.5,150,170,180,180,417.5,93,Sub-Juniors,M,Raw,SBD
1,Uladzislau Papelski,1999,,Belarus,100.95,215,225,230,230,175,180,184,184,260,267.5,272.5,272.5,686.5,105,Sub-Juniors,M,Raw,SBD
2,Vladyslav Denysiuk,1999,,Ukraine,104.04,230,237.5,-245,237.5,152.5,160,165,165,262.5,275,-285,275,677.5,105,Sub-Juniors,M,Raw,SBD
3,Yuri Karoglanyan,1999,,Armenia,103.18,220,230,240,240,175,180,183.5,183.5,235,250,-265,250,673.5,105,Sub-Juniors,M,Raw,SBD
4,Wojciech Grupiński,1999,,Poland,102.92,235,-245,245,245,140,147.5,-152.5,147.5,240,260,-270,260,652.5,105,Sub-Juniors,M,Raw,SBD
5,Edwin Lord,1999,,UK,101.4,200,210,220,220,132.5,140,145,145,250,265,275,275,640,105,Sub-Juniors,M,Raw,SBD
6,Shijirbaatar Dagvajamts,1999,,Mongolia,104.63,170,180,190,190,115,125,132.5,132.5,210,220,-230,220,542.5,105,Sub-Juniors,M,Raw,SBD
7,Mihkel Ruut,1999,,Estonia,99.82,185,200,-207.5,200,110,117.5,-122.5,117.5,-215,215,-225,215,532.5,105,Sub-Juniors,M,Raw,SBD
1,Jaden Burgess-Eisch,1999,,USA,118.79,250,-265,265,265,172.5,182.5,-185.5,182.5,260,275,-287.5,275,722.5,120,Sub-Juniors,M,Raw,SBD
2,Ruslan Nesterov,1999,,Russia,108.88,210,230,-240,230,150,160,-165,160,200,220,-235,220,610,120,Sub-Juniors,M,Raw,SBD
1,Bradley May,1999,,UK,125.88,255,270,285,285,140,150,155,155,255,272.5,280,280,720,120+,Sub-Juniors,M,Raw,SBD
2,Vadim Sassin,2000,,Kazakhstan,123.71,220,240,255,255,135,142.5,147.5,147.5,200,-207.5,-210,200,602.5,120+,Sub-Juniors,M,Raw,SBD
3,Rodrigo Nazareno,1999,,Brazil,149.16,205,217.5,-227.5,217.5,105,-112.5,112.5,112.5,217.5,225,232.5,232.5,562.5,120+,Sub-Juniors,M,Raw,SBD
4,Ihor Orobets,2000,,Ukraine,120.56,165,175,180,180,125,130,135,135,200,207.5,217.5,217.5,532.5,120+,Sub-Juniors,M,Raw,SBD
5,Ihar Krasinski,1999,,Belarus,120.28,180,-190,-197.5,180,120,127.5,132.5,132.5,-215,-215,215,215,527.5,120+,Sub-Juniors,M,Raw,SBD
1,Egidijus Valčiukas,1998,,Lithuania,52.97,191.5,-200,200,200,115,125,-130,125,130,140,145,145,470,53,Juniors,M,Raw,SBD
2,Denis Pavlov,1998,,Russia,52.46,130,137.5,142.5,142.5,100,105,-107.5,105,160,170,-180,170,417.5,53,Juniors,M,Raw,SBD
3,Taiki Matsui,1996,,Japan,52.62,100,110,-120,110,60,-65,65,65,135,140,150,150,325,53,Juniors,M,Raw,SBD
4,Joeshua Ayala,1998,,USA,52.07,90,-100,100,100,75,82.5,-85,82.5,115,-120,132.5,132.5,315,53,Juniors,M,Raw,SBD
1,Boris Komissarov,1998,,Russia,57.54,180,190,-200,190,-130,135,140,140,190,200,-205,200,530,59,Juniors,M,Raw,SBD
2,Jason Luo,1995,,Canada,58.79,180,192.5,-200,192.5,105,110,115,115,222.5,-232.5,-232.5,222.5,530,59,Juniors,M,Raw,SBD
3,Vladyslav Yermishyn,1994,,Ukraine,58.48,162.5,170,172.5,172.5,130,135,-140,135,220,-225,-225,220,527.5,59,Juniors,M,Raw,SBD
4,Artsiom Savelyeu,1998,,Belarus,58.98,200,210,-215,210,105,110,115,115,197.5,-202.5,-210,197.5,522.5,59,Juniors,M,Raw,SBD
5,Sergey Chizhikov,1997,,Russia,58.5,200,-210,210,210,100,-105,105,105,205,-212.5,-215,205,520,59,Juniors,M,Raw,SBD
6,Yernur Khaylyamov,1994,,Kazakhstan,58.15,155,165,172.5,172.5,127.5,-135,135,135,170,182.5,-205,182.5,490,59,Juniors,M,Raw,SBD
1,Clifton Pho,1995,,Canada,64.73,200,212.5,217.5,217.5,135,-142.5,-142.5,135,265,283,285,285,637.5,66,Juniors,M,Raw,SBD
2,Eddie Berglund,1995,,Sweden,65.27,210,220,222.5,222.5,182.5,-189.5,-189.5,182.5,215,222.5,232.5,232.5,637.5,66,Juniors,M,Raw,SBD
3,Sawyer Yandell,1994,,USA,65.14,235,249,-250.5,249,115,122.5,-125,122.5,235,247.5,-267.5,247.5,619,66,Juniors,M,Raw,SBD
4,Jordan Tom,1994,,Australia,64.6,-217.5,217.5,222.5,222.5,135,142.5,-145,142.5,220,230,-235,230,595,66,Juniors,M,Raw,SBD
5,Lenard Jones,1995,,USA,64.81,197.5,207.5,-210,207.5,145,150,-155,150,215,222.5,-240,222.5,580,66,Juniors,M,Raw,SBD
6,Frédéric Mannequin,1994,,France,65.72,200,210,-215,210,130,-135,135,135,220,-235,-235,220,565,66,Juniors,M,Raw,SBD
7,Hakim Riahi,1998,,Algeria,65.5,190,205,207.5,207.5,92.5,-100,100,100,255,-272.5,-272.5,255,562.5,66,Juniors,M,Raw,SBD
8,Tom Chang,1994,,UK,65.68,170,180,-185,180,120,127.5,132.5,132.5,220,232.5,245,245,557.5,66,Juniors,M,Raw,SBD
9,Dawid Natorski,1995,,Poland,65.67,182.5,190,-195,190,120,125,127.5,127.5,220,-230,230,230,547.5,66,Juniors,M,Raw,SBD
10,Nathaniel Shaw,1994,,UK,65.16,175,187.5,197.5,197.5,102.5,110,115,115,212.5,225,232.5,232.5,545,66,Juniors,M,Raw,SBD
1,Mason Cabney,1998,,USA,72.97,247.5,-261,-261,247.5,137.5,140,-142.5,140,265,272.5,280.5,280.5,668,74,Juniors,M,Raw,SBD
2,Pavel Agarkov,1995,,Russia,73.11,225,235,-240,235,140,-145,-145,140,245,260,280,280,655,74,Juniors,M,Raw,SBD
3,Bastien Poyet,1995,,France,72.77,210,-220,-220,210,-190,190,-197.5,190,227.5,240,252.5,252.5,652.5,74,Juniors,M,Raw,SBD
4,Matti Christensen,1995,,Denmark,73.47,235,245,-250,245,187.5,192.5,-195.5,192.5,215,-222.5,-225,215,652.5,74,Juniors,M,Raw,SBD
5,Andreas Nilsson #1,1998,,Sweden,73.81,210,217.5,225,225,152.5,-157.5,157.5,157.5,230,247.5,257.5,257.5,640,74,Juniors,M,Raw,SBD
6,Christopher Dang,1996,,Canada,73.07,197.5,207.5,-210,207.5,142.5,-147.5,-147.5,142.5,265,-275,-275,265,615,74,Juniors,M,Raw,SBD
7,Paulius Pupinis,1994,,Lithuania,73.25,195,207.5,-212.5,207.5,140,145,-147.5,145,225,-245,-247.5,225,577.5,74,Juniors,M,Raw,SBD
8,Kane McKenzie,1994,,New Zealand,72.55,195,205,-212.5,205,125,132.5,-137.5,132.5,225,235,-240,235,572.5,74,Juniors,M,Raw,SBD
9,Kota Egawa,1996,,Japan,73.1,210,220,-222.5,220,105,110,-115,110,-220,220,-240,220,550,74,Juniors,M,Raw,SBD
10,Albertas Motiečius,1994,,Lithuania,71.75,180,187.5,-192.5,187.5,150,157.5,160,160,190,-205,,190,537.5,74,Juniors,M,Raw,SBD
11,Kermo Parn,1998,,Estonia,69.47,160,170,-175,170,95,100,,100,-200,200,-210,200,470,74,Juniors,M,Raw,SBD
DQ,Daniel Ilczyszyn,1994,,Poland,73.82,217.5,225,230,230,-152.5,152.5,-157.5,152.5,-245,-245,-245,,,74,Juniors,M,Raw,SBD
1,Jon Gruden,1994,,USA,80.35,262.5,272.5,-275,272.5,182.5,190,-195,190,270,285,290,290,752.5,83,Juniors,M,Raw,SBD
2,Sean Noriega,1996,,USA,82.02,260,272.5,-277.5,272.5,175,182.5,-185,182.5,282.5,295,-300,295,750,83,Juniors,M,Raw,SBD
3,Marat Aminov,1995,,Russia,82.02,225,235,242.5,242.5,165,172.5,177.5,177.5,272.5,282.5,292.5,292.5,712.5,83,Juniors,M,Raw,SBD
4,Stanislav Zdrobylko,1995,,Ukraine,81.38,247.5,255,260,260,175,180,-182.5,180,250,257.5,-262.5,257.5,697.5,83,Juniors,M,Raw,SBD
5,Evgenii Gaibura,1995,,Russia,82.78,245,257.5,265,265,160,167.5,172.5,172.5,240,250,-262.5,250,687.5,83,Juniors,M,Raw,SBD
6,Brandon Leclerc,1995,,Canada,81.59,232.5,242.5,252.5,252.5,147.5,152.5,155,155,275,-285,-285,275,682.5,83,Juniors,M,Raw,SBD
7,Radomil Vašík,1994,,Czechia,81.05,230,242.5,252.5,252.5,127.5,132.5,140,140,262.5,277.5,287.5,287.5,680,83,Juniors,M,Raw,SBD
8,Willy Lam,1994,,Canada,82.32,235,-245,250,250,130,137.5,-140,137.5,-270,277.5,287.5,287.5,675,83,Juniors,M,Raw,SBD
9,Teemu Hällfors,1995,,Finland,81.65,225,235,240,240,170,175,-180,175,235,252.5,-257.5,252.5,667.5,83,Juniors,M,Raw,SBD
10,Maksym Samoilov,1994,,Ukraine,82.09,240,250,260,260,147.5,157.5,-160,157.5,250,-262.5,-262.5,250,667.5,83,Juniors,M,Raw,SBD
11,Robin Larsson,1995,,Sweden,82.12,245,255,-260,255,150,157.5,-160,157.5,255,-265,-265,255,667.5,83,Juniors,M,Raw,SBD
12,Erik Mata,1996,,UK,82.12,232.5,242.5,250,250,145,150,-152.5,150,-255,255,265,265,665,83,Juniors,M,Raw,SBD
13,William Clarke,1994,,Ireland,80.85,232.5,242.5,-247.5,242.5,150,157.5,162.5,162.5,235,240,-245,240,645,83,Juniors,M,Raw,SBD
14,Chido Nnoli,1997,,Norway,80.57,212.5,225,,225,125,135,140,140,260,-262.5,-285,260,625,83,Juniors,M,Raw,SBD
15,Filip Filipovic,1994,,Austria,82.51,197.5,217.5,225,225,147.5,157.5,162.5,162.5,-225,-225,225,225,612.5,83,Juniors,M,Raw,SBD
1,Gustav Hedlund,1995,,Sweden,90.51,275,287.5,-292.5,287.5,182.5,190,195,195,300,315,-317.5,315,797.5,93,Juniors,M,Raw,SBD
2,Bob van den Boogaard,1995,,Netherlands,92.32,280,290,295,295,170,175,177.5,177.5,290,302.5,-310,302.5,775,93,Juniors,M,Raw,SBD
3,Dávid Kulcsár,1996,,Hungary,92.27,252.5,265,272.5,272.5,182.5,-190,190,190,290,302.5,-312.5,302.5,765,93,Juniors,M,Raw,SBD
4,Newton Ly,1995,,Canada,92.1,280,292.5,295,295,172.5,177.5,-182.5,177.5,265,275,-280,275,747.5,93,Juniors,M,Raw,SBD
5,Knut Martin Haraldsen,1994,,Norway,91.83,255,270,-275,270,195,-200,-200,195,270,-297.5,-300,270,735,93,Juniors,M,Raw,SBD
6,Joakim Jørgensen,1994,,Denmark,92.41,237.5,245,250,250,162.5,167.5,-170,167.5,280,290,-300,290,707.5,93,Juniors,M,Raw,SBD
7,Maxim Schutan,1994,,Germany,92.56,-260,260,-270,260,170,177.5,182.5,182.5,245,252.5,260,260,702.5,93,Juniors,M,Raw,SBD
8,Jun Furukawa,1996,,Japan,92.47,255,265,275,275,-135,140,145,145,260,280,-300,280,700,93,Juniors,M,Raw,SBD
9,Matthias Wallner,1994,,Austria,91.71,225,235,242.5,242.5,170,175,-180,175,250,270,-280,270,687.5,93,Juniors,M,Raw,SBD
10,Saxon Wayner,1995,,Australia,89.97,225,240,-245,240,152.5,157.5,160,160,280,-300,-300,280,680,93,Juniors,M,Raw,SBD
11,Rokas Černiauskas,1994,,Lithuania,91.89,220,235,-245,235,160,170,175,175,260,-275,,260,670,93,Juniors,M,Raw,SBD
12,Kenneth Nwaezeigwe,1994,,Ireland,91.31,232.5,245,250,250,137.5,145,-150,145,250,260,265,265,660,93,Juniors,M,Raw,SBD
13,Colin Eustace,1997,,Ireland,84.73,215,225,235,235,127.5,135,-140,135,255,275,282.5,282.5,652.5,93,Juniors,M,Raw,SBD
14,Brett Williams Ryan,1995,,UK,90.15,195,-202.5,202.5,202.5,140,150,155,155,260,267.5,-275,267.5,625,93,Juniors,M,Raw,SBD
15,Rory Lynch,1994,,New Zealand,91.66,195,205,212.5,212.5,142.5,150,-152.5,150,237.5,252.5,257.5,257.5,620,93,Juniors,M,Raw,SBD
16,Eugene Scheepers,1995,,South Africa,91.92,205,220,227.5,227.5,132.5,140,145,145,225,242.5,-247.5,242.5,615,93,Juniors,M,Raw,SBD
17,Spencer Hammond,1998,,South Africa,87.43,190,205,-212.5,205,135,140,142.5,142.5,230,252.5,257.5,257.5,605,93,Juniors,M,Raw,SBD
18,Seyedmohsen Salarinezhad,1994,,Iran,87.72,202.5,-212.5,-212.5,202.5,130,137.5,-142.5,137.5,207.5,215,222.5,222.5,562.5,93,Juniors,M,Raw,SBD
1,Mitchell Fountain,1996,,USA,102.95,287.5,305,315,315,170,185,190,190,307.5,327.5,-350,327.5,832.5,105,Juniors,M,Raw,SBD
2,Zakaria Mouffok,1996,,Algeria,103,290,310,-320,310,160,175,180,180,310,327.5,-330,327.5,817.5,105,Juniors,M,Raw,SBD
3,Burkit Muratkhanuly,1995,,Kazakhstan,104.48,275,287.5,292.5,292.5,185,192.5,197.5,197.5,-310,310,,310,800,105,Juniors,M,Raw,SBD
4,Vladislav Aksennikov,1997,,Russia,103.03,260,270,-275,270,180,187.5,-192.5,187.5,305,325,-342.5,325,782.5,105,Juniors,M,Raw,SBD
5,Luke Tremblay,1996,,Canada,103.63,260,275,280,280,180,187.5,190,190,290,305,-315,305,775,105,Juniors,M,Raw,SBD
6,Joshua Greenfield,1994,,UK,104.41,-270,290,307.5,307.5,162.5,172.5,-175,172.5,265,285,-300,285,765,105,Juniors,M,Raw,SBD
7,Alexander Vermetten,1994,,Netherlands,102.21,240,250,-252.5,250,160,167.5,-170,167.5,310,325,-332.5,325,742.5,105,Juniors,M,Raw,SBD
8,Jokūbas Stasiulis,1995,,Lithuania,104.64,255,262.5,-270,262.5,192.5,197.5,200,200,275,-290,,275,737.5,105,Juniors,M,Raw,SBD
9,Lucas Hügerich,1994,,Germany,103.1,245,260,275,275,162.5,167.5,172.5,172.5,250,270,-290,270,717.5,105,Juniors,M,Raw,SBD
10,Adrian Świerczyński,1996,,Poland,102.8,-230,230,-250,230,180,190,197.5,197.5,280,-290,,280,707.5,105,Juniors,M,Raw,SBD
11,Barry Kane,1994,,Ireland,100.97,240,247.5,250,250,170,175,-180,175,270,277.5,-285,277.5,702.5,105,Juniors,M,Raw,SBD
12,Kazutaka Gunji,1994,,Japan,102.07,225,240,-250,240,135,145,150,150,235,250,260,260,650,105,Juniors,M,Raw,SBD
13,Hiroaki Sakamoto,1996,,Japan,102.53,220,230,240,240,150,165,170,170,215,230,235,235,645,105,Juniors,M,Raw,SBD
1,Mark Macqueen,1994,,UK,119.48,297.5,315,327.5,327.5,177.5,187.5,192.5,192.5,297.5,317.5,327.5,327.5,847.5,120,Juniors,M,Raw,SBD
2,Jackson Spencer,1995,,Canada,118.31,297.5,312.5,327.5,327.5,180,187.5,192.5,192.5,300,320,-330,320,840,120,Juniors,M,Raw,SBD
3,Tristan Nazelrod,1996,,USA,118.54,295,310,315,315,195,205,-207.5,205,285,305,307.5,307.5,827.5,120,Juniors,M,Raw,SBD
4,Dmytro Vovk,1996,,Ukraine,118.56,285,305,-312.5,305,215,225,230,230,270,-290,292.5,292.5,827.5,120,Juniors,M,Raw,SBD
5,Mikhail Vlasov,1995,,Russia,114.22,270,-282.5,282.5,282.5,185,192.5,200,200,275,287.5,295,295,777.5,120,Juniors,M,Raw,SBD
6,Bjarte Vik Larsen,1994,,Norway,119.3,270,280,,280,200,207.5,210,210,255,287.5,-310,287.5,777.5,120,Juniors,M,Raw,SBD
1,Pavlo Nakonechnyy,1997,,Ukraine,157.62,320,-335,-335,320,190,200,205,205,320,342.5,355.5,355.5,880.5,120+,Juniors,M,Raw,SBD
2,Luke Richardson #1,1997,,UK,129.82,307.5,330,337.5,337.5,172.5,185,190,190,315,337.5,-350,337.5,865,120+,Juniors,M,Raw,SBD
3,Mehmet Kaya,1996,,Sweden,120.19,300,315,325,325,170,177.5,180,180,300,312.5,320,320,825,120+,Juniors,M,Raw,SBD
4,Erik Røen,1996,,Norway,133.71,275,290,297.5,297.5,172.5,182.5,187.5,187.5,302.5,322.5,-325,322.5,807.5,120+,Juniors,M,Raw,SBD
5,Joshua Derchia,1994,,Canada,130.54,250,257.5,-265,257.5,172.5,182.5,187.5,187.5,272.5,285,-302.5,285,730,120+,Juniors,M,Raw,SBD
6,Fraser Pennington,1996,,UK,126.41,265,280,290,290,155,165,170,170,250,262.5,-270,262.5,722.5,120+,Juniors,M,Raw,SBD
7,Sota Saito,1995,,Japan,128.03,235,250,-260,250,170,177.5,182.5,182.5,240,255,-267.5,255,687.5,120+,Juniors,M,Raw,SBD
1,Sławomir Śledź,1976,,Poland,58.16,170,-177.5,177.5,177.5,135,140,-142.5,140,190,200,-205,200,517.5,59,Masters 1,M,Raw,SBD
2,Thomas Wulffeld,1969,,Sweden,58.7,152.5,162.5,170,170,85,90,-92.5,90,190,202.5,212.5,212.5,472.5,59,Masters 1,M,Raw,SBD
3,Zack Toh,1973,,Singapore,58.23,140,-150,-150,140,100,-105,105,105,170,180,-202.5,180,425,59,Masters 1,M,Raw,SBD
4,Benoit Angin,1974,,France,58.31,120,140,-150,140,80,87.5,90,90,120,140,-150,140,370,59,Masters 1,M,Raw,SBD
1,Lewis Noppers,1970,,Canada,65.43,-175,185,195,195,125,130,-132.5,130,225,250,265,265,590,66,Masters 1,M,Raw,SBD
2,Mike Cagliola,1970,,USA,65.64,157.5,167.5,175,175,122.5,130,-132.5,130,195,205,210,210,515,66,Masters 1,M,Raw,SBD
3,Greig Murray,1971,,UK,64.48,145,155,-160,155,115,120,122.5,122.5,210,225,-230,225,502.5,66,Masters 1,M,Raw,SBD
4,Michael Bernard,1970,,France,65.07,160,-165,-165,160,145,147.5,-151,147.5,190,195,-197.5,195,502.5,66,Masters 1,M,Raw,SBD
5,Roger Hamilton-Smith,1975,,UK,65.35,152.5,162.5,167.5,167.5,97.5,105,107.5,107.5,197.5,210,222.5,222.5,497.5,66,Masters 1,M,Raw,SBD
6,Paul McLaren,1974,,Ireland,64.6,145,150,155,155,82.5,85,-87.5,85,207.5,215,-217.5,215,455,66,Masters 1,M,Raw,SBD
1,Jøran Langset,1977,,Norway,72.56,205,215,220,220,122.5,127.5,132.5,132.5,240,250,260,260,612.5,74,Masters 1,M,Raw,SBD
2,Neville Harris,1977,,Australia,73.84,202.5,-215,215,215,130,135,-137.5,135,225,240,245,245,595,74,Masters 1,M,Raw,SBD
3,Sean Muir,1970,,Australia,72.91,200,207.5,-212.5,207.5,125,130,-132.5,130,242.5,252.5,-262.5,252.5,590,74,Masters 1,M,Raw,SBD
4,Timo Heiskanen,1970,,Finland,73.2,185,195,-202.5,195,105,112.5,115,115,250,260,-262.5,260,570,74,Masters 1,M,Raw,SBD
5,Enkhbat Sanduijav,1974,,Mongolia,72.99,190,200,-210,200,120,125,130,130,220,235,-255,235,565,74,Masters 1,M,Raw,SBD
6,Denzil Vreugd,1976,,Netherlands,73.44,192.5,202.5,210,210,130,135,137.5,137.5,217.5,-232.5,-242.5,217.5,565,74,Masters 1,M,Raw,SBD
7,Jason Jackson #1,1974,,USA,72.5,195,-215,-215,195,120,127.5,130,130,235,-250,-250,235,560,74,Masters 1,M,Raw,SBD
8,Rafał Paprocki,1974,,Poland,73.25,165,175,182.5,182.5,110,115,-117.5,115,235,245,255,255,552.5,74,Masters 1,M,Raw,SBD
9,Vadim Filimonenko,1974,,Kazakhstan,71.92,190,200,-202.5,200,125,130,-132.5,130,200,-220,,200,530,74,Masters 1,M,Raw,SBD
10,Katsunori Kawahata,1972,,Japan,73.14,160,-180,-180,160,150,-160,160,160,180,200,-210,200,520,74,Masters 1,M,Raw,SBD
11,Christian Wenka,1977,,Austria,72.84,165,175,180,180,105,110,112.5,112.5,215,222.5,-227.5,222.5,515,74,Masters 1,M,Raw,SBD
1,Robert Mihailov,1977,,Bulgaria,82.19,200,215,225,225,130,140,145,145,300,317.5,325,325,695,83,Masters 1,M,Raw,SBD
2,André Geffry,1976,,France,82.59,225,235,237.5,237.5,140,145,150,150,250,270,-285,270,657.5,83,Masters 1,M,Raw,SBD
3,Altankhuyag Damdinsuren,1974,,Mongolia,78.91,190,200,207.5,207.5,142.5,145,152.5,152.5,200,207.5,212.5,212.5,572.5,83,Masters 1,M,Raw,SBD
4,David O'Brien,1971,,UK,82.58,195,205,210,210,130,132.5,135,135,220,-227.5,-230,220,565,83,Masters 1,M,Raw,SBD
5,Mohamed Marie,1977,,Egypt,80.93,-190,-190,190,190,140,-145,-145,140,220,230,-245,230,560,83,Masters 1,M,Raw,SBD
6,Craig Reichman,1970,,South Africa,82.72,160,170,-175,170,100,105,112.5,112.5,185,200,205,205,487.5,83,Masters 1,M,Raw,SBD
1,Brandon Summers,1977,,Canada,91.08,250,260,270,270,170,177.5,185,185,252.5,265,272.5,272.5,727.5,93,Masters 1,M,Raw,SBD
2,Miklós Fekete,1973,,Hungary,91.15,240,252.5,262.5,262.5,160,170,175,175,260,-262.5,-292.5,260,697.5,93,Masters 1,M,Raw,SBD
3,Ronny Björkhaug,1972,,Sweden,91.6,220,235,240,240,165,170,-175,170,275,-285,285,285,695,93,Masters 1,M,Raw,SBD
4,Christian Klotz,1977,,Austria,91.44,215,225,232.5,232.5,187.5,192.5,-197.5,192.5,240,255,260,260,685,93,Masters 1,M,Raw,SBD
5,Fabrice Houbre,1975,,France,90.96,210,217.5,225,225,155,162.5,-165,162.5,240,252.5,-265,252.5,640,93,Masters 1,M,Raw,SBD
6,Dean Johnson,1975,,USA,90.86,237.5,250,-252.5,250,140,145,-150,145,237.5,-247.5,-250,237.5,632.5,93,Masters 1,M,Raw,SBD
7,Josef Lipka,1976,,Czechia,91,195,-210,210,210,145,150,-152.5,150,270,-285,-285,270,630,93,Masters 1,M,Raw,SBD
8,Jeff Rollin,1975,,Canada,88.09,200,212.5,220,220,-140,140,145,145,230,242.5,255,255,620,93,Masters 1,M,Raw,SBD
9,Jurgis Zalans,1975,,Latvia,90.87,215,222.5,225,225,115,120,-122.5,120,250,-257.5,-257.5,250,595,93,Masters 1,M,Raw,SBD
10,Daniel Pires,1971,,France,91.42,192.5,202.5,215,215,150,-165,-165,150,207.5,215,-225,215,580,93,Masters 1,M,Raw,SBD
11,Tomáš Tauer,1972,,Czechia,92.37,190,-200,200,200,150,-160,160,160,210,220,-230,220,580,93,Masters 1,M,Raw,SBD
12,Sukh-Ochir Yura,1970,,Mongolia,92.54,205,-217.5,,205,-60,60,,60,250,262.5,-272.5,262.5,527.5,93,Masters 1,M,Raw,SBD
1,Igor Makovetskyi,1972,,Ukraine,103.38,306,315,320,320,180,185,-190,185,280,300,305,305,810,105,Masters 1,M,Raw,SBD
2,Andy Mahon,1976,,New Zealand,102.44,290,306.5,315.5,315.5,155,162.5,167.5,167.5,290,307.5,312.5,312.5,795.5,105,Masters 1,M,Raw,SBD
3,Ryan J Stills,1976,,USA,104.18,260,-275,-275,260,175,185,190,190,300,310,-335,310,760,105,Masters 1,M,Raw,SBD
4,Karel Rada #1,1973,,Czechia,104.11,260,275,280,280,160,170,-175,170,270,290,-300,290,740,105,Masters 1,M,Raw,SBD
5,Patrik Hedqvist,1975,,Sweden,103.88,230,240,250,250,175,180,185,185,260,275,-285,275,710,105,Masters 1,M,Raw,SBD
6,Dmitriy Mikhailov,1973,,Kazakhstan,104.78,220,240,255,255,170,-177.5,177.5,177.5,250,-267.5,-267.5,250,682.5,105,Masters 1,M,Raw,SBD
1,Dominic Sirianni,1977,,USA,119.54,270,282.5,292.5,292.5,192.5,202.5,210,210,270,285,290,290,792.5,120,Masters 1,M,Raw,SBD
2,László Pánisz,1972,,Hungary,117.95,272.5,290,295,295,160,-167.5,167.5,167.5,300,-310,310,310,772.5,120,Masters 1,M,Raw,SBD
3,Collin Pullar,1972,,Canada,118.69,-270,270,-275,270,190,200,207.5,207.5,265,280,292.5,292.5,770,120,Masters 1,M,Raw,SBD
4,Antti Vihola,1975,,Finland,118.84,240,260,-280,260,180,200,-210,200,280,300,-315,300,760,120,Masters 1,M,Raw,SBD
5,Yuriy Zakharov,1972,,Kazakhstan,119.64,-275,275,285,285,150,162.5,-170,162.5,270,280,-290,280,727.5,120,Masters 1,M,Raw,SBD
6,Petr Lahoda,1970,,Czechia,118.5,-260,260,-275,260,190,-200,-200,190,230,250,255,255,705,120,Masters 1,M,Raw,SBD
7,Hadi Talkhabi,1977,,Iran,119,260,270,-272.5,270,152.5,162.5,-167.5,162.5,265,-280,-280,265,697.5,120,Masters 1,M,Raw,SBD
8,Charles Duval,1972,,France,119.32,220,235,-245,235,-200,200,-210,200,220,230,-240,230,665,120,Masters 1,M,Raw,SBD
9,Toshio Nakamura,1970,,Japan,112.3,195,220,230,230,155,165,170,170,195,220,230,230,630,120,Masters 1,M,Raw,SBD
DQ,Hassan Koeik,1972,,Lebanon,118.04,-290,-290,-290,,192.5,-200,-202.5,192.5,295,305,315,315,,120,Masters 1,M,Raw,SBD
DQ,Bayarkhuu Tserendamba,1971,,Mongolia,119.77,220,,,220,-175,-185,-185,,210,-230,240,240,,120,Masters 1,M,Raw,SBD
1,Jaisyn Mike,1977,,USA,138.62,-272.5,272.5,-300,272.5,241,255,-275.5,255,307.5,322.5,340,340,867.5,120+,Masters 1,M,Raw,SBD
2,Grant Higa,1970,,USA,133.92,290,300,310,310,187.5,197.5,202.5,202.5,307.5,322.5,-325,322.5,835,120+,Masters 1,M,Raw,SBD
3,Tadas Gečas,1977,,Lithuania,130.1,270,285,290,290,187.5,197.5,-202.5,197.5,310,325,330,330,817.5,120+,Masters 1,M,Raw,SBD
4,Éric Bonin,1972,,France,132.1,250,257.5,262.5,262.5,197.5,202.5,205,205,250,265,277.5,277.5,745,120+,Masters 1,M,Raw,SBD
5,Sayeur Mario,1976,,Canada,141.46,280,-295,-295,280,140,147.5,152.5,152.5,287.5,-300,300,300,732.5,120+,Masters 1,M,Raw,SBD
6,Hamad Al Ajmi,1977,,UAE,128.21,250,260,-275,260,165,175,,175,230,240,,240,675,120+,Masters 1,M,Raw,SBD
7,James Brincat-Smith,1975,,UK,189.88,240,-260,260,260,130,137.5,-142.5,137.5,240,260,-270,260,657.5,120+,Masters 1,M,Raw,SBD
8,Haruhisa Shioya,1974,,Japan,141.3,190,-205,-205,190,120,130,-135,130,200,220,-240,220,540,120+,Masters 1,M,Raw,SBD
1,Paavo Hiltula,1961,,Finland,57.96,120,130,-135,130,80,-90,,80,170,180,190,190,400,59,Masters 2,M,Raw,SBD
2,Tomoyoshi Shiiki,1964,,Japan,58.76,-120,120,130,130,100,105,-110,105,140,150,-167.5,150,385,59,Masters 2,M,Raw,SBD
3,Toshinori Sasaki,1967,,Japan,58.58,70,80,90,90,120,-133,-133,120,80,100,110,110,320,59,Masters 2,M,Raw,SBD
1,David Gray,1964,,UK,63.6,-172.5,172.5,-185,172.5,122.5,127.5,-132.5,127.5,225,235,242.5,242.5,542.5,66,Masters 2,M,Raw,SBD
2,Jeff Phillips #1,1965,,USA,64.53,170,182.5,-193,182.5,107.5,112.5,-117.5,112.5,200,215,227.5,227.5,522.5,66,Masters 2,M,Raw,SBD
3,James Thompson #1,1964,,USA,63.9,165,177.5,180,180,110,115,-120,115,200,215,-220,215,510,66,Masters 2,M,Raw,SBD
4,Pascal Poidras,1967,,France,65.51,160,170,175,175,125,130,-135,130,170,185,-195,185,490,66,Masters 2,M,Raw,SBD
5,Motoaki Sugimoto,1966,,Japan,64.69,115,130,140,140,90,100,-105,100,155,170,185,185,425,66,Masters 2,M,Raw,SBD
6,Michael Wimmer,1961,,Germany,64.72,120,130,140,140,90,95,100,100,160,175,-187.5,175,415,66,Masters 2,M,Raw,SBD
7,Oleksandr Chernyshov,1966,,Ukraine,65.88,75,80,85,85,137.5,145,150.5,150.5,75,80,85,85,320.5,66,Masters 2,M,Raw,SBD
DQ,Henry Chay,1961,,UK,63.43,-140,140,150,150,-85,-85,-85,,190,200,205,205,,66,Masters 2,M,Raw,SBD
1,Takayuki Ito,1964,,Japan,72.85,180,190,200,200,115,125,127.5,127.5,215,230,240,240,567.5,74,Masters 2,M,Raw,SBD
2,Alimbek Rakhimov,1966,,Kyrgyzstan,73.81,180,190,192.5,192.5,142.5,147.5,-152.5,147.5,-205,205,225,225,565,74,Masters 2,M,Raw,SBD
3,Irving Harris,1964,,Nauru,73.91,208,212.5,-215,212.5,110,115,120,120,200,-210,-210,200,532.5,74,Masters 2,M,Raw,SBD
4,Vladimir Melnik,1960,,Russia,72.76,165,175,-180,175,130,135,-137.5,135,190,200,-205,200,510,74,Masters 2,M,Raw,SBD
5,Glen Chaytor,1965,,Canada,73.72,185,190,192.5,192.5,97.5,105,-107.5,105,190,-197.5,197.5,197.5,495,74,Masters 2,M,Raw,SBD
6,Allen Ottolangui,1960,,UK,73.4,165,175,-180,175,95,-100,-100,95,-185,185,-195,185,455,74,Masters 2,M,Raw,SBD
7,Eric Deleplace,1966,,France,73.16,140,150,,150,100,110,-112.5,110,160,180,-185,180,440,74,Masters 2,M,Raw,SBD
8,Reza Jafari,1960,,Iran,73.71,160,167.5,172.5,172.5,80,87.5,-90,87.5,160,170,177.5,177.5,437.5,74,Masters 2,M,Raw,SBD
1,Jeff Becker,1963,,Canada,82.18,212.5,222.5,230,230,137.5,142.5,145,145,250,260,265,265,640,83,Masters 2,M,Raw,SBD
2,Vladimir Shkirman,1964,,Kazakhstan,80.04,200,210,215,215,110,-115,-115,110,240,250,262.5,262.5,587.5,83,Masters 2,M,Raw,SBD
3,Philippe Pasquier,1967,,France,81.81,210,222.5,-230,222.5,120,125,-130,125,220,240,-247.5,240,587.5,83,Masters 2,M,Raw,SBD
4,David Clifford,1965,,UK,81.53,187.5,197.5,205,205,120,125,130,130,230,-245,-252.5,230,565,83,Masters 2,M,Raw,SBD
5,Fabrice Bertin,1967,,France,83,-190,-197.5,207.5,207.5,150,155,-157.5,155,200,-212.5,-215,200,562.5,83,Masters 2,M,Raw,SBD
6,Erik Rasmussen,1962,,Denmark,81.9,180,190,-195,190,130,135,-142.5,135,180,,,180,505,83,Masters 2,M,Raw,SBD
7,Erik Maack Hans,1966,,Norway,81.04,130,137.5,-142.5,137.5,107.5,112.5,117.5,117.5,165,172.5,180,180,435,83,Masters 2,M,Raw,SBD
1,Robert Rodney,1964,,UK,90.52,225,235,242.5,242.5,145,155,160,160,270,295.5,300.5,300.5,703,93,Masters 2,M,Raw,SBD
2,Eric Dumas,1964,,Australia,90.9,232.5,245,250,250,132.5,137.5,140,140,250,262.5,267.5,267.5,657.5,93,Masters 2,M,Raw,SBD
3,Gennadiy Melnik,1967,,Kazakhstan,89.34,225,235,-240,235,-145,145,-150,145,262.5,272.5,-277.5,272.5,652.5,93,Masters 2,M,Raw,SBD
4,Gemel Boughamdouz,1963,,France,92.62,210,217.5,220,220,165,-170,-170,165,232.5,245,,245,630,93,Masters 2,M,Raw,SBD
5,Peer Haensicke,1961,,Germany,92.59,210,220,,220,-165,165,-170,165,200,220,-230,220,605,93,Masters 2,M,Raw,SBD
6,Gennadii Smirnov,1960,,Russia,91.86,230,240,-245,240,145,152.5,-155,152.5,210,-220,,210,602.5,93,Masters 2,M,Raw,SBD
7,Harri Hagfors,1961,,Finland,92.49,195,207.5,-215,207.5,-130,130,137.5,137.5,235,-252.5,-265,235,580,93,Masters 2,M,Raw,SBD
1,Andy Childs,1967,,Canada,103.79,237.5,245,252.5,252.5,147.5,152.5,-155,152.5,240,270,-280,270,675,105,Masters 2,M,Raw,SBD
2,Adalgiso Sicoli,1960,,France,104.5,250,-260,260,260,-135,135,-140,135,250,265,272.5,272.5,667.5,105,Masters 2,M,Raw,SBD
3,Aleksander Ilin,1964,,Russia,100.45,225,232.5,235,235,152.5,157.5,-160,157.5,265,267.5,272.5,272.5,665,105,Masters 2,M,Raw,SBD
4,Calvin Titus,1966,,USA,96.84,200,215,220,220,167.5,175,177.5,177.5,240,242.5,-267.5,242.5,640,105,Masters 2,M,Raw,SBD
5,Oleksandr Sharov,1964,,Germany,102.21,200,210,-215,210,160,165,-167.5,165,225,232.5,-235,232.5,607.5,105,Masters 2,M,Raw,SBD
6,Jari Niskanen,1963,,Finland,104.13,205,-212.5,,205,140,-147.5,,140,250,260,-265,260,605,105,Masters 2,M,Raw,SBD
7,Andrey Lebedev,1962,,Russia,103.75,150,165,175,175,-100,100,-110,100,200,210,220,220,495,105,Masters 2,M,Raw,SBD
1,Colin Wright #1,1967,,UK,116.26,250,270,280,280,160,170,-177.5,170,280,300,-320,300,750,120,Masters 2,M,Raw,SBD
2,Jarosław Dąbrowski,1965,,Poland,105.15,220,230,235,235,160,-165,165,165,250,265,277.5,277.5,677.5,120,Masters 2,M,Raw,SBD
3,Dario Penzo,1965,,Sweden,118.58,195,210,220,220,155,162.5,167.5,167.5,240,265,270,270,657.5,120,Masters 2,M,Raw,SBD
4,Jiří Psota,1962,,Czechia,107.3,-205,205,-215,205,155,162.5,165,165,225,235,247.5,247.5,617.5,120,Masters 2,M,Raw,SBD
5,Jean-Claude Pinat,1963,,France,106.16,200,215,220,220,150,-155,-155,150,230,240,245,245,615,120,Masters 2,M,Raw,SBD
6,Ronny Andersen,1964,,Norway,117.48,205,-215,-217.5,205,152.5,157.5,-160,157.5,215,225,237.5,237.5,600,120,Masters 2,M,Raw,SBD
7,Sergey Nikeshin,1958,,Russia,117.99,200,-210,-220,200,150,-157.5,-157.5,150,230,245,-260,245,595,120,Masters 2,M,Raw,SBD
1,Vitaliy Morozevich,1966,,Russia,201,260,-270,278,278,202.5,210,215,215,280,310,,310,803,120+,Masters 2,M,Raw,SBD
2,Andrew Rodney,1965,,UK,123,245,-265,275,275,172.5,-180,-180,172.5,245,265,275,275,722.5,120+,Masters 2,M,Raw,SBD
3,Carl Werda,1966,,USA,144.87,235,260,267.5,267.5,160,167.5,-172.5,167.5,-245,245,-270,245,680,120+,Masters 2,M,Raw,SBD
4,Bernd Kerschbaumer,1965,,Austria,131.67,220,-240,-240,220,-160,160,170,170,240,260,-277.5,260,650,120+,Masters 2,M,Raw,SBD
5,Udo Thielking,1961,,Germany,129.84,180,190,200,200,155,165,-170,165,200,220,-235,220,585,120+,Masters 2,M,Raw,SBD
6,Timo Rantala,1963,,Finland,124.87,170,185,-195,185,140,155,-160,155,200,215,-220,215,555,120+,Masters 2,M,Raw,SBD
1,Akbar Rashedipour,1955,,Iran,58.9,130,140,-145,140,70,-75,-75,70,100,145,160,160,370,59,Masters 3,M,Raw,SBD
2,Alexander Moiseev,1954,,Belarus,58.55,115,-125,125,125,80,-85,-85,80,145,-147.5,-152.5,145,350,59,Masters 3,M,Raw,SBD
3,Kyoji Kawakami,1950,,Japan,57.5,90,-105,-105,90,90,92.5,-95.5,92.5,135,140,142.5,142.5,325,59,Masters 3,M,Raw,SBD
4,Taiichi Horibata,1954,,Japan,57.9,105,-115,-115,105,85,-90,-90,85,130,-135,-135,130,320,59,Masters 3,M,Raw,SBD
1,Mitsugu Hachisu,1950,,Japan,65.12,150,-160,-160,150,117.5,120,-126.5,120,170,180,-192.5,180,450,66,Masters 3,M,Raw,SBD
2,Alain Cuvelier,1953,,France,64.75,-140,-140,140,140,82.5,-90,90,90,180,190,-220,190,420,66,Masters 3,M,Raw,SBD
3,Georges Auberval,1956,,France,64.47,140,150,155,155,55,60,65,65,160,170,180,180,400,66,Masters 3,M,Raw,SBD
4,Markku Kemppainen,1949,,Finland,65.14,105,110,112.5,112.5,95,-100,100,100,145,155,-160,155,367.5,66,Masters 3,M,Raw,SBD
5,Bill Taylor #1,1957,,UK,64.87,-115,-115,115,115,82.5,87.5,-90,87.5,130,140,-145,140,342.5,66,Masters 3,M,Raw,SBD
1,Christian Voisin,1956,,France,72.63,185,200,206,206,125,-132.5,133,133,210,-221,-221,210,549,74,Masters 3,M,Raw,SBD
2,Vasilii Motovilnik,1957,,Russia,73.96,175,-187.5,-187.5,175,132.5,-137.5,-137.5,132.5,175,180,190,190,497.5,74,Masters 3,M,Raw,SBD
3,Serik Gusmanov,1956,,Kazakhstan,73.77,145,155,160,160,100,110,112.5,112.5,170,180,190,190,462.5,74,Masters 3,M,Raw,SBD
4,Jean-François Vinot,1951,,France,72.54,145,152.5,-157.5,152.5,80,85,-87.5,85,200,212.5,-225,212.5,450,74,Masters 3,M,Raw,SBD
5,Michel Bertrand,1957,,Belgium,72.46,155,-162.5,162.5,162.5,92.5,95,-97.5,95,165,172.5,-177.5,172.5,430,74,Masters 3,M,Raw,SBD
1,Jerry Marentette,1956,,Canada,82.24,182.5,192.5,196.5,196.5,117.5,122.5,125,125,225,232.5,237.5,237.5,559,83,Masters 3,M,Raw,SBD
2,John LaFlamme,1950,,USA,82.34,175,185,190,190,97.5,105,-107.5,105,220,-235,-240,220,515,83,Masters 3,M,Raw,SBD
3,Régis Gautier,1956,,France,82.43,155,-160,160,160,112.5,-115,-115,112.5,210,-222.5,,210,482.5,83,Masters 3,M,Raw,SBD
4,Didier Oliere,1952,,France,81.42,-130,135,-145,135,105,110,112.5,112.5,170,180,185,185,432.5,83,Masters 3,M,Raw,SBD
5,Haruyoshi Kozasa,1951,,Japan,79.34,-190,196,-210,196,-60,-60,60,60,170,-200,,170,426,83,Masters 3,M,Raw,SBD
6,Raul Lopez,1952,,USA,82.85,120,125,-137.5,125,75,77.5,80,80,180,182.5,185,185,390,83,Masters 3,M,Raw,SBD
1,Jens Aarhus,1954,,Sweden,91.22,200,215,220.5,220.5,120,125,130,130,200,215,227.5,227.5,578,93,Masters 3,M,Raw,SBD
2,Christian Delpieu,1951,,France,90.63,190,-205,205,205,110,-115,115,115,210,225,230,230,550,93,Masters 3,M,Raw,SBD
3,Nikolay Volkov,1951,,Russia,84.09,165,170,175,175,135,140,142.5,142.5,160,172.5,-182.5,172.5,490,93,Masters 3,M,Raw,SBD
4,Josef Weiß,1954,,Germany,88.43,120,127.5,137.5,137.5,72.5,77.5,-82.5,77.5,160,172.5,182.5,182.5,397.5,93,Masters 3,M,Raw,SBD
1,Veijo Räsänen,1957,,Finland,101,170,182.5,192.5,192.5,150,155,-157.5,155,252.5,262.5,-278,262.5,610,105,Masters 3,M,Raw,SBD
2,Thomas Högberg,1957,,Sweden,104.61,200,212.5,220,220,130,135,137.5,137.5,-230,230,-257.5,230,587.5,105,Masters 3,M,Raw,SBD
3,Colin Young,1957,,South Africa,103.76,140,150,155,155,147.5,155,160,160,190,205,-215,205,520,105,Masters 3,M,Raw,SBD
4,Jean-Paul Belmas,1949,,France,97.59,175,182.5,187.5,187.5,102.5,105,107.5,107.5,195,205,-215,205,500,105,Masters 3,M,Raw,SBD
1,Mykola Mekh,1950,,Ukraine,109.27,165,175,-185,175,135,140,-142.5,140,205,217.5,220,220,535,120,Masters 3,M,Raw,SBD
2,Richard Bettina,1957,,USA,116.43,-200,-200,200,200,122.5,-125,-125,122.5,210,-212.5,212.5,212.5,535,120,Masters 3,M,Raw,SBD
3,Andrew Ludik,1957,,South Africa,113.2,145,150,155,155,130,-135,,130,200,-210,-210,200,485,120,Masters 3,M,Raw,SBD
4,Karl-Heinz May,1953,,Germany,113.64,120,,,120,140,147.5,-152.5,147.5,180,,,180,447.5,120,Masters 3,M,Raw,SBD
1,Kelvin Aitken,1957,,Australia,120.15,180,195,205,205,135,145,-152.5,145,270,285,-300,285,635,120+,Masters 3,M,Raw,SBD
2,Harald Paul,1954,,Germany,126.8,195,207.5,220.5,220.5,160,-165,165,165,200,212.5,220,220,605.5,120+,Masters 3,M,Raw,SBD
3,John O'Dwyer,1955,,Ireland,130.24,205,212.5,,212.5,160,167.5,-172.5,167.5,200,210,217.5,217.5,597.5,120+,Masters 3,M,Raw,SBD
4,Curtis Wainwright,1954,,USA,120.74,210,220,227.5,227.5,120,125,-130,125,230,240,-245,240,592.5,120+,Masters 3,M,Raw,SBD
5,John Maguire,1954,,Ireland,123.07,190,200,,200,140,,,140,210,232.5,242.5,242.5,582.5,120+,Masters 3,M,Raw,SBD
1,Akiyoshi Kawanaka,1942,,Japan,58.25,80,90,95,95,80,-85,-85,80,100,110,-115,110,285,59,Masters 4,M,Raw,SBD
1,Alex Galant,1947,,USA,62.58,90,102.5,107.5,107.5,35,-45,45,45,100,120,130,130,282.5,66,Masters 4,M,Raw,SBD
1,Magomed Sautiev,1946,,Russia,70.7,100,110,120,120,55,60,65,65,140,-160,-160,140,325,74,Masters 4,M,Raw,SBD
2,Siarhei Sirotka,1935,,Belarus,72.45,100,-110,-115,100,25,-30,,25,132.5,140,,140,265,74,Masters 4,M,Raw,SBD
1,Ernie Parkes,1942,,UK,80.55,155,165,-173,165,85,90,92.5,92.5,210,217.5,-222.5,217.5,475,83,Masters 4,M,Raw,SBD
2,Mikhail Zhuravlev,1943,,Russia,79.31,-155,155,-165,155,100,-105,-105,100,185,195,-225,195,450,83,Masters 4,M,Raw,SBD
3,Kadyrzhan Izgarin,1946,,Kazakhstan,80.74,140,150,-157.5,150,95,-100,100,100,165,175,-180,175,425,83,Masters 4,M,Raw,SBD
4,Kari Misukka,1946,,Finland,82.1,-120,120,-127.5,120,90,95,-97.5,95,180,-190,-190,180,395,83,Masters 4,M,Raw,SBD
5,Kari Mattila,1945,,Sweden,82.1,120,130,-140,130,80,85,-90,85,175,-185,-185,175,390,83,Masters 4,M,Raw,SBD
6,Anatoly Karniakou,1941,,Belarus,78.3,80,90,95,95,-85,85,90,90,105,-115,-115,105,290,83,Masters 4,M,Raw,SBD
1,Kazimierz Michael Forys,1945,,Germany,91.27,-175,175,-190,175,130,137,-140,137,210,-233,-233,210,522,93,Masters 4,M,Raw,SBD
2,Tapani Puhakka,1944,,Finland,90.22,-80,80,87.5,87.5,80,85,90,90,160,170,180,180,357.5,93,Masters 4,M,Raw,SBD
3,Clive Lingard,1945,,UK,91.44,75,85,90,90,85,92.5,-100,92.5,120,140,-167.5,140,322.5,93,Masters 4,M,Raw,SBD
1,Christian Buchs,1947,,France,96.97,200,-212.5,212.5,212.5,100,110,115,115,217.5,-227.5,227.5,227.5,555,105,Masters 4,M,Raw,SBD
2,Tapio Kähäri,1946,,Finland,94.35,150,160,172.5,172.5,95,100,105,105,157.5,165,170,170,447.5,105,Masters 4,M,Raw,SBD
3,Mihkel Laurits,1944,,Estonia,99,135,145,-150,145,107.5,-115,-115,107.5,180,190,195,195,447.5,105,Masters 4,M,Raw,SBD
4,Claudir Lopes,1940,,Brazil,96.2,150,-165,-165,150,125,128,130,130,165,-175,-180,165,445,105,Masters 4,M,Raw,SBD
1,Mikko Seikkula,1946,,Finland,117.7,100,130,150,150,160,181,185,185,160,-180,-200,160,495,120,Masters 4,M,Raw,SBD
1,Heather Connor,1991,,USA,45.97,132.5,137.5,-140,137.5,65,-70,-70,65,160,167.5,170,170,372.5,47,Open,F,Raw,SBD
2,Stina Åkemalm,1989,,Sweden,46.04,125,130,-132.5,130,72.5,75,77.5,77.5,150,157.5,165,165,372.5,47,Open,F,Raw,SBD
3,Kristine Almroth,1988,,Sweden,46.3,135,-140,-140,135,77.5,80,-82.5,80,145,150,-152.5,150,365,47,Open,F,Raw,SBD
4,Hanna Rantala,1982,,Finland,46.87,110,115,120,120,87.5,93.5,95.5,95.5,135,-145,-150,135,350.5,47,Open,F,Raw,SBD
5,Leslie Evangelista,1981,,Philippines,46.67,112.5,117.5,122.5,122.5,62.5,67.5,-70,67.5,150,-157.5,-160,150,340,47,Open,F,Raw,SBD
6,Rie Kani,1979,,Japan,46.43,110,115,-117.5,115,70,72.5,75,75,142.5,-150,-150,142.5,332.5,47,Open,F,Raw,SBD
7,Noémie Allabert,1990,,France,46.72,-107.5,107.5,-110,107.5,57.5,-60,60,60,135,145,-152.5,145,312.5,47,Open,F,Raw,SBD
8,Ewa Mioduszewska,1989,,Poland,46.23,100,-107.5,107.5,107.5,45,50,-52.5,50,140,150,-157.5,150,307.5,47,Open,F,Raw,SBD
9,Rebecca Heath,1977,,UK,46.55,100,107.5,-110,107.5,62.5,67.5,70,70,117.5,127.5,-135,127.5,305,47,Open,F,Raw,SBD
10,Marina Lopatnikova,1983,,Russia,46.99,102.5,-107.5,-107.5,102.5,62.5,-67.5,-67.5,62.5,115,-122.5,122.5,122.5,287.5,47,Open,F,Raw,SBD
11,Coline Sirman,1990,,Switzerland,46.8,77.5,85,90,90,57.5,-62.5,62.5,62.5,112.5,117.5,120,120,272.5,47,Open,F,Raw,SBD
12,Mariska Casey,1978,,South Africa,46.41,85,90,-95,90,57.5,-60,60,60,120,-135,-135,120,270,47,Open,F,Raw,SBD
13,Volha Ihnatsenka,1978,,Belarus,45.18,67.5,-75,-75,67.5,40,42.5,-45,42.5,90,97.5,100,100,210,47,Open,F,Raw,SBD
1,Marisa Inda,1976,,USA,50.9,137.5,-142.5,142.5,142.5,85,90,95,95,167.5,182.5,-185,182.5,420,52,Open,F,Raw,SBD
2,Elizabeth Craven,1975,,Australia,51.69,145,150,156,156,80,82.5,85,85,172.5,-180,-182.5,172.5,413.5,52,Open,F,Raw,SBD
3,Joy Nnamani,1992,,UK,51.06,140,145,147.5,147.5,77.5,82.5,-85,82.5,182.5,-191,-191,182.5,412.5,52,Open,F,Raw,SBD
4,Olga Golubeva,1970,,Russia,51.54,140,145,147.5,147.5,95,100,-102.5,100,165,-172.5,-172.5,165,412.5,52,Open,F,Raw,SBD
5,Suzanne Hartwig-Gary,1968,,USA,51.55,142.5,150,156.5,156.5,67.5,72.5,77.5,77.5,145,155,160,160,394,52,Open,F,Raw,SBD
6,Hazel Hu,1984,,Ireland,50.91,127.5,132.5,135,135,70,75,77.5,77.5,150,-155,155,155,367.5,52,Open,F,Raw,SBD
7,Sophia Waldemarson,1988,,Sweden,51.08,115,120,-122.5,120,90,95,97.5,97.5,140,145,147.5,147.5,365,52,Open,F,Raw,SBD
8,Emma Goodwin,1987,,UK,51.54,107.5,112.5,117.5,117.5,65,70,-72.5,70,155,162.5,-172.5,162.5,350,52,Open,F,Raw,SBD
9,Anna Hourihane,1993,,Ireland,50.84,120,-125,125,125,70,75,-77.5,75,137.5,145,-147.5,145,345,52,Open,F,Raw,SBD
10,Megan Hinchley,1981,,Australia,51.46,-115,115,122.5,122.5,62.5,65,67.5,67.5,132.5,142.5,147.5,147.5,337.5,52,Open,F,Raw,SBD
11,Marcela Sandvik,1974,,Finland,51.52,107.5,112.5,117.5,117.5,82.5,-87.5,-87.5,82.5,135,-140,-140,135,335,52,Open,F,Raw,SBD
12,Gabriella de Gouveia,1990,,South Africa,51.84,112.5,-117.5,-117.5,112.5,-50,50,52.5,52.5,120,130,135,135,300,52,Open,F,Raw,SBD
13,Ana Almeida,1981,,Brazil,50.44,95,102.5,107.5,107.5,57.5,60,62.5,62.5,115,122.5,-125,122.5,292.5,52,Open,F,Raw,SBD
DQ,Hanna Seppä,1993,,Finland,51.7,110,-117.5,-117.5,110,62.5,-70,-70,62.5,-150,,,,,52,Open,F,Raw,SBD
1,Jennifer Millican,1983,1983-01-25,USA,56.14,157.5,167.5,174.5,174.5,92.5,97.5,100,100,177.5,187.5,-195,187.5,462,57,Open,F,Raw,SBD
2,Maria Htee,1988,,Canada,55.76,167.5,-172.5,172.5,172.5,92.5,97.5,100,100,180,-190,-192.5,180,452.5,57,Open,F,Raw,SBD
3,Kenia Monserrate,1991,,Ecuador,55.43,150,160,-165,160,87.5,92.5,95,95,170,-177.5,177.5,177.5,432.5,57,Open,F,Raw,SBD
4,Hui-Chun Wu,1986,,Taiwan,56.79,-130,130,140,140,100,107.5,-115.5,107.5,175,-185,-187.5,175,422.5,57,Open,F,Raw,SBD
5,Victoria Jeppsson,1993,,Sweden,54.8,132.5,140,-142.5,140,72.5,80,82.5,82.5,162.5,170,172.5,172.5,395,57,Open,F,Raw,SBD
6,Caroline Suné,1985,,France,56.65,147.5,150,-152.5,150,77.5,-80,-80,77.5,157.5,162.5,167.5,167.5,395,57,Open,F,Raw,SBD
7,Yuliya Vavilova,1979,,Russia,56.9,137.5,142.5,-147.5,142.5,75,80,85,85,150,160,167.5,167.5,395,57,Open,F,Raw,SBD
8,Vanessa Alvares,1978,,Brazil,55.76,142.5,150,-155,150,75,77.5,-80,77.5,-155,160,-167.5,160,387.5,57,Open,F,Raw,SBD
9,Cornelia Larsen,1980,,Denmark,54.3,117.5,122.5,125,125,95,-100,100,100,140,147.5,-155,147.5,372.5,57,Open,F,Raw,SBD
10,Ragnheiður Kr. Sigurðardóttir,1981,,Iceland,56.25,117.5,120,122.5,122.5,-77.5,77.5,-80,77.5,145,-152.5,152.5,152.5,352.5,57,Open,F,Raw,SBD
11,Toni Coetzee,1984,,South Africa,56.42,110,115,117.5,117.5,52.5,57.5,-60,57.5,115,125,135,135,310,57,Open,F,Raw,SBD
12,Magdalena Tanzer,1979,,Austria,56.16,95,102.5,-107.5,102.5,60,65,-67.5,65,122.5,132.5,-142.5,132.5,300,57,Open,F,Raw,SBD
DQ,Nataliya Marukhno,1986,,Ukraine,55.33,117.5,125,-130,125,-80,-82.5,-82.5,,160,-167.5,-167.5,160,,57,Open,F,Raw,SBD
DQ,Inna Filimonova #1,1976,,Russia,56.17,160,-167.5,170,170,-77.5,-77.5,-77.5,,170,182.5,-190,182.5,,57,Open,F,Raw,SBD
1,Ivana Horná,1990,,Slovakia,62.63,160,165,-167.5,165,92.5,-97.5,-97.5,92.5,200,-210,-210,200,457.5,63,Open,F,Raw,SBD
2,Maria Dubenskaya,1988,,Russia,62.19,147.5,155,160,160,107.5,112.5,-115,112.5,170,-180,-180,170,442.5,63,Open,F,Raw,SBD
3,Tanja Stenholdt Olsen,1990,,Denmark,61.85,145,152.5,157.5,157.5,77.5,82.5,-85,82.5,177.5,187.5,192.5,192.5,432.5,63,Open,F,Raw,SBD
4,Tamara Thomsen,1982,,Germany,62.83,152.5,160,162.5,162.5,82.5,87.5,90,90,175,180,-182.5,180,432.5,63,Open,F,Raw,SBD
5,Carolina Dillen,1983,,New Zealand,62.41,152.5,-157.5,-160,152.5,80,85,-87.5,85,175,182.5,-190,182.5,420,63,Open,F,Raw,SBD
6,Christine Castro,1992,,Canada,62.31,-152.5,152.5,160,160,72.5,77.5,80,80,175,-187.5,-192.5,175,415,63,Open,F,Raw,SBD
7,Abi Graham,1978,,UK,62.18,120,130,140,140,80,85,87.5,87.5,157.5,170,177.5,177.5,405,63,Open,F,Raw,SBD
8,Johanna Aguinaga,1993,,Ecuador,62.9,142.5,-147.5,-147.5,142.5,100,105,107.5,107.5,145,-150,-150,145,395,63,Open,F,Raw,SBD
9,Gabrielle Ervine,1989,,Ireland,62.45,127.5,135,137.5,137.5,80,85,87.5,87.5,155,165,-170,165,390,63,Open,F,Raw,SBD
10,Safia Kouri,1974,,Algeria,62.2,142.5,147.5,150,150,55,62.5,-65,62.5,155,160,-165,160,372.5,63,Open,F,Raw,SBD
11,Kim Stevenson,1982,,Australia,62.54,-127.5,127.5,-132.5,127.5,105,107.5,-110,107.5,130,137.5,-145,137.5,372.5,63,Open,F,Raw,SBD
12,Abby Hall,1994,,Canada,61.38,125,-132.5,132.5,132.5,82.5,85,-87.5,85,140,-147.5,147.5,147.5,365,63,Open,F,Raw,SBD
13,Emilia Sobiech-Konopa,1988,,Poland,62.53,130,-137.5,137.5,137.5,67.5,72.5,-75,72.5,150,-157.5,-157.5,150,360,63,Open,F,Raw,SBD
14,Laura Newman,1983,,South Africa,62.63,122.5,-127.5,127.5,127.5,55,60,-65,60,142.5,147.5,-150,147.5,335,63,Open,F,Raw,SBD
1,Kimberly Walford,1978,,USA,71.13,180,185,-187.5,185,105,110,-112.5,110,227.5,237.5,-246,237.5,532.5,72,Open,F,Raw,SBD
2,Ana Rosa Castellain,1985,,Brazil,69.62,185,192.5,196,196,127.5,130,-132.5,130,197.5,205,-210,205,531,72,Open,F,Raw,SBD
3,Isabella von Weissenberg,1989,,Sweden,71.59,185,193,-197.5,193,95,97.5,-100,97.5,200,210,-215,210,500.5,72,Open,F,Raw,SBD
4,Chelsea Savit,1991,,USA,71.7,165,175,180,180,112.5,120,122.5,122.5,185,197.5,-205,197.5,500,72,Open,F,Raw,SBD
5,Annika Zelander,1988,,Sweden,71.71,172.5,180,-185,180,-112.5,112.5,117.5,117.5,190,197.5,-205,197.5,495,72,Open,F,Raw,SBD
6,Alyssa Smith #1,1992,,Canada,70.96,172.5,180,-185,180,87.5,92.5,95,95,202.5,-212.5,-212.5,202.5,477.5,72,Open,F,Raw,SBD
7,Annemari Løberg Larsen,1992,,Norway,71.14,157.5,-162.5,162.5,162.5,70,75,-77.5,75,192.5,205,212.5,212.5,450,72,Open,F,Raw,SBD
8,Johanna Kankus,1984,,Finland,71.07,162.5,167.5,-170,167.5,102.5,107.5,-110,107.5,162.5,170,-172.5,170,445,72,Open,F,Raw,SBD
9,Sheri Miles,1986,,UK,70.37,137.5,145,150,150,77.5,82.5,85,85,185,-187.5,200,200,435,72,Open,F,Raw,SBD
10,Marzena Wierzbicka,1989,,Poland,71.54,155,-162.5,165,165,90,-95,95,95,175,-187.5,-187.5,175,435,72,Open,F,Raw,SBD
11,Louise Millar,1986,,Ireland,70.28,152.5,160,165,165,85,90,92.5,92.5,155,165,175,175,432.5,72,Open,F,Raw,SBD
12,Gwen Mostert,1985,,Netherlands,70.11,125,132.5,137.5,137.5,82.5,87.5,-90,87.5,170,180,185,185,410,72,Open,F,Raw,SBD
13,Jessica Saywell,1990,,Australia,71.32,127.5,137.5,-145,137.5,80,87.5,92.5,92.5,162.5,180,-187.5,180,410,72,Open,F,Raw,SBD
14,Maria Volkova,1972,,Russia,70.91,140,147.5,150,150,100,105,-110,105,145,152.5,-155,152.5,407.5,72,Open,F,Raw,SBD
15,Tanya Bull,1983,,UK,70.97,142.5,150,-155,150,72.5,77.5,-80,77.5,165,172.5,-180,172.5,400,72,Open,F,Raw,SBD
16,Arnhildur Anna Árnadóttir,1992,,Iceland,70.99,147.5,152.5,-157.5,152.5,80,-82.5,-82.5,80,165,-167.5,,165,397.5,72,Open,F,Raw,SBD
17,Louise Kenna,1982,,Ireland,71.58,-142.5,142.5,-145,142.5,80,82.5,85,85,167.5,-175,-175,167.5,395,72,Open,F,Raw,SBD
18,Marlena Gabriel,1989,,Australia,71.63,125,135,-140,135,75,-80,80,80,165,175,-180,175,390,72,Open,F,Raw,SBD
19,Chantelle Du Toit,1985,,South Africa,71.82,115,120,-125,120,72.5,77.5,82.5,82.5,145,-157.5,-157.5,145,347.5,72,Open,F,Raw,SBD
DQ,Birgit Rós Becker,1989,,Iceland,69.99,160,165,-167.5,165,77.5,80,-82.5,80,-157.5,-157.5,-157.5,,,72,Open,F,Raw,SBD
DQ,Olga Kholyavko,1989,,Kazakhstan,70.24,-170,170,-177.5,170,85,90,95,95,-165,-165,-165,,,72,Open,F,Raw,SBD
1,Ielja Strik,1973,,Netherlands,83.24,195,-202.5,202.5,202.5,127.5,132.5,135,135,185,192.5,197.5,197.5,535,84,Open,F,Raw,SBD
2,Sara Cowan,1995,,Canada,83.36,187.5,192.5,195,195,107.5,110,-112.5,110,202.5,210,215,215,520,84,Open,F,Raw,SBD
3,Sniazhana Zubko,1991,,Belarus,80.35,190,197.5,200,200,92.5,97.5,100,100,205,-215,215,215,515,84,Open,F,Raw,SBD
4,Yan-Fei Zhao,1995,,Australia,83.9,185,195,-197.5,195,100,102.5,105,105,190,202.5,207.5,207.5,507.5,84,Open,F,Raw,SBD
5,Sylvia Szarvas,1984,,Germany,82.73,150,157.5,162.5,162.5,120,125,-127.5,125,165,177.5,185,185,472.5,84,Open,F,Raw,SBD
6,Danielle Philibert,1992,,Canada,81.22,162.5,170,175,175,85,90,95,95,177.5,-187.5,187.5,187.5,457.5,84,Open,F,Raw,SBD
7,Anne Karlsen,1992,,Denmark,77.86,145,152.5,-155,152.5,77.5,82.5,-85,82.5,177.5,192.5,202.5,202.5,437.5,84,Open,F,Raw,SBD
8,Leslie Hoare,1984,,Ireland,82.56,135,140,145,145,85,90,-92.5,90,177.5,180,182.5,182.5,417.5,84,Open,F,Raw,SBD
9,Einasleigh Happer,1991,,Australia,81.77,155,162.5,-167.5,162.5,80,-85,-85,80,165,-170,-170,165,407.5,84,Open,F,Raw,SBD
1,Bonica Brown,1988,,USA,130.7,250,-260,-260,250,135,140,145,145,205,220,-238.5,220,615,84+,Open,F,Raw,SBD
2,Emelie Pettersson,1980,,Sweden,116.58,210,215,222.5,222.5,125,130,-132.5,130,-210,-210,210,210,562.5,84+,Open,F,Raw,SBD
3,Hailey Kostynuik,1992,,Canada,129.58,222.5,232.5,-237.5,232.5,107.5,112.5,115,115,205,-210,-212.5,205,552.5,84+,Open,F,Raw,SBD
4,Anna Gavrilova,1988,,Russia,115.65,187.5,202.5,207.5,207.5,110,117.5,125,125,180,190,202.5,202.5,535,84+,Open,F,Raw,SBD
5,Fang-Yun Su,1992,,Taiwan,120.1,220,232.5,237.5,237.5,105,110,112.5,112.5,185,-200,-202.5,185,535,84+,Open,F,Raw,SBD
6,Camille Holland,1988,,UK,118.85,202.5,212.5,222.5,222.5,100,107.5,112.5,112.5,170,182.5,190,190,525,84+,Open,F,Raw,SBD
7,Zuzana Bitterová,1984,,Czechia,111.11,155,165,-175,165,85,90,-92.5,90,150,160,-165,160,415,84+,Open,F,Raw,SBD
DQ,Touria Kendouci,1978,,Algeria,116.42,-180,-180,-180,,55,65,72.5,72.5,145,-155,160,160,,84+,Open,F,Raw,SBD
1,Alina Rassamahina,2001,,Russia,42.68,85,90,95,95,52.5,-55,-55,52.5,100,110,115.5,115.5,263,43,Sub-Juniors,F,Raw,SBD
2,Olga Volynskaya,1999,,Russia,42.28,85,90,92.5,92.5,57.5,60,-61,60,100,105,110,110,262.5,43,Sub-Juniors,F,Raw,SBD
3,Kristina Popova,2001,,Kazakhstan,42.92,85,-90,-90,85,55,60.5,-62.5,60.5,100,105,107.5,107.5,253,43,Sub-Juniors,F,Raw,SBD
4,Brianna Morrison,2001,,USA,40.5,87.5,95,97.5,97.5,47.5,52.5,-57.5,52.5,92.5,97.5,102.5,102.5,252.5,43,Sub-Juniors,F,Raw,SBD
5,Anastasiya Zakharchenko #1,1999,,Ukraine,42.65,82.5,-87.5,-90,82.5,40,45,-47.5,45,115,-120,-120,115,242.5,43,Sub-Juniors,F,Raw,SBD
DQ,Kasumi Hamada,2000,,Japan,40.52,85,90,-92.5,90,40,-45,-45,40,-111.5,-112.5,-112.5,,,43,Sub-Juniors,F,Raw,SBD
1,Ekaterina Ageeva,2000,,Russia,46.99,92.5,97.5,100,100,47.5,52.5,-55,52.5,107.5,112.5,120,120,272.5,47,Sub-Juniors,F,Raw,SBD
2,Olivia Kyösti,1999,,Finland,47,95,100,102.5,102.5,52.5,-55,55,55,107.5,110,-115,110,267.5,47,Sub-Juniors,F,Raw,SBD
3,Klaudia Poszwa,2000,,Poland,46.6,90,97.5,-102.5,97.5,40,42.5,-45,42.5,112.5,120,-132.5,120,260,47,Sub-Juniors,F,Raw,SBD
4,Aliya Kishkimbayeva,2000,,Kazakhstan,47,82.5,90,-92.5,90,57.5,62.5,-65,62.5,87.5,92.5,97.5,97.5,250,47,Sub-Juniors,F,Raw,SBD
5,Yana Klymova,1999,,Ukraine,46.44,77.5,-82.5,-82.5,77.5,45,47.5,-50,47.5,-107.5,107.5,-115,107.5,232.5,47,Sub-Juniors,F,Raw,SBD
1,Febrose Tsiode,1999,,Nauru,51.26,127.5,-130.5,-135,127.5,100.5,105.5,110.5,110.5,130,-132.5,135,135,373,52,Sub-Juniors,F,Raw,SBD
2,Fanny Lamminen,2002,,Finland,51.63,125,130,-132.5,130,65,70,72.5,72.5,125,130,-132.5,130,332.5,52,Sub-Juniors,F,Raw,SBD
3,Anastasiia Malysheva,2000,,Russia,50.46,110,115,117.5,117.5,55,-60,-60,55,130,-135,135,135,307.5,52,Sub-Juniors,F,Raw,SBD
4,Brynn Hamilton,1999,,Canada,51.18,105,112.5,117.5,117.5,52.5,55,57.5,57.5,125,132.5,-137.5,132.5,307.5,52,Sub-Juniors,F,Raw,SBD
5,Nastassia Tkhoryk,1999,,Belarus,50.39,90,95,-100,95,42.5,45,-47.5,45,95,105,110,110,250,52,Sub-Juniors,F,Raw,SBD
6,Nadezhda Tsereshko,2001,,Belarus,50.96,-80,80,-85,80,40,45,47.5,47.5,102.5,-112.5,112.5,112.5,240,52,Sub-Juniors,F,Raw,SBD
7,Denisa Turková,2003,,Czechia,48.74,65,70,75,75,32.5,-37.5,37.5,37.5,75,82.5,87.5,87.5,200,52,Sub-Juniors,F,Raw,SBD
1,Alina Sarycheva,1999,,Russia,54.63,110,117.5,122.5,122.5,95,102.5,-105,102.5,125,132.5,137.5,137.5,362.5,57,Sub-Juniors,F,Raw,SBD
2,Shoko Onishi,1999,,Japan,54.53,135,142.5,-150,142.5,55,57.5,60,60,135,145,-160,145,347.5,57,Sub-Juniors,F,Raw,SBD
3,Kateryna Tkachuk,2000,,Ukraine,57,110,115,120,120,72.5,-80,-80,72.5,130,137.5,-142.5,137.5,330,57,Sub-Juniors,F,Raw,SBD
4,Olha Skaletska,1999,,Ukraine,56.59,120,-127.5,-127.5,120,57.5,62.5,65,65,125,132.5,-145,132.5,317.5,57,Sub-Juniors,F,Raw,SBD
5,Heini Lipponen,2000,,Finland,55.61,120,-125,-125,120,72.5,-75,-75,72.5,115,-120,,115,307.5,57,Sub-Juniors,F,Raw,SBD
6,Machaela Exner,2001,,USA,56.14,105,110,115,115,57.5,60,62.5,62.5,110,117.5,125,125,302.5,57,Sub-Juniors,F,Raw,SBD
7,Lucy Robinson #1,2002,,UK,56.7,-107.5,-107.5,107.5,107.5,47.5,52.5,-57.5,52.5,120,132.5,140,140,300,57,Sub-Juniors,F,Raw,SBD
8,Tekle Iaganashvili,1999,,Georgia,54.63,-100,105,-115,105,50,-60,-60,50,110,120,-135,120,275,57,Sub-Juniors,F,Raw,SBD
9,Veronika Opočenská,1999,,Czechia,54.36,80,85,90,90,50,-57.5,57.5,57.5,100,107.5,112.5,112.5,260,57,Sub-Juniors,F,Raw,SBD
10,Mizuki Kamiya,2000,,Japan,56.44,50,60,70,70,25,-30,-30,25,-70,70,90,90,185,57,Sub-Juniors,F,Raw,SBD
1,Ida Lis,2000,,Poland,62.24,135,-140,-140,135,70,72.5,75,75,145,152.5,155,155,365,63,Sub-Juniors,F,Raw,SBD
2,Daria Rusanenko,2001,,Ukraine,61.55,132.5,140,-146,140,72.5,75,77.5,77.5,130,140,145,145,362.5,63,Sub-Juniors,F,Raw,SBD
3,Yu Nomura,2000,,Japan,61.86,115,-125,125,125,67.5,72.5,75,75,140,150,152.5,152.5,352.5,63,Sub-Juniors,F,Raw,SBD
4,Anastasiya Zhurbina,1999,,Kazakhstan,61.13,112.5,117.5,-120,117.5,88.5,93,96,96,130,137.5,-145,137.5,351,63,Sub-Juniors,F,Raw,SBD
5,Dolora Ramanauskaitė,2000,,Lithuania,61.56,110,122.5,-127.5,122.5,60,62.5,65,65,125,135,145,145,332.5,63,Sub-Juniors,F,Raw,SBD
6,Sandra Sołtyszewska,1999,,Poland,62.67,120,127.5,-130,127.5,65,-67.5,-67.5,65,110,120,-125,120,312.5,63,Sub-Juniors,F,Raw,SBD
7,Ragna Gudbrandsdottir,2000,,Iceland,62.07,115,120,-122.5,120,57.5,62.5,-65,62.5,120,-125,-125,120,302.5,63,Sub-Juniors,F,Raw,SBD
8,Elena Marquez,2001,,USA,61.59,115,-117.5,-117.5,115,50,52.5,55,55,115,120,125,125,295,63,Sub-Juniors,F,Raw,SBD
9,Misaki Ikeda,1999,,Japan,62.25,-105,-105,105,105,60,-67.5,-67.5,60,130,-145,-145,130,295,63,Sub-Juniors,F,Raw,SBD
10,Caitlin Poxon,2000,,South Africa,61.54,100,105,110,110,52.5,55,-57.5,55,120,125,-130,125,290,63,Sub-Juniors,F,Raw,SBD
11,Amelia Maycock,2000,,UK,59.76,80,85,90,90,45,47.5,50,50,125,140,147.5,147.5,287.5,63,Sub-Juniors,F,Raw,SBD
1,Kloie Doublin,1999,,USA,71.19,150,165,168.5,168.5,95,102.5,107.5,107.5,175,190.5,200.5,200.5,476.5,72,Sub-Juniors,F,Raw,SBD
2,Sandra Augustiniok,1999,,Germany,68.37,130,-135,135,135,80,85,87.5,87.5,145,152.5,162.5,162.5,385,72,Sub-Juniors,F,Raw,SBD
3,Matthildur Óskarsdóttir,1999,,Iceland,69.31,120,125,130,130,80,82.5,87.5,87.5,135,142.5,147.5,147.5,365,72,Sub-Juniors,F,Raw,SBD
4,Nicole Ferreira,2001,,South Africa,68.89,112.5,-120,-120,112.5,55,60,-65,60,100,125,-147.5,125,297.5,72,Sub-Juniors,F,Raw,SBD
5,Selina Duelger,1999,,Austria,70.66,-105,-105,105,105,62.5,-67.5,-67.5,62.5,107.5,-112.5,112.5,112.5,280,72,Sub-Juniors,F,Raw,SBD
1,Bethany Parker,1999,,Australia,82.48,162.5,172.5,180,180,105,110,-112.5,110,180,190,-200,190,480,84,Sub-Juniors,F,Raw,SBD
2,Henna Kaasalainen,1999,,Finland,83.29,160,165,167.5,167.5,77.5,82.5,85,85,180,185,-187.5,185,437.5,84,Sub-Juniors,F,Raw,SBD
3,Natalie Richardson,1999,,USA,74.2,142.5,147.5,152.5,152.5,82.5,87.5,-92.5,87.5,160,165,-175,165,405,84,Sub-Juniors,F,Raw,SBD
4,Diana Minkova,2001,,Belarus,74.19,150,157.5,162.5,162.5,60,-67.5,67.5,67.5,145,160,-165,160,390,84,Sub-Juniors,F,Raw,SBD
5,Jelhandri Rautenbach,2001,,South Africa,74.14,120,130,140,140,62.5,67.5,72.5,72.5,140,152.5,-165,152.5,365,84,Sub-Juniors,F,Raw,SBD
6,Irina Kopylova,1999,,Russia,77.92,110,115,117.5,117.5,50,55,60,60,125,130,-132.5,130,307.5,84,Sub-Juniors,F,Raw,SBD
DQ,Hana Onu,2000,,Japan,79.94,110,120,-125,120,-67.5,-67.5,-67.5,,140,155,-165,155,,84,Sub-Juniors,F,Raw,SBD
1,Daria Efimtseva,2000,,Russia,116.79,172.5,187.5,195,195,100,110,112.5,112.5,160,170,175,175,482.5,84+,Sub-Juniors,F,Raw,SBD
2,Brea De Jonge,2001,,Australia,96.5,160,167.5,-170,167.5,75,80,85,85,160,167.5,172.5,172.5,425,84+,Sub-Juniors,F,Raw,SBD
3,Regina Meier,1999,,Kazakhstan,92.14,140,150,160,160,80,90,97.5,97.5,140,152.5,-162.5,152.5,410,84+,Sub-Juniors,F,Raw,SBD
4,Megan Rogers,1999,,South Africa,103.47,100,110,115,115,50,55,60,60,115,125,130,130,305,84+,Sub-Juniors,F,Raw,SBD
1,Volha Yermalitskaya,1997,,Belarus,41.86,85,90,92.5,92.5,50,55,57.5,57.5,110,117.5,-120,117.5,267.5,43,Juniors,F,Raw,SBD
2,Natalya Gorbacheva,1997,,Russia,42.6,82.5,87.5,-90,87.5,45,47.5,50,50,110,115,-120,115,252.5,43,Juniors,F,Raw,SBD
3,Dariia Brazhnyk,1997,,Ukraine,42.6,87.5,-92.5,-92.5,87.5,47.5,52.5,-55,52.5,90,97.5,102.5,102.5,242.5,43,Juniors,F,Raw,SBD
4,Sandra Tran,1995,,USA,37.29,77.5,82.5,-85,82.5,37.5,42.5,45,45,97.5,102.5,105,105,232.5,43,Juniors,F,Raw,SBD
5,Liubov Zamula,1997,,Ukraine,42.16,80,-85,-87.5,80,32.5,37.5,-40,37.5,95,100,105,105,222.5,43,Juniors,F,Raw,SBD
1,Violeta Chebotar,1994,,Ukraine,46.14,107.5,115,120,120,75,80,82,82,115,125,130,130,332,47,Juniors,F,Raw,SBD
2,Andréa Zicaro,1994,,France,46.74,112.5,117.5,-120,117.5,70,75,-77.5,75,125,130,-140,130,322.5,47,Juniors,F,Raw,SBD
3,Alyssa Mirasol,1994,,USA,46.85,102.5,-107.5,-107.5,102.5,55,60,62.5,62.5,137.5,147.5,-158,147.5,312.5,47,Juniors,F,Raw,SBD
4,Tatsiana Damashyna,1998,,Belarus,46.62,110,115,-117.5,115,57.5,60,-62.5,60,120,127.5,-137.5,127.5,302.5,47,Juniors,F,Raw,SBD
5,Alisa Zhilkina,1995,,Russia,46.42,102.5,-107.5,-107.5,102.5,67.5,70,-72.5,70,122.5,-127.5,-127.5,122.5,295,47,Juniors,F,Raw,SBD
6,Sabrina Shah,1996,,UK,45.68,95,100,102.5,102.5,57.5,60,62.5,62.5,112.5,117.5,120,120,285,47,Juniors,F,Raw,SBD
7,Clara Barsoee,1994,,Denmark,46.08,92.5,-100,-100,92.5,57.5,62.5,-65,62.5,110,117.5,122.5,122.5,277.5,47,Juniors,F,Raw,SBD
8,Alexandra Dieni,1998,,Australia,46.1,82.5,90,95,95,57.5,62.5,67.5,67.5,97.5,107.5,115,115,277.5,47,Juniors,F,Raw,SBD
1,Oksana Hronovych,1994,,Ukraine,51.45,110,115,120,120,70,75,77.5,77.5,150,155,160,160,357.5,52,Juniors,F,Raw,SBD
2,Nicola Paviglianiti,1994,,Canada,51.7,132.5,-137.5,-137.5,132.5,67.5,70,-72.5,70,145,150,155,155,357.5,52,Juniors,F,Raw,SBD
3,Mariia Tsudna,1994,,Ukraine,51.77,115,120,125,125,62.5,70,,70,135,145,-160,145,340,52,Juniors,F,Raw,SBD
4,Jenny Lee,1994,,USA,51.74,132.5,-140.5,-140.5,132.5,-75,75,-80,75,120,-130,-132.5,120,327.5,52,Juniors,F,Raw,SBD
5,Pernille Stenberg,1994,,Norway,50.78,-102.5,107.5,-112.5,107.5,-77.5,77.5,80,80,120,125,-130,125,312.5,52,Juniors,F,Raw,SBD
6,Krystsina Shlykovich,1998,,Belarus,51.48,95,102.5,-107.5,102.5,52.5,55,-57.5,55,110,120,-127.5,120,277.5,52,Juniors,F,Raw,SBD
7,Viktorija Nikolenkaitė,1997,,Lithuania,51.71,75,-82.5,82.5,82.5,52.5,-57.5,-57.5,52.5,112.5,120,-125,120,255,52,Juniors,F,Raw,SBD
1,Rachel Jones #1,1995,,Australia,55.9,145,-153.5,153.5,153.5,70,72.5,-75,72.5,162.5,167.5,-170,167.5,393.5,57,Juniors,F,Raw,SBD
2,Satu Pylväs,1994,,Finland,56.6,127.5,130,-132.5,130,80,82.5,-85,82.5,172.5,176.5,-181.5,176.5,389,57,Juniors,F,Raw,SBD
3,Gabrielle Mamani,1994,,USA,55.68,125,132.5,137.5,137.5,70,-75,75,75,-170,-170,170,170,382.5,57,Juniors,F,Raw,SBD
4,Hannah Chan,1994,,UK,56.74,125,132.5,137.5,137.5,70,75,77.5,77.5,140,147.5,150,150,365,57,Juniors,F,Raw,SBD
5,Alexandra Stodalka,1995,,Canada,55.82,122.5,130,-135,130,85,-87.5,87.5,87.5,130,140,-150,140,357.5,57,Juniors,F,Raw,SBD
6,Krista Määttä,1995,,Finland,56.63,117.5,122.5,-127.5,122.5,77.5,-82.5,-82.5,77.5,140,150,157.5,157.5,357.5,57,Juniors,F,Raw,SBD
7,Catherine Smith,1995,,UK,55.84,112.5,122.5,125,125,57.5,62.5,-65,62.5,150,160,167.5,167.5,355,57,Juniors,F,Raw,SBD
8,Anna Schneider,1994,,Canada,56.14,127.5,-132.5,132.5,132.5,70,75,77.5,77.5,145,-152.5,-155,145,355,57,Juniors,F,Raw,SBD
9,Kirsty Flores,1994,,USA,56.07,120,125,-130,125,60,65,67.5,67.5,150,-155,-157.5,150,342.5,57,Juniors,F,Raw,SBD
10,Megan Leighton,1996,,South Africa,56.4,112.5,117.5,-125,117.5,62.5,65,-67.5,65,125,-135,135,135,317.5,57,Juniors,F,Raw,SBD
11,Anna Elizarova,1995,,Russia,56.56,125,132.5,-140,132.5,82.5,87.5,-90,87.5,75,,,75,295,57,Juniors,F,Raw,SBD
1,Viktoriya Makarevich,1994,,Belarus,62.29,135,142.5,145,145,82.5,87.5,90,90,160,172.5,177.5,177.5,412.5,63,Juniors,F,Raw,SBD
2,Alison Kam,1994,,Canada,60.62,145,152.5,157.5,157.5,72.5,77.5,80,80,152.5,162.5,170,170,407.5,63,Juniors,F,Raw,SBD
3,Daria Grebenkova,1994,,Russia,62.46,142.5,147.5,150,150,87.5,92.5,95,95,155,162.5,-167.5,162.5,407.5,63,Juniors,F,Raw,SBD
4,Sofiya Rud,1997,,Ukraine,61.36,135,-142.5,142.5,142.5,77.5,82.5,-85,82.5,165,175,-182.5,175,400,63,Juniors,F,Raw,SBD
5,Jolien Dreesen,1994,,Netherlands,61.2,145,152.5,-157.5,152.5,70,72.5,75,75,167.5,-175,-180,167.5,395,63,Juniors,F,Raw,SBD
6,Morin Elodie,1995,,Canada,60.75,130,135,-137.5,135,82.5,85,87.5,87.5,142.5,150,157.5,157.5,380,63,Juniors,F,Raw,SBD
7,Zoia Safarova,1995,,Russia,62.41,147.5,-155,-155,147.5,72.5,77.5,-80,77.5,145,152.5,-157.5,152.5,377.5,63,Juniors,F,Raw,SBD
8,Ayaka Tsutsumi,1995,,Japan,61.87,125,135,-140,135,72.5,77.5,-80,77.5,147.5,155,-162.5,155,367.5,63,Juniors,F,Raw,SBD
9,Essi Laakso,1995,,Finland,61.48,125,130,-132.5,130,85,87.5,-90,87.5,132.5,137.5,142.5,142.5,360,63,Juniors,F,Raw,SBD
10,Amie Limbrick,1995,,New Zealand,62.68,122.5,-127.5,127.5,127.5,65,67.5,70,70,142.5,152.5,155,155,352.5,63,Juniors,F,Raw,SBD
11,Abi Cronin,1994,,Ireland,61.86,115,120,122.5,122.5,70,75,77.5,77.5,145,150,-152.5,150,350,63,Juniors,F,Raw,SBD
12,Elspeth McLeod,1995,,UK,57.01,120,125,-130,125,60,67.5,-72.5,67.5,-140,140,150,150,342.5,63,Juniors,F,Raw,SBD
13,Aoife O'Sullivan,1995,,Ireland,62.05,115,120,-122.5,120,57.5,60,-62.5,60,150,157.5,162.5,162.5,342.5,63,Juniors,F,Raw,SBD
14,Simona Bakšytė,1995,,Lithuania,59.79,90,97.5,100,100,55,-60,-60,55,140,150,-157.5,150,305,63,Juniors,F,Raw,SBD
1,Kazusa Madoba,1996,,Japan,67.9,140,150,157.5,157.5,77.5,82.5,-87.5,82.5,160,170,177.5,177.5,417.5,72,Juniors,F,Raw,SBD
2,Iryna Sukhval,1996,,Belarus,69.45,142.5,147.5,-150,147.5,-100,100,-102.5,100,160,167.5,-170,167.5,415,72,Juniors,F,Raw,SBD
3,Catherine Chu,1994,,Canada,70.64,145,155,160,160,-72.5,72.5,75,75,-160,160,177.5,177.5,412.5,72,Juniors,F,Raw,SBD
4,Diana Hernandez-Avalos,1994,,USA,70.45,157.5,-167.5,-167.5,157.5,80,82.5,85,85,160,167.5,-175,167.5,410,72,Juniors,F,Raw,SBD
5,Kyra Thomson,1994,,Canada,71.48,140,147.5,-152.5,147.5,67.5,70,-72.5,70,180,185,-197.5,185,402.5,72,Juniors,F,Raw,SBD
6,Mariia Erokhina,1995,,Russia,71.18,142.5,147.5,-150,147.5,85,90,-92.5,90,150,-155,,150,387.5,72,Juniors,F,Raw,SBD
7,Maaike de Vries,1994,,Netherlands,70.79,130,137.5,142.5,142.5,77.5,82.5,-85,82.5,130,137.5,142.5,142.5,367.5,72,Juniors,F,Raw,SBD
8,Mia Schepis,1995,,Australia,70.81,127.5,-135,135,135,60,65,-67.5,65,130,145,155,155,355,72,Juniors,F,Raw,SBD
9,Melisa Heinonen,1995,,Finland,69.48,110,115,122.5,122.5,67.5,72.5,75,75,150,155,-162.5,155,352.5,72,Juniors,F,Raw,SBD
10,Suzanne Gray #2,1995,,Ireland,70.23,117.5,122.5,125,125,70,72.5,-75,72.5,145,150,152.5,152.5,350,72,Juniors,F,Raw,SBD
11,Carrie Carmichael,1995,,Ireland,67.37,125,-130,130,130,50,52.5,55,55,160,-167.5,-167.5,160,345,72,Juniors,F,Raw,SBD
12,Dina Power,1994,,South Africa,68.49,105,112.5,117.5,117.5,55,60,-62.5,60,135,-150,155,155,332.5,72,Juniors,F,Raw,SBD
DQ,Viktoryia Bardouskaya,1995,,Belarus,67.63,-155,-155,-155,,80,-82.5,82.5,82.5,160,-167.5,-170,160,,72,Juniors,F,Raw,SBD
1,Daniella Melo,1998,,USA,83.03,187.5,198.5,206.5,206.5,110,115,117.5,117.5,195,202.5,207.5,207.5,531.5,84,Juniors,F,Raw,SBD
2,Chrystal Williams,1995,,UK,82.88,162.5,172.5,-177.5,172.5,90,97.5,100,100,192.5,200,205,205,477.5,84,Juniors,F,Raw,SBD
3,Lezaan Jordaan,1995,,South Africa,82.42,140,150,-155,150,70,77.5,-80,77.5,165,172.5,190,190,417.5,84,Juniors,F,Raw,SBD
4,Natasha Tranter,1994,,UK,80.56,145,152.5,155,155,75,82.5,85,85,162.5,170,175,175,415,84,Juniors,F,Raw,SBD
5,Alina Davletshina,1996,,Russia,83.77,150,-155,-155,150,90,95,-97.5,95,150,157.5,-160,157.5,402.5,84,Juniors,F,Raw,SBD
6,Alexandra Kousathana,1994,,Canada,78.62,110,120,125,125,82.5,87.5,-90,87.5,132.5,142.5,147.5,147.5,360,84,Juniors,F,Raw,SBD
1,Xeniya Okatenko,1994,,Kazakhstan,106.1,185,195,202.5,202.5,125,132.5,135.5,135.5,170,180,190,190,528,84+,Juniors,F,Raw,SBD
2,Leigh Wetheridge,1994,,UK,104.89,170,185,192.5,192.5,100,110,112.5,112.5,200,212.5,-225,212.5,517.5,84+,Juniors,F,Raw,SBD
3,Lauren Varosi-Garavaglia,1996,,USA,136.08,185,195,-200,195,90,-97.5,-97.5,90,170,177.5,182.5,182.5,467.5,84+,Juniors,F,Raw,SBD
4,Charlie Chester,1996,,UK,103.17,162.5,172.5,180,180,90,-97.5,97.5,97.5,170,177.5,182.5,182.5,460,84+,Juniors,F,Raw,SBD
5,Yuliya Gracheva,1996,,Russia,90.72,150,157.5,165,165,75,80,82.5,82.5,160,170,-180,170,417.5,84+,Juniors,F,Raw,SBD
1,Liudmila Isak,1976,,Belarus,46.7,95,100,102.5,102.5,55,60,-62.5,60,120,127.5,-132.5,127.5,290,47,Masters 1,F,Raw,SBD
2,Elisabeth Barry,1973,,South Africa,46.37,80,85,-87.5,85,35,37.5,40,40,112.5,122.5,-127.5,122.5,247.5,47,Masters 1,F,Raw,SBD
3,June Stamp,1969,,UK,46.29,67.5,72.5,77.5,77.5,35,37.5,40,40,87.5,92.5,-102.5,92.5,210,47,Masters 1,F,Raw,SBD
DQ,Natalya Tskhay,1975,,Kazakhstan,46.14,-100,-100,-100,,52.5,-57.5,57.5,57.5,95,-100,102.5,102.5,,47,Masters 1,F,Raw,SBD
1,Nataliya Ivankova,1974,,Ukraine,50.93,110,115,120,120,80,82.5,-85,82.5,127.5,132.5,140,140,342.5,52,Masters 1,F,Raw,SBD
2,Mune van Luen,1976,,USA,50.7,127.5,132.5,135,135,65,67.5,-70,67.5,137.5,-142.5,-142.5,137.5,340,52,Masters 1,F,Raw,SBD
3,Tiina Marjusaari,1977,,Finland,51.44,102.5,-107.5,107.5,107.5,72.5,75,-77.5,75,140,150,-162.5,150,332.5,52,Masters 1,F,Raw,SBD
4,Marianne Bouvard,1976,,France,51.38,97.5,102.5,107.5,107.5,65,70,-72.5,70,110,120,122.5,122.5,300,52,Masters 1,F,Raw,SBD
5,Sofia Rufus,1976,,UK,51.37,105,112.5,-117.5,112.5,47.5,52.5,55,55,110,120,-130,120,287.5,52,Masters 1,F,Raw,SBD
6,Anna Wallenten,1972,,Sweden,51,90,-95,95,95,65,-70,-70,65,115,125,-135,125,285,52,Masters 1,F,Raw,SBD
7,Helen Dilling Ingebjorg,1971,,Norway,51.31,95,102.5,105,105,57.5,60,-62.5,60,105,110,115,115,280,52,Masters 1,F,Raw,SBD
1,Oksana Belova,1975,,Russia,55.43,107.5,115,120,120,80,85,87.5,87.5,157.5,167.5,-172.5,167.5,375,57,Masters 1,F,Raw,SBD
2,Brigot Pugh,1975,,Australia,55.89,115,125,127.5,127.5,65,-72.5,-72.5,65,172.5,177.5,-185,177.5,370,57,Masters 1,F,Raw,SBD
3,Carina Hedberg,1976,,Sweden,55.59,-127.5,127.5,-132.5,127.5,80,82.5,-85,82.5,137.5,145,152.5,152.5,362.5,57,Masters 1,F,Raw,SBD
4,Jennifer Caron,1977,,Canada,55.44,112.5,120,-125,120,65,67.5,70,70,160,165,170,170,360,57,Masters 1,F,Raw,SBD
5,Heather Ayles,1971,,Canada,56.55,105,110,120,120,67.5,70,75,75,130,140,147.5,147.5,342.5,57,Masters 1,F,Raw,SBD
6,Jane Girdlestone,1975,,UK,52.86,120,-127.5,-127.5,120,67.5,70,-72.5,70,135,140,145,145,335,57,Masters 1,F,Raw,SBD
7,Jasmin Treimer,1976,,Germany,55.55,90,95,100,100,50,55,-60,55,140,147.5,152.5,152.5,307.5,57,Masters 1,F,Raw,SBD
1,Cass Pickard,1974,,Australia,62.03,145,-147.5,-150.5,145,70,75,-77.5,75,180,190,-198,190,410,63,Masters 1,F,Raw,SBD
2,Monica Rasmussen,1972,,Norway,61.06,137.5,142.5,147.5,147.5,67.5,70,72.5,72.5,142.5,147.5,150,150,370,63,Masters 1,F,Raw,SBD
3,Marjaana Vähäsantanen,1976,,Finland,62.49,135,140,-142.5,140,72.5,75,77.5,77.5,142.5,-147.5,-147.5,142.5,360,63,Masters 1,F,Raw,SBD
4,Kiss Anett,1976,,Hungary,62.77,117.5,125,130,130,57.5,62.5,65,65,152.5,157.5,-167.5,157.5,352.5,63,Masters 1,F,Raw,SBD
5,Beverley Rodgers,1972,,UK,62.96,110,117.5,-122.5,117.5,80,82.5,85,85,130,140,147.5,147.5,350,63,Masters 1,F,Raw,SBD
6,Daniela Falck,1975,,Germany,62.27,110,120,125,125,67.5,-72.5,-72.5,67.5,142.5,150,155,155,347.5,63,Masters 1,F,Raw,SBD
7,Holly Lasante,1971,,Canada,61.25,112.5,117.5,-125,117.5,65,70,-72.5,70,145,155,-160,155,342.5,63,Masters 1,F,Raw,SBD
8,Minna Ristolainen,1972,,Finland,62.14,105,115,-125,115,60,65,-70,65,150,160,-167.5,160,340,63,Masters 1,F,Raw,SBD
9,Carla Ramsay,1976,,Canada,62.58,120,127.5,-130,127.5,57.5,60,-62.5,60,135,145,150,150,337.5,63,Masters 1,F,Raw,SBD
10,Vicki Botha,1973,,South Africa,60.57,115,120,-125,120,67.5,-70,-70,67.5,130,145,-157.5,145,332.5,63,Masters 1,F,Raw,SBD
11,Irene Johansen,1968,,Norway,61,102.5,107.5,112.5,112.5,52.5,55,57.5,57.5,135,145,155,155,325,63,Masters 1,F,Raw,SBD
12,Ilona Wilson,1977,,South Africa,60.85,115,-120,-120,115,45,50,-52.5,50,130,140,-145,140,305,63,Masters 1,F,Raw,SBD
13,Lin Donevska,1969,,Australia,62.31,90,-95,-97.5,90,67.5,72.5,75,75,107.5,117.5,-122.5,117.5,282.5,63,Masters 1,F,Raw,SBD
1,Louise Richardson,1977,,UK,70.38,155,162.5,165,165,75,80,82.5,82.5,167.5,177.5,-182.5,177.5,425,72,Masters 1,F,Raw,SBD
2,Laura de Wet,1974,,South Africa,71.23,140,-150,-150,140,72.5,75,-77.5,75,172.5,182.5,-187.5,182.5,397.5,72,Masters 1,F,Raw,SBD
3,Leah Lutz,1975,,USA,69.5,145,152.5,-155,152.5,-77.5,77.5,80,80,155,162.5,-170,162.5,395,72,Masters 1,F,Raw,SBD
4,Charlotte Esbjørn,1968,,Denmark,70.56,137.5,-145,-145,137.5,77.5,80,82.5,82.5,167.5,175,-177.5,175,395,72,Masters 1,F,Raw,SBD
5,Meredith Evans,1977,,Canada,70.32,130,137.5,140,140,65,70,72.5,72.5,165,172.5,180,180,392.5,72,Masters 1,F,Raw,SBD
6,Pirjo Palosaari,1970,,Finland,71.09,125,-130,-130,125,62.5,67.5,70,70,130,137.5,142.5,142.5,337.5,72,Masters 1,F,Raw,SBD
7,Debbie McAlpine,1976,,South Africa,69.56,117.5,125,130,130,55,57.5,-60,57.5,120,130,-140,130,317.5,72,Masters 1,F,Raw,SBD
1,Alicia Webb,1971,,USA,83.68,182.5,195,-206.5,195,107.5,112.5,-117.5,112.5,182.5,192.5,-205,192.5,500,84,Masters 1,F,Raw,SBD
2,Hilde Dretvik,1974,,Norway,82.16,135,142.5,147.5,147.5,82.5,-87.5,-87.5,82.5,160,167.5,170,170,400,84,Masters 1,F,Raw,SBD
3,Katarina Ruus,1977,,Sweden,80.15,-135,135,-140,135,85,90,-92.5,90,165,172.5,-175,172.5,397.5,84,Masters 1,F,Raw,SBD
4,Piia Valkonen,1973,,Finland,81.62,125,135,145,145,75,80,-85,80,140,155,165,165,390,84,Masters 1,F,Raw,SBD
5,Laufey Agnarsdóttir,1973,,Iceland,83.29,130,135,-137.5,135,87.5,90,92.5,92.5,145,152.5,157.5,157.5,385,84,Masters 1,F,Raw,SBD
6,Jenni Sherwood #1,1973,,UK,81.42,-135,-135,135,135,65,70,-72.5,70,175,177.5,-180,177.5,382.5,84,Masters 1,F,Raw,SBD
7,Heidi Boström-Vesola,1972,,Finland,82.47,140,145,-147.5,145,70,72.5,-75,72.5,140,150,155,155,372.5,84,Masters 1,F,Raw,SBD
8,Pernilla Röhr,1972,,Sweden,80.99,117.5,-127.5,127.5,127.5,72.5,75,-77.5,75,135,145,-152.5,145,347.5,84,Masters 1,F,Raw,SBD
9,Deborah Fenton,1974,,South Africa,83.76,105,110,117.5,117.5,-57.5,57.5,-60,57.5,-150,150,-152.5,150,325,84,Masters 1,F,Raw,SBD
1,Melissa Copeland,1977,,USA,97.74,190,-195,-200.5,190,105,-107.5,-107.5,105,187.5,205,-207.5,205,500,84+,Masters 1,F,Raw,SBD
2,Katariina Nokua,1973,,Finland,107.04,170,180,-200.5,180,97.5,102.5,-107.5,102.5,170,-185,-185,170,452.5,84+,Masters 1,F,Raw,SBD
3,Allison Snead,1975,,USA,89.75,-162.5,162.5,170,170,82.5,85,87.5,87.5,170,185,187.5,187.5,445,84+,Masters 1,F,Raw,SBD
4,Rósa Birgisdóttir,1974,,Iceland,135.44,162.5,-167.5,167.5,167.5,92.5,97.5,-100,97.5,172.5,180,-182.5,180,445,84+,Masters 1,F,Raw,SBD
5,Kelly Phasey,1976,,UK,117.94,160,167.5,-170,167.5,90,-97.5,97.5,97.5,145,-155,-155,145,410,84+,Masters 1,F,Raw,SBD
6,Véronique Auclair,1968,,France,95.84,100,-110,110,110,70,-72.5,-72.5,70,120,-130,-130,120,300,84+,Masters 1,F,Raw,SBD
1,Noriko Tsuji,1964,,Japan,46.08,90,95,100,100,-57.5,-57.5,57.5,57.5,115,120,-125,120,277.5,47,Masters 2,F,Raw,SBD
2,Ana Geitner,1967,,Germany,42.39,82.5,90,-92.5,90,37.5,-42.5,-42.5,37.5,132.5,140,-142.5,140,267.5,47,Masters 2,F,Raw,SBD
3,Shyami Murphy,1966,,USA,46.43,95,100,102.5,102.5,40,45,-47.5,45,100,110,-120,110,257.5,47,Masters 2,F,Raw,SBD
4,Maria Parreira,1965,,France,46.07,65,67.5,-70,67.5,-35,-35,35,35,100,-107.5,-110,100,202.5,47,Masters 2,F,Raw,SBD
1,Jayne Egan,1963,,Canada,51.27,95,100,105,105,55,60,-62.5,60,125,130,135,135,300,52,Masters 2,F,Raw,SBD
2,Melissa Forbis,1966,,USA,50.98,97.5,102.5,107.5,107.5,52.5,55,57.5,57.5,107.5,120,-130,120,285,52,Masters 2,F,Raw,SBD
3,Nathalie Feraud,1967,,France,49.1,95,-100,100,100,60,62.5,-65,62.5,120,-127.5,-130,120,282.5,52,Masters 2,F,Raw,SBD
4,Hege Henriksen Bubandt,1961,,Norway,50.33,85,92.5,95,95,-47.5,50,-52.5,50,125,130,132.5,132.5,277.5,52,Masters 2,F,Raw,SBD
5,Jenny Hunter,1958,,UK,51.67,62.5,72.5,77.5,77.5,60,65,67.5,67.5,110,122.5,132.5,132.5,277.5,52,Masters 2,F,Raw,SBD
6,Catrin Resch,1965,,Germany,47.91,75,82.5,90,90,60,65,-67.5,65,95,105,112.5,112.5,267.5,52,Masters 2,F,Raw,SBD
7,Annette Rattunde,1966,,USA,50.68,92.5,-97.5,-97.5,92.5,50,52.5,-55,52.5,25,,,25,170,52,Masters 2,F,Raw,SBD
1,Leena Jokitalo-Luomakoski,1961,,Finland,55.89,102.5,-110,110,110,57.5,-62.5,-62.5,57.5,135,142.5,150,150,317.5,57,Masters 2,F,Raw,SBD
2,Marie-France Cabos,1967,,France,56.64,102.5,-107.5,-107.5,102.5,65,67.5,70,70,137.5,142.5,-147.5,142.5,315,57,Masters 2,F,Raw,SBD
3,Helen Allen,1961,,Australia,56.4,-92.5,92.5,-97.5,92.5,57.5,60,-62.5,60,140,150,-152.5,150,302.5,57,Masters 2,F,Raw,SBD
4,Michelle Franklin,1966,,UK,55.89,80,-92.5,92.5,92.5,50,55,57.5,57.5,115,125,137.5,137.5,287.5,57,Masters 2,F,Raw,SBD
5,Cristina Ciraudo,1961,,Australia,56.21,87.5,-95,95,95,52.5,55,60,60,115,125,132.5,132.5,287.5,57,Masters 2,F,Raw,SBD
6,Carol Anthony,1966,,South Africa,54.62,70,-75,75,75,35,37.5,40,40,105,117.5,-130,117.5,232.5,57,Masters 2,F,Raw,SBD
1,Elena Lutsenko,1963,,Russia,62.07,115,120,125,125,87.5,90,-92.5,90,137.5,142.5,-150,142.5,357.5,63,Masters 2,F,Raw,SBD
2,Khrys Kyriacou,1967,,UK,62.65,122.5,130,135,135,80,-85,85,85,130,-145,-145,130,350,63,Masters 2,F,Raw,SBD
3,Ana Couto,1966,,Brazil,61.64,95,107.5,-110,107.5,65,70,72.5,72.5,135,147.5,-155,147.5,327.5,63,Masters 2,F,Raw,SBD
4,Cathleen Mele,1966,,USA,61.42,95,100,105,105,-57.5,57.5,-60,57.5,157.5,-167.5,-167.5,157.5,320,63,Masters 2,F,Raw,SBD
5,Lynda Banks,1965,,UK,62.26,107.5,-112.5,112.5,112.5,55,57.5,60,60,137.5,147.5,-160,147.5,320,63,Masters 2,F,Raw,SBD
6,Joanne Craig,1961,,USA,62.29,122.5,-132.5,-132.5,122.5,55,57.5,60,60,120,130,-140,130,312.5,63,Masters 2,F,Raw,SBD
7,Larysa Ivanova,1963,,Ukraine,62.55,100,107.5,112.5,112.5,65,70,-72.5,70,110,120,-125,120,302.5,63,Masters 2,F,Raw,SBD
1,Suzanne LaForge,1959,,USA,65.65,130,145,-150,145,-72.5,-72.5,72.5,72.5,170,187.5,195,195,412.5,72,Masters 2,F,Raw,SBD
2,Karen Barry,1966,,Ireland,70.31,145,-150.5,-152.5,145,77.5,80,85,85,150,160,-165,160,390,72,Masters 2,F,Raw,SBD
3,Helen Twomey,1967,,Ireland,70.37,122.5,125,127.5,127.5,72.5,-75,-75,72.5,167.5,172.5,-188,172.5,372.5,72,Masters 2,F,Raw,SBD
4,Gro-Berit Stavheim,1964,,Norway,71.48,117.5,-122.5,-127.5,117.5,70,75,-77.5,75,130,140,145,145,337.5,72,Masters 2,F,Raw,SBD
5,Livy Laure Romain,1967,,France,69.83,115,120,125,125,57.5,60,-62.5,60,135,-145,-147.5,135,320,72,Masters 2,F,Raw,SBD
6,Stina Sundling,1964,,Sweden,70.73,92.5,100,105,105,60,62.5,65,65,117.5,125,130,130,300,72,Masters 2,F,Raw,SBD
7,Candice Firmani,1967,,South Africa,63.93,90,100,102.5,102.5,50,57.5,-60,57.5,105,110,115,115,275,72,Masters 2,F,Raw,SBD
1,Jackie Blasbery,1963,,UK,83.16,110,120,130,130,75,80,85,85,152.5,162.5,-173.5,162.5,377.5,84,Masters 2,F,Raw,SBD
2,Julie Henderson,1966,,Australia,80.59,120,127.5,135,135,57.5,60,65,65,135,145,147.5,147.5,347.5,84,Masters 2,F,Raw,SBD
3,Satu Junnila,1967,,Finland,72.94,107.5,117.5,120,120,55,60,-62.5,60,137.5,145,152.5,152.5,332.5,84,Masters 2,F,Raw,SBD
4,Janine Wheeler,1960,,Canada,82.01,102.5,110,117.5,117.5,62.5,67.5,-70,67.5,130,137.5,-147.5,137.5,322.5,84,Masters 2,F,Raw,SBD
5,Anne Hellem,1961,,Norway,82.75,85,90,95,95,52.5,55,-57.5,55,135,142.5,-147.5,142.5,292.5,84,Masters 2,F,Raw,SBD
1,Michelle Fayant,1964,,USA,97.3,145,155,160,160,107.5,115,115.5,115.5,165,177.5,-182.5,177.5,453,84+,Masters 2,F,Raw,SBD
2,Bonney Rempel,1967,,Canada,107.66,160,-167.5,167.5,167.5,102.5,108,110,110,165,175,-182.5,175,452.5,84+,Masters 2,F,Raw,SBD
3,Betty Gray,1962,,UK,107.59,127.5,137.5,145,145,60,65,-70,65,185,195,197.5,197.5,407.5,84+,Masters 2,F,Raw,SBD
4,Sigþrúður Erla Arnarsdóttir,1965,,Iceland,114.45,147.5,155,157.5,157.5,80,82.5,85,85,155,165,-170,165,407.5,84+,Masters 2,F,Raw,SBD
5,Nelson Pia Skovborg,1963,,Denmark,162.4,-145,155,-162.5,155,82.5,87.5,92.5,92.5,150,160,-170,160,407.5,84+,Masters 2,F,Raw,SBD
6,Ann Jordebo,1960,,Sweden,97,107.5,112.5,117.5,117.5,60,62.5,-65,62.5,125,130,135,135,315,84+,Masters 2,F,Raw,SBD
1,Marina Cornwall,1954,,UK,44.53,67.5,72.5,77.5,77.5,37.5,42.5,45,45,105,110,115,115,237.5,47,Masters 3,F,Raw,SBD
2,Pirjo Kemppainen,1951,,Finland,46.86,47.5,50,-55,50,-27.5,27.5,-30,27.5,75,80,85,85,162.5,47,Masters 3,F,Raw,SBD
1,Vuokko Viitasaari,1954,,Finland,51.37,100,110,115,115,52.5,57.5,-63,57.5,125,142.5,150,150,322.5,52,Masters 3,F,Raw,SBD
2,Linda Kaminski,1956,,UK,49.38,95,100,105,105,40,42.5,-45,42.5,117.5,125,130,130,277.5,52,Masters 3,F,Raw,SBD
1,Edith Guennec,1956,,France,56.06,90,100,-107.5,100,52.5,57.5,-60.5,57.5,147.5,151,155.5,155.5,313,57,Masters 3,F,Raw,SBD
2,Sigríður Dagmar Agnarsdóttir,1952,,Iceland,55.2,80,85,90,90,-40,42.5,45,45,107.5,115,120,120,255,57,Masters 3,F,Raw,SBD
3,Martine Parfait,1957,,France,54.76,70,75,-77.5,75,47.5,-50,-50,47.5,115,125,-132.5,125,247.5,57,Masters 3,F,Raw,SBD
4,Sarah Butcher,1955,,UK,55.77,75,80,85,85,40,42.5,45,45,100,107.5,112.5,112.5,242.5,57,Masters 3,F,Raw,SBD
5,Irmeli Vaulakorpi,1954,,Finland,56.13,62.5,70,77.5,77.5,50,55,60,60,97.5,-105,-115,97.5,235,57,Masters 3,F,Raw,SBD
6,Kim Crumpton,1955,,Canada,53.74,52.5,57.5,-60,57.5,50,52.5,-55,52.5,102.5,110,120,120,230,57,Masters 3,F,Raw,SBD
7,Ann Whitmarsh,1953,,USA,55.62,67.5,75,-80,75,35,-37.5,-37.5,35,95,-100,100,100,210,57,Masters 3,F,Raw,SBD
1,Françoise Calves,1956,,France,59.8,95,100,-105,100,47.5,-50,-50,47.5,110,115,-120,115,262.5,63,Masters 3,F,Raw,SBD
2,Susan Farrell #1,1951,,South Africa,60.92,-80,80,85,85,42.5,45,-47.5,45,105,115,120,120,250,63,Masters 3,F,Raw,SBD
3,Denise Thomas,1950,,USA,61.38,77.5,82.5,85,85,40,42.5,-45,42.5,107.5,-115,115,115,242.5,63,Masters 3,F,Raw,SBD
4,Lise Madsen,1953,,Denmark,62.06,-70,-70,70,70,42.5,45,-47.5,45,-125,125,-130,125,240,63,Masters 3,F,Raw,SBD
5,Sirkka-Liisa Hohenthal,1948,,Finland,59.45,70,80,-85,80,32.5,40,-42.5,40,80,90,100,100,220,63,Masters 3,F,Raw,SBD
6,Sandra Simmons,1948,,USA,61.22,-70,-70,70,70,40,-45,-45,40,95,105,107.5,107.5,217.5,63,Masters 3,F,Raw,SBD
1,Alma Kimura,1954,,USA,69.14,97.5,107.5,-116,107.5,45,50,52.5,52.5,132.5,140,143,143,303,72,Masters 3,F,Raw,SBD
2,Marie-Christine Liege,1955,,France,67.32,85,92.5,97.5,97.5,62.5,67.5,-71,67.5,110,-117.5,-117.5,110,275,72,Masters 3,F,Raw,SBD
3,Linda Lynch,1953,,Australia,66.65,85,-87.5,90,90,47.5,-50,50,50,117.5,-122.5,-122.5,117.5,257.5,72,Masters 3,F,Raw,SBD
4,Jane Freeman,1954,,USA,68.19,80,82.5,-85,82.5,42.5,45,-47.5,45,95,100,105,105,232.5,72,Masters 3,F,Raw,SBD
5,Régine Billard,1955,,France,66.21,65,70,72.5,72.5,35,37.5,40,40,105,112.5,-115,112.5,225,72,Masters 3,F,Raw,SBD
1,Janice Francis,1955,,USA,81.99,100,-107.5,107.5,107.5,60,-67.5,67.5,67.5,-130,130,-150.5,130,305,84,Masters 3,F,Raw,SBD
1,Marit Pettersen,1954,,Norway,89.64,-117.5,117.5,-120,117.5,60,62.5,-65,62.5,145,150,-152.5,150,330,84+,Masters 3,F,Raw,SBD
2,Sandra Nase,1957,,Canada,101.71,102.5,107.5,112.5,112.5,52.5,57.5,-60,57.5,145,157.5,-160.5,157.5,327.5,84+,Masters 3,F,Raw,SBD
1,Susan Elwyn,1947,,USA,45.84,68,72.5,77.5,77.5,30,35,-37.5,35,100,110.5,-115,110.5,223,47,Masters 4,F,Raw,SBD
2,Eila Kumpuniemi,1942,,Finland,46.77,57.5,62.5,65,65,40,45,-47.5,45,95,105,-107.5,105,215,47,Masters 4,F,Raw,SBD
1,Joyce Aiazzi,1946,,USA,47.61,52.5,57.5,67.5,67.5,45,47.5,52.5,52.5,87.5,-92.5,93.5,93.5,213.5,52,Masters 4,F,Raw,SBD
2,Denise Johnson,1947,,USA,51.65,47.5,-55,-55,47.5,32.5,37.5,-40,37.5,82.5,-87.5,-87.5,82.5,167.5,52,Masters 4,F,Raw,SBD
1,Bebe Burns,1942,,USA,52.15,42.5,52.5,62.5,62.5,20,35,40,40,55,67.5,77.5,77.5,180,57,Masters 4,F,Raw,SBD
1,Tatyana Fomina,1946,,Russia,60.69,85,90,95,95,42.5,47.5,-50,47.5,110,118,122.5,122.5,265,63,Masters 4,F,Raw,SBD
1,Anne Mari Clausen,1942,,Norway,79.65,67.5,72.5,77.5,77.5,47.5,50,-52.5,50,80,95,-105,95,222.5,84,Masters 4,F,Raw,SBD
1,Sue Albert,1946,,USA,101.86,45,52.5,57.5,57.5,37.5,-42.5,42.5,42.5,90,97.5,,97.5,197.5,84+,Masters 4,F,Raw,SBD
