Division,WeightClassKg,Place,Name,Team,BodyweightKg,Best3SquatKg,Best3BenchKg,Best3DeadliftKg,TotalKg,Equipment,Event,Sex
Boys,51.71,1,Brian Morales,Needville,51.71,77.11,52.16,97.52,226.8,Single-ply,SBD,M
Boys,51.71,2,Micheal Avelleneda,Stafford,48.99,86.18,43.09,92.99,222.26,Single-ply,SBD,M
Boys,51.71,3,Jacory Bellnamy,Houston Madison,51.71,52.16,38.56,70.31,161.03,Single-ply,SBD,M
Boys,55.79,1,Dylan Elkins,Needville,53.07,145.15,106.59,142.88,394.63,Single-ply,SBD,M
Boys,55.79,2,Jacob Ryder,Needville,55.79,133.81,83.91,163.29,381.02,Single-ply,SBD,M
Boys,55.79,3,Cecilio Hernandez,Dickinson,55.79,136.08,72.57,147.42,356.07,Single-ply,SBD,M
Boys,55.79,4,Matt Rice,Conroe Oak Ridge,55.79,102.06,68.04,113.4,283.5,Single-ply,SBD,M
Boys,55.79,5,Mathew Riddick,Crosby,53.07,95.25,58.97,117.93,272.16,Single-ply,SBD,M
Boys,55.79,6,Marquise Butler,Houston Madison,55.79,102.06,45.36,113.4,260.82,Single-ply,SBD,M
Boys,55.79,DQ,Sergio Luis,Pasadena Memorial,55.79,,,,,Single-ply,SBD,M
Boys,59.87,1,DeMarco Corner,Manvel,59.87,149.69,92.99,183.7,426.38,Single-ply,SBD,M
Boys,59.87,2,Zach Mutchler,Manvel,58.51,129.27,92.99,120.2,342.46,Single-ply,SBD,M
Boys,59.87,3,Francisco Pineda,Houston Milby,56.7,92.99,61.23,147.42,301.64,Single-ply,SBD,M
Boys,59.87,4,Jacob Mears,Beaumont Ozen,58.51,92.99,65.77,129.27,288.03,Single-ply,SBD,M
Boys,59.87,5,Hayden Gula,Conroe Oak Ridge,59.87,108.86,63.5,113.4,285.76,Single-ply,SBD,M
Boys,59.87,DQ,Ej Smith,Beaumont Ozen,57.15,61.23,,,,Single-ply,SBD,M
Boys,67.13,1,Jamal Simms,Houston Madison,67.13,199.58,108.86,219.99,528.44,Single-ply,SBD,M
Boys,67.13,2,Jerrell Garner,Houston Madison,67.13,183.7,97.52,199.58,480.81,Single-ply,SBD,M
Boys,67.13,3,Tyler Marcel,Conroe Oak Ridge,67.13,165.56,117.93,190.51,474,Single-ply,SBD,M
Boys,67.13,4,Jason Simmons,Conroe Oak Ridge,67.13,151.95,124.74,181.44,458.13,Single-ply,SBD,M
Boys,67.13,5,Alec DeLeon,Dickinson,67.13,181.44,102.06,165.56,449.06,Single-ply,SBD,M
Boys,67.13,6,Fidencio Cruz,Dickinson,65.32,151.95,102.06,174.63,428.64,Single-ply,SBD,M
Boys,67.13,7,Tanner Kuhle,Conroe Oak Ridge,67.13,151.95,106.59,161.03,419.57,Single-ply,SBD,M
Boys,67.13,8,Bryston Braziel,Stafford,62.14,165.56,77.11,158.76,401.43,Single-ply,SBD,M
Boys,67.13,9,Sergio Olvera,Needville,67.13,136.08,92.99,170.1,399.16,Single-ply,SBD,M
Boys,67.13,10,Geovanny Villacorta,Pasadena Memorial,67.13,113.4,79.38,142.88,335.66,Single-ply,SBD,M
Boys,67.13,11,Orlando Valdez,Houston Chavez,67.13,102.06,83.91,142.88,328.85,Single-ply,SBD,M
Boys,67.13,12,Angel Galvan,Crosby,60.78,97.52,74.84,124.74,297.1,Single-ply,SBD,M
Boys,67.13,13,George San Miguel,Houston Milby,66.68,92.99,61.23,142.88,297.1,Single-ply,SBD,M
Boys,74.84,1,Thomas Bridges,Dickinson,74.84,192.78,124.74,183.7,501.22,Single-ply,SBD,M
Boys,74.84,2,Mike Salazar,Manvel,74.84,174.63,95.25,181.44,451.32,Single-ply,SBD,M
Boys,74.84,3,Trey Vaughans,Dickinson,74.84,174.63,104.33,165.56,444.52,Single-ply,SBD,M
Boys,74.84,4,Jesse Canell,Stafford,74.84,161.03,115.67,161.03,437.72,Single-ply,SBD,M
Boys,74.84,5,Demarcus Durst,Conroe Oak Ridge,74.84,158.76,99.79,174.63,433.18,Single-ply,SBD,M
Boys,74.84,6,Michael Briones,Pasadena Dobie,71.21,156.49,97.52,158.76,412.77,Single-ply,SBD,M
Boys,74.84,7,Taylor Givens,Stafford,74.84,158.76,79.38,167.83,405.97,Single-ply,SBD,M
Boys,74.84,8,David Pina,Dickinson,68.49,140.61,79.38,165.56,385.55,Single-ply,SBD,M
Boys,74.84,9,Jimmy Molina,Houston Milby,74.84,120.2,68.04,147.42,335.66,Single-ply,SBD,M
Boys,74.84,10,Cameron Simms,Houston Madison,69.85,102.06,79.38,136.08,317.51,Single-ply,SBD,M
Boys,74.84,11,Tilmon Jones,Houston Milby,68.49,56.7,61.23,102.06,219.99,Single-ply,SBD,M
Boys,74.84,DQ,Nick Prescott,Dickinson,74.84,,,,,Single-ply,SBD,M
Boys,74.84,DQ,Brandon Malone,Houston Madison,74.84,,,,,Single-ply,SBD,M
Boys,74.84,DQ,Dezmon Simpson,Beaumont Ozen,69.4,102.06,,,,Single-ply,SBD,M
Boys,82.1,1,Darius Thornton,Houston Westbury,82.1,213.19,136.08,204.12,553.38,Single-ply,SBD,M
Boys,82.1,2,Kyle Leal,Crosby,80.74,204.12,142.88,204.12,551.11,Single-ply,SBD,M
Boys,82.1,3,Travis Hill,Pasadena Memorial,75.75,172.37,115.67,210.92,498.95,Single-ply,SBD,M
Boys,82.1,4,Kwanme Etwi,Conroe Oak Ridge,82.1,167.83,102.06,158.76,428.64,Single-ply,SBD,M
Boys,82.1,5,Christopher Lewis,Beaumont Ozen,81.19,149.69,122.47,149.69,421.84,Single-ply,SBD,M
Boys,82.1,6,Dodi Vasquez,Dickinson,82.1,163.29,92.99,151.95,408.23,Single-ply,SBD,M
Boys,82.1,7,Jordan Daigle,Beaumont Ozen,79.38,113.4,97.52,192.78,403.7,Single-ply,SBD,M
Boys,82.1,8,Isaac Hernandez,Pasadena Dobie,79.83,111.13,92.99,149.69,353.8,Single-ply,SBD,M
Boys,82.1,9,Saretian Thomas,Beaumont Ozen,79.83,117.93,79.38,145.15,342.46,Single-ply,SBD,M
Boys,82.1,10,Sean Peace,Pasadena Dobie,82.1,90.72,92.99,147.42,331.12,Single-ply,SBD,M
Boys,82.1,DQ,Leland Young,Dickinson,82.1,,,,,Single-ply,SBD,M
Boys,82.1,DQ,Keenon Houston,Houston Madison,82.1,,,,,Single-ply,SBD,M
Boys,82.1,DQ,Bouteus Victor,Houston Westbury,80.74,,,,,Single-ply,SBD,M
Boys,89.81,1,George Stephenson,Conroe Oak Ridge,89.81,256.28,124.74,231.33,612.35,Single-ply,SBD,M
Boys,89.81,2,Jovito Mendez,Needville,89.81,226.8,129.27,197.31,553.38,Single-ply,SBD,M
Boys,89.81,3,Benji Meche,Crosby,88,210.92,133.81,204.12,548.85,Single-ply,SBD,M
Boys,89.81,4,Mickeal Arvie,Houston Madison,89.81,190.51,133.81,224.53,548.85,Single-ply,SBD,M
Boys,89.81,5,Anthony Allison,Dickinson,89.81,204.12,104.33,181.44,489.88,Single-ply,SBD,M
Boys,89.81,6,Julian Simien,Manvel,89.81,199.58,104.33,179.17,483.08,Single-ply,SBD,M
Boys,89.81,7,Lyle Buckner,Crosby,83.01,183.7,102.06,195.04,480.81,Single-ply,SBD,M
Boys,89.81,8,Gene Chesson,Manvel,89.81,151.95,108.86,172.37,433.18,Single-ply,SBD,M
Boys,89.81,9,Damon Burkett,Manvel,86.64,158.76,106.59,158.76,424.11,Single-ply,SBD,M
Boys,89.81,10,Marquis Coleman,Dickinson,89.81,183.7,88.45,142.88,415.04,Single-ply,SBD,M
Boys,89.81,11,Trelan Joubert,Beaumont Ozen,83.01,136.08,102.06,154.22,392.36,Single-ply,SBD,M
Boys,89.81,12,Eric Mexicano,Pasadena Memorial,89.81,120.2,95.25,176.9,392.36,Single-ply,SBD,M
Boys,89.81,13,Cleaon Jolly,Dickinson,89.81,136.08,88.45,149.69,374.21,Single-ply,SBD,M
Boys,89.81,14,Jacob Minter,Pasadena Memorial,89.81,136.08,77.11,158.76,371.95,Single-ply,SBD,M
Boys,89.81,DQ,Luke Garcia,Needville,89.81,,,,,Single-ply,SBD,M
Boys,99.79,1,Roderick Wiltz,Houston Madison,99.79,285.76,163.29,276.69,725.75,Single-ply,SBD,M
Boys,99.79,2,Val Hernandez,Crosby,92.53,226.8,142.88,219.99,589.67,Single-ply,SBD,M
Boys,99.79,3,Gerrardo Torres,Houston Madison,99.79,226.8,133.81,206.38,566.99,Single-ply,SBD,M
Boys,99.79,4,Justin Edwards,Conroe Oak Ridge,99.79,210.92,117.93,213.19,542.04,Single-ply,SBD,M
Boys,99.79,5,Chase Nix,Crosby,91.17,208.65,124.74,204.12,537.51,Single-ply,SBD,M
Boys,99.79,6,Marco Flores,Stafford,91.63,197.31,122.47,190.51,510.29,Single-ply,SBD,M
Boys,99.79,7,Jonathan Calhoun,Houston Chavez,99.79,167.83,127.01,185.97,480.81,Single-ply,SBD,M
Boys,99.79,8,Kyle Dunk,Needville,99.79,170.1,127.01,181.44,478.54,Single-ply,SBD,M
Boys,99.79,9,Louis Johnson,Beaumont Ozen,91.63,154.22,113.4,195.04,462.66,Single-ply,SBD,M
Boys,99.79,10,Malcolm Pringle,Houston Westbury,99.79,151.95,106.59,188.24,446.79,Single-ply,SBD,M
Boys,99.79,11,Demarques Walker,Houston Madison,99.79,183.7,102.06,156.49,442.25,Single-ply,SBD,M
Boys,99.79,12,Nicky Lopez,Houston Westbury,95.25,127.01,97.52,172.37,396.89,Single-ply,SBD,M
Boys,99.79,13,Jason Weeden,Pasadena Memorial,91.63,136.08,79.38,176.9,392.36,Single-ply,SBD,M
Boys,99.79,14,Darell Mouton,Beaumont Ozen,95.71,108.86,95.25,185.97,390.09,Single-ply,SBD,M
Boys,99.79,15,Christian Rodriguez #8,Pasadena Memorial,99.79,145.15,95.25,149.69,390.09,Single-ply,SBD,M
Boys,99.79,16,Jorge Oviedo,Pasadena Memorial,94.35,108.86,88.45,163.29,360.61,Single-ply,SBD,M
Boys,99.79,17,Jeremy Harris,Beaumont Ozen,93.89,90.72,74.84,136.08,301.64,Single-ply,SBD,M
Boys,99.79,DQ,Naren Medrano,Manvel,99.79,,,,,Single-ply,SBD,M
Boys,99.79,DQ,Kelvin Turner,Houston Westbury,99.79,,,,,Single-ply,SBD,M
Boys,99.79,DQ,Simeon Houston,Houston Westbury,99.79,,,,,Single-ply,SBD,M
Boys,99.79,DQ,Jaylon Daniels,Houston Chavez,99.79,,,,,Single-ply,SBD,M
Boys,99.79,DQ,Raul Garcia,Houston Milby,91.63,88.45,,,,Single-ply,SBD,M
Boys,109.77,1,Justin Latanero,Conroe Oak Ridge,109.77,274.42,174.63,231.33,680.39,Single-ply,SBD,M
Boys,109.77,2,Devar Brown,Houston Westbury,109.77,219.99,145.15,256.28,621.42,Single-ply,SBD,M
Boys,109.77,3,Matt Moore,Pasadena Memorial,109.77,240.4,120.2,226.8,587.4,Single-ply,SBD,M
Boys,109.77,4,Charles Flores,Dickinson,101.6,204.12,140.61,238.14,582.87,Single-ply,SBD,M
Boys,109.77,5,Chris Dowdy,Dickinson,109.77,226.8,120.2,208.65,555.65,Single-ply,SBD,M
Boys,109.77,6,Jose Aguliar,Pasadena Memorial,100.7,217.72,111.13,222.26,551.11,Single-ply,SBD,M
Boys,109.77,7,Koda Martin,Manvel,109.77,195.04,117.93,204.12,517.1,Single-ply,SBD,M
Boys,109.77,8,Kaylond North,Dickinson,109.77,183.7,113.4,190.51,487.61,Single-ply,SBD,M
Boys,109.77,9,Rene Montez,Pasadena Memorial,109.77,181.44,90.72,183.7,455.86,Single-ply,SBD,M
Boys,109.77,10,Jared Reedy,Dickinson,101.6,165.56,81.65,147.42,394.63,Single-ply,SBD,M
Boys,109.77,11,Dejohn Handy,Beaumont Ozen,101.6,127.01,81.65,151.95,360.61,Single-ply,SBD,M
Boys,109.77,12,Oris Granger,Beaumont Ozen,107.05,102.06,86.18,131.54,319.78,Single-ply,SBD,M
Boys,109.77,13,Deshondric Selomon,Beaumont Ozen,101.6,90.72,61.23,136.08,288.03,Single-ply,SBD,M
Boys,109.77,14,Arthur Harmon,Beaumont Ozen,103.87,72.57,61.23,113.4,247.21,Single-ply,SBD,M
Boys,109.77,15,Martrell Lemalle,Beaumont Ozen,102.97,56.7,56.7,111.13,224.53,Single-ply,SBD,M
Boys,109.77,DQ,Tremonte Green,Crosby,109.77,,,,,Single-ply,SBD,M
Boys,109.77,DQ,Nathan Flores,Pasadena Dobie,102.51,,,,,Single-ply,SBD,M
Boys,109.77,DQ,Andres Rodriguez,Houston Chavez,100.24,,,,,Single-ply,SBD,M
Boys,124.74,1,Grant Narcisse,Crosby,124.74,249.48,147.42,204.12,601.01,Single-ply,SBD,M
Boys,124.74,2,Joshua Opiela,Crosby,124.74,249.48,142.88,192.78,585.13,Single-ply,SBD,M
Boys,124.74,3,Oshaun Lewis,Houston Westbury,111.13,165.56,120.2,226.8,512.56,Single-ply,SBD,M
Boys,124.74,4,Ernesto Reales,Dickinson,124.74,199.58,115.67,192.78,508.02,Single-ply,SBD,M
Boys,124.74,5,Chance Cumming,Dickinson,124.74,190.51,102.06,204.12,496.68,Single-ply,SBD,M
Boys,124.74,6,Robert Lazano,Houston Chavez,124.74,170.1,120.2,192.78,483.08,Single-ply,SBD,M
Boys,124.74,7,Gabe Johnson,Pasadena Memorial,124.74,188.24,113.4,181.44,483.08,Single-ply,SBD,M
Boys,124.74,8,Lance Zeno,Beaumont Ozen,111.13,124.74,99.79,158.76,383.29,Single-ply,SBD,M
Boys,124.74,9,Clifton Haggen,Houston Madison,124.74,136.08,99.79,145.15,381.02,Single-ply,SBD,M
Boys,124.74,DQ,Marlon Jackson,Houston Westbury,124.74,,,,,Single-ply,SBD,M
Boys,124.74,DQ,Jarvis Johnson,Pasadena Dobie,118.39,158.76,,,,Single-ply,SBD,M
Boys,124.74+,1,William Simpson,Houston Madison,125.19,281.23,174.63,249.48,705.34,Single-ply,SBD,M
Boys,124.74+,2,Adolfo Gomez,Pasadena Dobie,142.88,215.46,142.88,215.46,573.79,Single-ply,SBD,M
Boys,124.74+,3,Darin Slater,Dickinson,125.19,249.48,124.74,192.78,566.99,Single-ply,SBD,M
Boys,124.74+,4,Alex Cruz,Pasadena Memorial,129.73,195.04,131.54,226.8,553.38,Single-ply,SBD,M
Boys,124.74+,5,Anthony Hunter,Manvel,125.19,219.99,113.4,204.12,537.51,Single-ply,SBD,M
Boys,124.74+,6,Darius Celestine,Conroe Oak Ridge,125.19,192.78,138.35,206.38,537.51,Single-ply,SBD,M
Boys,124.74+,7,Chance Harmanson,Dickinson,125.19,226.8,108.86,199.58,535.24,Single-ply,SBD,M
Boys,124.74+,8,Aniette Etuk,Dickinson,127.01,185.97,115.67,219.99,521.63,Single-ply,SBD,M
Boys,124.74+,9,Aaron Evans,Pasadena Memorial,125.19,185.97,106.59,226.8,519.36,Single-ply,SBD,M
Boys,124.74+,10,Onisokien Osampke,Manvel,183.7,142.88,151.95,192.78,487.61,Single-ply,SBD,M
Boys,124.74+,11,Antonio Cavazos,Pasadena Memorial,125.19,165.56,104.33,181.44,451.32,Single-ply,SBD,M
Boys,124.74+,12,Bryan Foster,Beaumont Ozen,154.67,172.37,102.06,163.29,437.72,Single-ply,SBD,M
Boys,124.74+,13,Quinton Smith,Beaumont Ozen,143.34,151.95,81.65,170.1,403.7,Single-ply,SBD,M
Boys,124.74+,14,Jamie Russell,Houston Madison,154.67,149.69,88.45,145.15,383.29,Single-ply,SBD,M
Boys,124.74+,15,Jonathan Becinas,Houston Westbury,125.19,111.13,58.97,136.08,306.17,Single-ply,SBD,M
Boys,,NS,Ron Castillo,Stafford,,,,,,Single-ply,SBD,M
