Place,Name,Sex,BirthDate,Age,Country,State,Equipment,Division,BodyweightKg,WeightClassKg,Squat1Kg,Squat2Kg,Squat3Kg,Best3SquatKg,Bench1Kg,Bench2Kg,Bench3Kg,Bench4Kg,Best3BenchKg,Deadlift1Kg,Deadlift2Kg,Deadlift3Kg,Deadlift4Kg,Best3DeadliftKg,TotalKg,Event
1,Christina Ullman,F,1971-05-01,50,,OH,Raw,Amateur,88.27,90,145.15,-154.22,154.22,154.22,77.11,83.91,-86.18,,83.91,154.22,167.83,174.63,,174.63,412.77,SBD
1,Hali Bergman,F,1992-03-29,29,,OH,Raw,Amateur,76.66,82.5,-102.06,115.67,-124.74,115.67,54.43,63.5,,,63.5,120.2,138.35,142.88,,142.88,322.05,SBD
1,April Hamon,F,1983-03-11,38,,TX,Single-ply,Elite,54.7,56,136.08,142.88,-147.42,142.88,65.77,-70.31,-70.31,,65.77,142.88,149.69,-156.49,,149.69,358.34,SBD
DQ,Natanya Gornstein-Talotti,F,1991-12-12,30,,OH,Unlimited,Elite,47.81,48,-129.27,-129.27,-129.27,,,,,,,,,,,,,SBD
1,Nicole Praet,F,1990-01-09,32,,OH,Raw,Elite,87.63,90,170.1,-183.7,183.7,183.7,104.33,108.86,113.4,,113.4,192.78,204.12,213.19,,213.19,510.29,SBD
2,Heather Lynn,F,1984-04-10,37,,NY,Raw,Elite,87.54,90,172.37,181.44,185.97,185.97,72.57,77.11,-81.65,,77.11,176.9,185.97,199.58,,199.58,462.66,SBD
1,Camellia Beiruti,F,1996-05-18,25,,IN,Raw,Elite,74.21,75,147.42,-165.56,-165.56,147.42,92.99,97.52,-104.33,,97.52,165.56,181.44,195.04,,195.04,439.98,SBD
1,Ishanay Pacheco,F,1993-11-15,28,,FL,Raw,Elite,50.53,52,115.67,120.2,-124.74,120.2,54.43,-56.7,56.7,,56.7,147.42,156.49,161.03,,161.03,337.93,SBD
1,Marguerite Jones,F,1975-04-21,46,,VA,Raw,Elite,114.94,90+,179.17,188.24,-197.31,188.24,92.99,99.79,104.33,,104.33,183.7,195.04,201.85,,201.85,494.42,SBD
1,Jen Hazzard,F,1985-06-06,36,,NY,Wraps,Pro,59.24,60,170.1,176.9,183.7,183.7,-99.79,99.79,104.33,,104.33,208.65,226.8,-235.87,,226.8,514.83,SBD
1,Leslie Bailey,F,1976-01-19,46,,IN,Wraps,Pro,73.12,75,183.7,-199.58,-199.58,183.7,88.45,95.25,99.79,,99.79,190.51,199.58,210.92,,210.92,494.42,SBD
1,Sarah Evans,F,,27,,NE,Wraps,Pro,66.95,67.5,145.15,156.49,163.29,163.29,86.18,92.99,97.52,,97.52,145.15,156.49,165.56,,165.56,426.38,SBD
1,Alona Medyna,F,1993-01-29,29,,KY,Wraps,Pro,125.19,90+,233.6,-249.48,-249.48,233.6,106.59,113.4,120.2,,120.2,217.72,229.06,-235.87,,229.06,582.87,SBD
1,Sherry Shellenberger,F,1968-09-05,53,,AZ,Unlimited,Elite,88.81,90,165.56,183.7,204.12,204.12,-165.56,165.56,-181.44,,165.56,165.56,183.7,-192.78,,183.7,553.38,SBD
1,Tiffany Biancardi,F,1995-08-15,26,,FL,Unlimited,Pro,59.87,60,219.99,231.33,-242.67,231.33,183.7,192.78,201.85,,201.85,147.42,161.03,-181.44,,161.03,594.21,SBD
2,Chrystal Leadbetter,F,1982-10-06,39,,PA,Unlimited,Pro,58.79,60,158.76,170.1,-183.7,170.1,120.2,-129.27,-129.27,,120.2,151.95,174.63,181.44,,181.44,471.74,SBD
1,Denise Marais,F,1963-11-23,58,,PA,Unlimited,Pro,65.32,67.5,163.29,181.44,-190.51,181.44,117.93,131.54,136.08,,136.08,140.61,-154.22,154.22,,154.22,471.74,SBD
DQ,Marissa Wanker,F,2000-05-09,21,,PA,Unlimited,Pro,64.59,67.5,-197.31,-197.31,197.31,197.31,-124.74,-147.42,-147.42,,,,,,,,,SBD
DQ,Jamie Christenson,F,1984-11-11,37,,TX,Unlimited,Pro,66.77,67.5,219.99,233.6,,233.6,-174.63,-174.63,-183.7,,,,,,,,,SBD
1,Kole Matta,M,2005-05-10,16,,VT,Raw,Amateur,88.54,90,181.44,195.04,204.12,204.12,108.86,117.93,127.01,,127.01,217.72,231.33,-240.4,,231.33,562.45,SBD
1,Tyler Galbraith,M,1996-10-02,25,,OH,Raw,Amateur,97.34,100,240.4,-258.55,-258.55,240.4,136.08,145.15,-151.95,,145.15,265.35,-278.96,-278.96,,265.35,650.91,SBD
1,Adam Bell #1,M,1981-01-05,41,,TX,Single-ply,Amateur,108.5,110,288.03,306.17,-317.51,306.17,249.48,260.82,272.16,,272.16,256.28,272.16,-283.5,,272.16,850.49,SBD
1,Zach Sullivan,M,1994-07-16,27,,TX,Raw,Amateur,105.23,110,-249.48,249.48,283.5,283.5,226.8,-249.48,-249.48,,226.8,272.16,294.84,306.17,,306.17,816.47,SBD
1,Noah Pennington,M,2006-07-03,15,,OH,Single-ply,Amateur,114.67,125,274.42,294.84,-306.17,294.84,-142.88,-142.88,142.88,,142.88,206.38,226.8,-242.67,,226.8,664.51,SBD
1,Ben Russo,M,1999-08-12,22,,NY,Unlimited,Elite,86.73,90,274.42,-292.57,-306.17,274.42,-249.48,249.48,-274.42,,249.48,278.96,292.57,303.91,,303.91,827.81,SBD
1,John Gaglione,M,1987-04-20,34,,OH,Unlimited,Elite,98.52,100,347,367.41,-376.48,367.41,224.53,240.4,249.48,,249.48,272.16,290.3,301.64,,301.64,918.52,SBD
2,Kelsey Eversole,M,1995-01-19,27,,OH,Unlimited,Elite,97.7,100,-362.87,362.87,367.41,367.41,226.8,-249.48,-249.48,,226.8,-288.03,288.03,-312.98,,288.03,882.24,SBD
1,Kirby Goodrich,M,1994-11-16,27,,OH,Unlimited,Elite,108.68,110,-365.14,365.14,-385.55,365.14,251.74,-272.16,-272.16,,251.74,283.5,299.37,-317.51,,299.37,916.26,SBD
DQ,Scott Kikes,M,1989-09-07,32,,AZ,Unlimited,Elite,121.74,125,-421.84,-421.84,-421.84,,,,,,,,,,,,,SBD
1,Matthew Hodge,M,1988-01-20,34,,OH,Unlimited,Elite,157.03,140+,396.89,426.38,,426.38,353.8,-381.02,381.02,,381.02,317.51,-326.59,326.59,,326.59,1133.98,SBD
1,Will Green,M,1994-07-06,27,,OH,Raw,Elite,80.56,82.5,256.28,269.89,276.69,276.69,151.95,161.03,-165.56,,161.03,226.8,251.74,276.69,,276.69,714.41,SBD
1,Jose Martinez #2,M,1983-02-15,39,,OH,Raw,Elite,88.27,90,260.82,-278.96,278.96,278.96,129.27,140.61,-145.15,,140.61,-251.74,-269.89,269.89,,269.89,689.46,SBD
2,Joey DiFranco,M,1984-07-29,37,,MO,Raw,Elite,89.09,90,-238.14,238.14,-249.48,238.14,161.03,165.56,-172.37,,165.56,260.82,272.16,-276.69,,272.16,675.85,SBD
3,Josh Chamberlain,M,1993-11-13,28,,MO,Raw,Elite,89.27,90,226.8,235.87,-249.48,235.87,142.88,149.69,154.22,,154.22,226.8,244.94,-251.74,,244.94,635.03,SBD
1,Tyler Olds,M,1992-07-30,29,,OH,Raw,Elite,73.21,75,-229.06,-229.06,229.06,229.06,133.81,140.61,-145.15,,140.61,229.06,240.4,-254.01,,240.4,610.08,SBD
2,George Shelby,M,1980-10-30,41,,TN,Raw,Elite,74.84,75,161.03,-167.83,167.83,167.83,97.52,102.06,104.33,,104.33,174.63,185.97,188.24,,188.24,460.4,SBD
DQ,Trey Taylor,M,2002-02-11,20,,WV,Raw,Elite,74.48,75,-219.99,-219.99,-219.99,,,,,,,,,,,,,SBD
1,Jon Sodawasser,M,1993-06-14,,,IA,Raw,Elite,98.34,100,269.89,290.3,-301.64,290.3,172.37,183.7,188.24,,188.24,265.35,285.76,292.57,,292.57,771.11,SBD
2,Patrick Thompson,M,1991-12-26,30,,IL,Raw,Elite,97.16,100,-283.5,292.57,-303.91,292.57,154.22,163.29,170.1,,170.1,269.89,288.03,297.1,,297.1,759.77,SBD
3,Eric Thomas,M,2002-08-20,19,,NY,Raw,Elite,96.25,100,254.01,272.16,283.5,283.5,158.76,165.56,172.37,,172.37,278.96,294.84,-306.17,,294.84,750.7,SBD
4,Daniel Young #1,M,1997-01-01,,,WV,Raw,Elite,97.98,100,263.08,283.5,294.84,294.84,170.1,183.7,-188.24,,183.7,272.16,-292.57,-292.57,,272.16,750.7,SBD
3,Cody Jasper,M,1990-06-21,31,,WI,Raw,Elite,100.52,110,-265.35,265.35,-281.23,265.35,190.51,-197.31,-197.31,,190.51,274.42,-283.5,-283.5,,274.42,730.28,SBD
DQ,Nathan Pelton,M,1995-08-02,26,,IN,Raw,Elite,98.88,100,299.37,315.25,328.85,328.85,174.63,-183.7,-183.7,,174.63,-294.84,-294.84,,,,,SBD
1,David Stensland,M,1984-10-31,37,,VA,Raw,Elite,108.5,110,258.55,281.23,290.3,290.3,158.76,176.9,181.44,,181.44,283.5,306.17,-310.71,,306.17,777.91,SBD
2,Elmer Bench,M,1975-11-21,46,,SC,Raw,Elite,109.13,110,299.37,317.51,,317.51,167.83,-181.44,,,167.83,276.69,285.76,-294.84,,285.76,771.11,SBD
DQ,Jake Immerman,M,1989-03-03,33,,OH,Raw,Elite,109.77,110,-306.17,-306.17,,,,,,,,,,,,,,SBD
1,Jeffrey Elian,M,1991-03-11,30,,SC,Raw,Elite,129.55,140,283.5,301.64,317.51,317.51,204.12,-213.19,213.19,,213.19,285.76,303.91,-317.51,,303.91,834.61,SBD
2,Damian Solis,M,1986-08-19,35,,NC,Raw,Elite,137.26,140,272.16,-294.84,-306.17,272.16,-158.76,158.76,-172.37,,158.76,294.84,317.51,-324.32,,317.51,748.43,SBD
1,Jacob Moran,M,1994-11-16,27,,OH,Raw,Elite,187.79,140+,315.25,344.73,-362.87,344.73,183.7,197.31,-201.85,,197.31,229.06,254.01,-276.69,,254.01,796.05,SBD
1,Alex Tschiegg,M,1988-12-15,,,OH,Raw,Pro,98.79,100,102.06,,,102.06,208.65,217.72,226.8,,226.8,326.59,340.19,-351.53,,340.19,669.05,SBD
DQ,Robin Cheng,M,1988-05-30,33,,MD,Raw,Pro,129.27,140,-349.27,,,,,,,,,,,,,,,SBD
1,James Strickland #1,M,,41,,TX,Raw,Pro,132.63,140,306.17,-328.85,-328.85,306.17,-278.96,288.03,-294.84,,288.03,340.19,-362.87,,,340.19,934.4,SBD
1,Garrett Denham,M,1984-07-19,37,,TX,Raw,Pro,169.19,140+,385.55,-408.23,-408.23,385.55,210.92,-226.8,,,210.92,317.51,340.19,347,,347,943.47,SBD
1,Justin Grygas,M,,38,,NY,Wraps,Elite,88.81,90,249.48,-265.35,265.35,265.35,165.56,-176.9,-176.9,,165.56,274.42,-283.5,-283.5,,274.42,705.34,SBD
1,Russell Yankee,M,1985-08-26,36,,MI,Wraps,Elite,98.25,100,-292.57,310.71,319.78,319.78,199.58,217.72,-222.26,,217.72,294.84,312.98,-324.32,,312.98,850.49,SBD
1,Nydir Hayden,M,1996-01-08,26,,PA,Wraps,Pro,80.83,82.5,272.16,285.76,-294.84,285.76,174.63,183.7,190.51,,190.51,265.35,-281.23,-281.23,,265.35,741.62,SBD
2,Brian Phillips,M,1983-07-28,38,,MO,Wraps,Pro,80.65,82.5,272.16,290.3,-299.37,290.3,174.63,183.7,-190.51,,183.7,233.6,244.94,-267.62,,244.94,718.94,SBD
1,Kevin Chapman,M,1976-04-06,,,MO,Wraps,Pro,88.09,90,254.01,-272.16,276.69,276.69,145.15,156.49,-161.03,,156.49,249.48,260.82,-272.16,,260.82,694,SBD
3,Dakota England,M,1994-03-15,27,,UT,Wraps,Pro,80.74,82.5,179.17,190.51,199.58,199.58,133.81,-142.88,-142.88,,133.81,215.46,226.8,235.87,,235.87,569.26,SBD
1,Antonio Carter,M,1988-12-15,33,,WV,Wraps,Pro,99.52,100,315.25,-328.85,,315.25,210.92,219.99,226.8,,226.8,324.32,335.66,-347,,335.66,877.7,SBD
2,Joshua Murray,M,1985-11-29,36,,AZ,Wraps,Pro,98.61,100,283.5,294.84,-303.91,294.84,201.85,210.92,-215.46,,210.92,294.84,308.44,317.51,,317.51,823.27,SBD
3,Matt Trammel,M,1983-12-18,38,,OH,Wraps,Pro,98.25,100,-294.84,294.84,-310.71,294.84,174.63,-181.44,181.44,,181.44,294.84,,,,294.84,771.11,SBD
4,Francois Gagme,M,1988-06-20,33,Canada,,Wraps,Pro,99.7,100,297.1,312.98,-324.32,312.98,129.27,,,,129.27,267.62,288.03,292.57,,292.57,734.82,SBD
1,Patrick Craig #1,M,1987-12-22,34,,MI,Wraps,Pro,109.23,110,301.64,319.78,-333.39,319.78,204.12,-217.72,-217.72,,204.12,301.64,319.78,-331.12,,319.78,843.68,SBD
1,Christopher Wichtl,M,1985-07-20,36,,NC,Wraps,Pro,119.66,125,328.85,349.27,362.87,362.87,238.14,-254.01,,,238.14,328.85,-342.46,,,328.85,929.86,SBD
1,Wes McCormick,M,1989-11-16,32,,OH,Unlimited,Pro,84.82,90,340.19,362.87,385.55,385.55,283.5,-306.17,-306.17,,283.5,249.48,260.82,-272.16,,260.82,929.86,SBD
1,Ralph Talotti,M,1993-03-13,,,PA,Unlimited,Pro,80.38,82.5,294.84,-306.17,,294.84,-226.8,249.48,-260.82,,249.48,226.8,249.48,-274.42,,249.48,793.79,SBD
1,Nick Myatt,M,,38,,TX,Unlimited,Pro,134.54,140,419.57,-455.86,,419.57,385.55,,,,385.55,272.16,294.84,317.51,,317.51,1122.64,SBD
DQ,Derek Wade,M,1990-04-21,31,,KY,Unlimited,Pro,133.27,140,-464.93,-464.93,-464.93,,,,,,,,,,,,,SBD
1,Ryan Lawson,M,1980-11-01,41,,MA,Raw,Elite,120.2,125,,,,,-195.04,195.04,-204.12,,195.04,319.78,344.73,-362.87,,344.73,539.77,BD
1,Justin Palermo,M,1983-12-29,38,,NY,Unlimited,Pro,73.57,75,,,,,124.74,142.88,-158.76,,142.88,204.12,-213.19,,,204.12,347,BD
1,Richard Gawlinski,M,1987-05-24,34,,,Unlimited,Pro,104.6,110,,,,,206.38,219.99,,,219.99,231.33,249.48,263.08,,263.08,483.08,BD
1,Landon Efird,M,,,,,Multi-ply,Pro,,,,,,,,,,,,320,345,365,-370,365,365,D
2,Luke Johnson,M,,,,,Multi-ply,Pro,,,,,,,,,,,,337.5,350,365,-370,365,365,D
3,Zack Young,M,,,,,Multi-ply,Pro,,,,,,,,,,,,330,342.5,-355,,342.5,342.5,D
4,Ben Dewig,M,,,,,Multi-ply,Pro,,,,,,,,,,,,320,342.5,-370,,342.5,342.5,D
5,Brandon Cass,M,,,,,Multi-ply,Pro,,,,,,,,,,,,272.5,300,-320,,300,300,D
6,Greyson Loweecy,M,,,,,Multi-ply,Pro,,,,,,,,,,,,260,285,-300,,285,285,D
7,Tommy Gosnell,M,,,,,Multi-ply,Pro,,,,,,,,,,,,255,272.5,-277.5,,272.5,272.5,D
8,Sejfo Šehović,M,,,,,Multi-ply,Pro,,,,,,,,,,,,240,250,,,250,250,D
9,Alexander Ersing,M,,,,,Multi-ply,Pro,,,,,,,,,,,,237.5,245,-260,,245,245,D
1,Christine Galvin,F,,,,,Multi-ply,Pro,,,,,,,,,,,,185,200,212.5,230,212.5,212.5,D
2,Chelsea Pullen,F,,,,,Multi-ply,Pro,,,,,,,,,,,,190,197.5,205,-210,205,205,D
3,Katie Lich,F,,,,,Multi-ply,Pro,,,,,,,,,,,,165,175,182.5,,182.5,182.5,D
5,Nick Moskowitz,M,,,,,Raw,Pro,,,,,,,160,-167.5,167.5,,167.5,,,,,,167.5,B
DQ,Zach Jones,M,,,,,Unlimited,Pro,,,,,,,-187.5,-192.5,-192.5,,,,,,,,,B
4,Erik Balogh,M,,,,,Raw,Pro,,,,,,,190,-202.5,-205,,190,,,,,,190,B
3,Al Tanner,M,,,,,Raw,Pro,,,,,,,190,207.5,-225,,207.5,,,,,,207.5,B
2,Cody Wilson,M,,,,,Raw,Pro,,,,,,,205,215,,,215,,,,,,215,B
1,Gyunduz Ismailov,M,,,,,Raw,Pro,,,,,,,215,220,225,,225,,,,,,225,B
1,David Sands,M,,,,,Unlimited,Pro,,,,,,,-317.5,317.5,340,-365,340,,,,,,340,B
