Division,WeightClassKg,Place,Name,Team,BodyweightKg,Best3SquatKg,Best3BenchKg,Best3DeadliftKg,TotalKg,Equipment,Event,Sex
Boys,51.71,1,Bruizer Del Bosque,Bishop,48.44,145.15,79.38,145.15,369.68,Single-ply,SBD,M
Boys,51.71,2,Gilbert Sanchez,San Diego,51.44,142.88,90.72,136.08,369.68,Single-ply,SBD,M
Boys,51.71,3,Rj Hinojosa,Banquete,51.44,127.01,70.31,136.08,333.39,Single-ply,SBD,M
Boys,55.79,4,Garrett Wildman,Banquete,51.89,102.06,54.43,108.86,265.35,Single-ply,SBD,M
Boys,51.71,5,Tomas Guzman,Taft,48.63,97.52,52.16,92.99,242.67,Single-ply,SBD,M
Boys,51.71,6,Pete Olivarez,Orange Grove,46.36,97.52,47.63,92.99,238.14,Single-ply,SBD,M
Boys,51.71,7,Bobby Bourlon,Banquete,50.35,81.65,58.97,97.52,238.14,Single-ply,SBD,M
Boys,51.71,8,Nikko Arellano,Taft,45.63,65.77,56.7,95.25,217.72,Single-ply,SBD,M
Boys,51.71,DQ,Tristan Talley,Freer,48.17,,,,,Single-ply,SBD,M
Boys,51.71,DQ,Clint Baird,Riviera Kaufer,51.53,,,,,Single-ply,SBD,M
Boys,55.79,1,Jonathan Starks,Banquete,52.89,129.27,74.84,145.15,349.27,Single-ply,SBD,M
Boys,55.79,2,Bryan Priddy,Skidmore-Tynan,52.34,120.2,72.57,142.88,335.66,Single-ply,SBD,M
Boys,55.79,3,Daniel Porras,Orange Grove,53.71,129.27,54.43,151.95,335.66,Single-ply,SBD,M
Boys,59.87,4,Edward Davison,Alice,55.97,113.4,70.31,142.88,326.59,Single-ply,SBD,M
Boys,59.87,5,Joel Lopez,Bruni,55.97,92.99,45.36,122.47,260.82,Single-ply,SBD,M
Boys,55.79,6,Jared Medina,Banquete,53.07,88.45,56.7,97.52,242.67,Single-ply,SBD,M
Boys,59.87,7,Andrew Chapa,Freer,55.88,79.38,56.7,102.06,238.14,Single-ply,SBD,M
Boys,55.79,8,Gregory Cuevas,Taft,55.34,63.5,47.63,83.91,195.04,Single-ply,SBD,M
Boys,59.87,DQ,Roman Kuiowski,Freer,55.97,88.45,,,,Single-ply,SBD,M
Boys,59.87,1,Rico Rodriguez,San Diego,59.24,165.56,104.33,183.7,453.59,Single-ply,SBD,M
Boys,59.87,2,Jordy Silguero,Hebbronville,59.6,147.42,102.06,174.63,424.11,Single-ply,SBD,M
Boys,59.87,3,Andrew Gavlin,Skidmore-Tynan,59.42,156.49,88.45,165.56,410.5,Single-ply,SBD,M
Boys,67.13,4,Arnold Bueno,Banquete,59.96,154.22,92.99,147.42,394.63,Single-ply,SBD,M
Boys,67.13,5,Juan Ramos,Hebbronville,60.06,122.47,90.72,158.76,371.95,Single-ply,SBD,M
Boys,67.13,6,Albert Salinas,Bishop,60.06,136.08,77.11,147.42,360.61,Single-ply,SBD,M
Boys,59.87,7,Ted Crain,Falfurrias,59.33,133.81,72.57,138.35,344.73,Single-ply,SBD,M
Boys,67.13,8,Mike Munoz,Bruni,59.96,113.4,65.77,140.61,319.78,Single-ply,SBD,M
Boys,59.87,9,Rene Rubalcava,San Diego,59.6,170.1,83.91,149.69,403.7,Single-ply,SBD,M
Boys,59.87,10,Ricky Gamez,San Diego,58.15,61.23,36.29,111.13,208.65,Single-ply,SBD,M
Boys,59.87,DQ,Justin T Gonzalez,San Diego,58.51,,,,,Single-ply,SBD,M
Boys,59.87,DQ,Arnold Bednorz,Freer,58.51,108.86,,,,Single-ply,SBD,M
Boys,59.87,DQ,Javier Garza,Bruni,59.78,,,,,Single-ply,SBD,M
Boys,59.87,DQ,Isaih Martinez,Kingsville Academy,58.97,,,,,Single-ply,SBD,M
Boys,67.13,1,Abram Ramirez,Hebbronville,66.68,183.7,129.27,213.19,526.17,Single-ply,SBD,M
Boys,67.13,2,Travis Charles,Bishop,60.96,199.58,97.52,199.58,496.68,Single-ply,SBD,M
Boys,74.84,3,Rene Molina,Hebbronville,67.31,195.04,104.33,192.78,492.15,Single-ply,SBD,M
Boys,67.13,4,Gabriel Ramirez,Ben Bolt-Palito Blanco,63.68,165.56,111.13,183.7,460.4,Single-ply,SBD,M
Boys,67.13,5,Miguel Oliva,Robstown,63.96,179.17,99.79,181.44,460.4,Single-ply,SBD,M
Boys,67.13,6,Jay Trevino,Banquete,67.04,165.56,115.67,156.49,437.72,Single-ply,SBD,M
Boys,67.13,7,Kevin Guerrero,Hebbronville,65.5,161.03,97.52,163.29,421.84,Single-ply,SBD,M
Boys,67.13,8,Adam Corvera,Falfurrias,65.14,120.2,90.72,145.15,356.07,Single-ply,SBD,M
Boys,67.13,9,Nick Adame,Freer,64.77,113.4,88.45,151.95,353.8,Single-ply,SBD,M
Boys,67.13,10,Michael Garcia #13,Alice,66.59,120.2,70.31,161.03,351.53,Single-ply,SBD,M
Boys,67.13,11,Beto Medrano,Kingsville King,62.23,120.2,81.65,136.08,337.93,Single-ply,SBD,M
Boys,67.13,12,Zachary Soliz,Alice,66.04,129.27,83.91,124.74,337.93,Single-ply,SBD,M
Boys,67.13,13,Balta Ramirez,San Diego,66.41,124.74,70.31,138.35,333.39,Single-ply,SBD,M
Boys,67.13,14,Tyler Pastrano,San Diego,67.13,117.93,72.57,131.54,322.05,Single-ply,SBD,M
Boys,67.13,15,Derly Carrizalez,Bruni,63.32,127.01,65.77,122.47,315.25,Single-ply,SBD,M
Boys,67.13,16,Tony Martinez,Kingsville Academy,66.22,95.25,68.04,106.59,269.89,Single-ply,SBD,M
Boys,67.13,17,Daniel Hinojosa,Taft,63.5,72.57,56.7,102.06,231.33,Single-ply,SBD,M
Boys,67.13,18,Jacob Castro,Kingsville Academy,62.05,72.57,49.9,90.72,213.19,Single-ply,SBD,M
Boys,67.13,DQ,Trevor Elizondo,Alice,66.32,111.13,,,,Single-ply,SBD,M
Boys,67.13,DQ,AJ Jiminian,Alice,61.14,136.08,,,,Single-ply,SBD,M
Boys,67.13,DQ,Ricky Benavides,Banquete,60.33,151.95,,,,Single-ply,SBD,M
Boys,67.13,DQ,Anthony Garza,Falfurrias,65.5,,,,,Single-ply,SBD,M
Boys,67.13,DQ,Richard Brown #4,Orange Grove,60.78,158.76,,,,Single-ply,SBD,M
Boys,74.84,1,Beto Chavarria,Alice,70.31,181.44,111.13,158.76,451.32,Single-ply,SBD,M
Boys,74.84,2,Julian Salas,Orange Grove,73.57,170.1,102.06,176.9,449.06,Single-ply,SBD,M
Boys,74.84,3,Jose Gutierrez,Alice,73.84,165.56,83.91,181.44,430.91,Single-ply,SBD,M
Boys,74.84,4,Estevan Alfaro,Bruni,69.04,147.42,79.38,181.44,408.23,Single-ply,SBD,M
Boys,82.1,5,DJ Gonzales,Riviera Kaufer,74.93,136.08,90.72,158.76,385.55,Single-ply,SBD,M
Boys,74.84,6,Brandon Sendejo,Alice,69.94,142.88,90.72,145.15,378.75,Single-ply,SBD,M
Boys,74.84,7,JD White,Skidmore-Tynan,71.67,142.88,77.11,158.76,378.75,Single-ply,SBD,M
Boys,74.84,8,Kevin Pena,Robstown,74.21,142.88,83.91,151.95,378.75,Single-ply,SBD,M
Boys,74.84,9,Robert Moctezuma,San Diego,74.48,183.7,97.52,97.52,378.75,Single-ply,SBD,M
Boys,74.84,10,Eddie Garza,San Diego,73.66,147.42,70.31,158.76,376.48,Single-ply,SBD,M
Boys,74.84,11,Antonio Washington,Skidmore-Tynan,72.57,106.59,102.06,151.95,360.61,Single-ply,SBD,M
Boys,74.84,12,Ricky de la Paz,San Diego,72.67,122.47,63.5,149.69,335.66,Single-ply,SBD,M
Boys,74.84,13,Mathew Cantu,San Diego,73.57,111.13,70.31,136.08,317.51,Single-ply,SBD,M
Boys,74.84,DQ,Brian Hall #1,Orange Grove,74.39,99.79,,,,Single-ply,SBD,M
Boys,74.84,DQ,Marcus Cortez,Falfurrias,72.03,,,,,Single-ply,SBD,M
Boys,74.84,DQ,Dillon Vasquez,Falfurrias,73.94,115.67,,,,Single-ply,SBD,M
Boys,74.84,DQ,Marcos Ramon,Kingsville Academy,67.49,,,,,Single-ply,SBD,M
Boys,74.84,DQ,Alberto Guerra,Kingsville Academy,72.85,,,,,Single-ply,SBD,M
Boys,82.1,1,Marty Saenz,San Diego,80.92,240.4,127.01,254.01,621.42,Single-ply,SBD,M
Boys,82.1,2,Reno Perez,San Diego,79.02,215.46,108.86,219.99,544.31,Single-ply,SBD,M
Boys,82.1,3,Matt Garcia,Ben Bolt-Palito Blanco,81.28,174.63,115.67,165.56,455.86,Single-ply,SBD,M
Boys,82.1,4,Jacob Martinez,Kingsville King,79.56,136.08,124.74,174.63,435.45,Single-ply,SBD,M
Boys,82.1,5,Jeremiah Keever,Bishop,81.1,158.76,81.65,163.29,403.7,Single-ply,SBD,M
Boys,82.1,6,Christain Garza,Falfurrias,77.66,138.35,97.52,163.29,399.16,Single-ply,SBD,M
Boys,82.1,7,Roy Saenz,Bishop,82.1,158.76,65.77,167.83,392.36,Single-ply,SBD,M
Boys,82.1,8,Sean Bickham,Orange Grove,75.66,136.08,72.57,136.08,344.73,Single-ply,SBD,M
Boys,89.81,1,Kirk Salinas,Banquete,82.46,226.8,127.01,222.26,576.06,Single-ply,SBD,M
Boys,89.81,2,AJ Alvarez,Bishop,88.45,192.78,106.59,208.65,508.02,Single-ply,SBD,M
Boys,89.81,3,Ryan de la Cruz,Ben Bolt-Palito Blanco,82.64,192.78,117.93,195.04,505.76,Single-ply,SBD,M
Boys,89.81,4,David Perez #3,Bishop,84.01,192.78,102.06,183.7,478.54,Single-ply,SBD,M
Boys,89.81,5,Philip Barrientos,Bishop,85.28,179.17,113.4,179.17,471.74,Single-ply,SBD,M
Boys,89.81,6,John Moreno,Hebbronville,89.27,158.76,113.4,172.37,444.52,Single-ply,SBD,M
Boys,89.81,7,Ivan Gonzalez,Ben Bolt-Palito Blanco,88.81,172.37,102.06,156.49,430.91,Single-ply,SBD,M
Boys,89.81,8,Jesse Gonzales,Kingsville King,83.82,154.22,83.91,170.1,408.23,Single-ply,SBD,M
Boys,89.81,9,Tony Zapata,Alice,85.46,142.88,97.52,167.83,408.23,Single-ply,SBD,M
Boys,89.81,10,Danny Saenz,Bruni,89.45,127.01,90.72,154.22,371.95,Single-ply,SBD,M
Boys,89.81,11,Dabi Reyna,Robstown,84.01,92.99,72.57,142.88,308.44,Single-ply,SBD,M
Boys,89.81,DQ,Luiz Lopez,San Diego,88.99,278.96,149.69,,,Single-ply,SBD,M
Boys,89.81,DQ,Frank Gonzalez,Taft,86.55,,,,,Single-ply,SBD,M
Boys,89.81,DQ,Zach Smith #16,Bruni,87.63,,,,,Single-ply,SBD,M
Boys,89.81,DQ,Ben Burkett,Bishop,86.18,176.9,102.06,,,Single-ply,SBD,M
Boys,89.81,DQ,Mike DeLeon,Falfurrias,85.18,,,,,Single-ply,SBD,M
Boys,89.81,DQ,Mateo Lopez,Alice,86.64,,,,,Single-ply,SBD,M
Boys,89.81,DQ,Jesus Carrasco,Alice,85.46,,,,,Single-ply,SBD,M
Boys,89.81,DQ,Nico Recio,Kingsville Academy,84.64,61.23,,,,Single-ply,SBD,M
Boys,99.79,1,John Herrera,Banquete,94.26,238.14,142.88,233.6,614.62,Single-ply,SBD,M
Boys,99.79,2,Nick Trevino #2,Kingsville King,96.8,188.24,111.13,242.67,542.04,Single-ply,SBD,M
Boys,99.79,3,Alfonso Montalvo,Riviera Kaufer,91.99,226.8,124.74,170.1,521.63,Single-ply,SBD,M
Boys,99.79,4,Heriberto Canales,Hebbronville,96.62,206.38,106.59,208.65,521.63,Single-ply,SBD,M
Boys,99.79,5,Luis Guerra,Bishop,93.44,199.58,88.45,192.78,480.81,Single-ply,SBD,M
Boys,99.79,6,Jesse Gomez,Kingsville King,93.8,183.7,106.59,181.44,471.74,Single-ply,SBD,M
Boys,99.79,7,Mason Murr,Riviera Kaufer,90.54,158.76,90.72,158.76,408.23,Single-ply,SBD,M
Boys,99.79,8,Emmitt Salinas,Ben Bolt-Palito Blanco,99.16,142.88,102.06,158.76,403.7,Single-ply,SBD,M
Boys,99.79,9,Esteban Arredondo,Hebbronville,94.71,163.29,102.06,217.72,483.08,Single-ply,SBD,M
Boys,99.79,DQ,Lencho Huerta,Hebbronville,95.8,,,,,Single-ply,SBD,M
Boys,99.79,DQ,Justin Salinas,Kingsville King,95.25,,,,,Single-ply,SBD,M
Boys,99.79,DQ,Jacob Longoria,Riviera Kaufer,93.08,,,,,Single-ply,SBD,M
Boys,99.79,DQ,Luis Mosevias,Orange Grove,97.52,174.63,,,,Single-ply,SBD,M
Boys,99.79,DQ,Tyler Edlin,Taft,97.43,,,,,Single-ply,SBD,M
Boys,99.79,DQ,Mark Hinojosa,Bishop,98.16,,,,,Single-ply,SBD,M
Boys,99.79,DQ,Lucas Lopez,Ben Bolt-Palito Blanco,97.61,,,,,Single-ply,SBD,M
Boys,99.79,DQ,Javier Huerta,Kingsville Academy,90.45,,,,,Single-ply,SBD,M
Boys,109.77,1,Ivan Gonzalez,Bruni,108.23,249.48,131.54,272.16,653.17,Single-ply,SBD,M
Boys,109.77,2,Zach Garcia,Alice,104.42,226.8,149.69,217.72,594.21,Single-ply,SBD,M
Boys,109.77,3,Harley Vickers,Alice,104.78,240.4,136.08,201.85,578.33,Single-ply,SBD,M
Boys,109.77,4,Jon Garcia,Ben Bolt-Palito Blanco,107.5,208.65,154.22,195.04,557.92,Single-ply,SBD,M
Boys,109.77,5,Esteban Resendez,Alice,103.15,222.26,115.67,215.46,553.38,Single-ply,SBD,M
Boys,109.77,6,Alex Garcia #6,San Diego,108.05,185.97,122.47,204.12,512.56,Single-ply,SBD,M
Boys,109.77,7,Kevin Leal,Freer,102.33,181.44,106.59,204.12,492.15,Single-ply,SBD,M
Boys,109.77,8,Franco Luera,Hebbronville,107.59,204.12,81.65,195.04,480.81,Single-ply,SBD,M
Boys,109.77,9,Rick Gutierrez,Bishop,100.52,163.29,111.13,172.37,446.79,Single-ply,SBD,M
Boys,109.77,10,John Acuna,Kingsville King,103.87,145.15,92.99,170.1,408.23,Single-ply,SBD,M
Boys,109.77,11,Juan Gomez,Robstown,101.6,113.4,72.57,149.69,335.66,Single-ply,SBD,M
Boys,109.77,DQ,Tony Ledesma,Riviera Kaufer,104.78,,,,,Single-ply,SBD,M
Boys,109.77,DQ,Rene Luna,Robstown,103.96,181.44,90.72,,,Single-ply,SBD,M
Boys,109.77,DQ,Tyler Moffitt,Freer,109.5,117.93,,,,Single-ply,SBD,M
Boys,109.77,DQ,Issac Camacho,Kingsville Academy,108.95,145.15,97.52,,,Single-ply,SBD,M
Boys,124.74,1,Ram Montalvo,Orange Grove,110.77,235.87,142.88,224.53,603.28,Single-ply,SBD,M
Boys,124.74,2,Richie Salinas,Kingsville King,119.48,204.12,174.63,181.44,560.19,Single-ply,SBD,M
Boys,124.74,3,Justin Trevino,Robstown,121.2,226.8,129.27,199.58,555.65,Single-ply,SBD,M
Boys,124.74,4,Rolando Garza,Hebbronville,114.67,208.65,129.27,190.51,528.44,Single-ply,SBD,M
Boys,124.74,5,Marcus Alaniz,Freer,123.1,208.65,106.59,190.51,505.76,Single-ply,SBD,M
Boys,124.74,6,Dris Gebert,Orange Grove,113.67,170.1,102.06,163.29,435.45,Single-ply,SBD,M
Boys,124.74,DQ,Xavier Trevino,San Diego,123.38,165.56,127.01,,,Single-ply,SBD,M
Boys,124.74,DQ,Nick Hinojosa,Taft,124.38,,,,,Single-ply,SBD,M
Boys,124.74,DQ,Tanner Bierstedt,Freer,116.39,,,,,Single-ply,SBD,M
Boys,124.74,DQ,Joseph Reyes,Falfurrias,110.77,183.7,,,,Single-ply,SBD,M
Boys,124.74,DQ,Clarence Burdett,Falfurrias,114.58,,,,,Single-ply,SBD,M
Boys,124.74,DQ,Aaron Ramos,Falfurrias,120.66,174.63,111.13,,,Single-ply,SBD,M
Boys,124.74,DQ,Warren Oats,Alice,119.93,185.97,,,,Single-ply,SBD,M
Boys,124.74,DQ,Jared Alvarado,Kingsville Academy,117.3,179.17,,,,Single-ply,SBD,M
Boys,124.74+,1,Oscar Ortiz,Orange Grove,141.07,285.76,167.83,254.01,707.6,Single-ply,SBD,M
Boys,124.74+,2,Mario Alaniz,San Diego,126.73,208.65,133.81,222.26,564.72,Single-ply,SBD,M
Boys,124.74+,3,Luis Lopez #1,Kingsville King,134.81,183.7,92.99,188.24,464.93,Single-ply,SBD,M
Boys,124.74+,4,Hector Garza,Robstown,135.17,165.56,99.79,165.56,430.91,Single-ply,SBD,M
Boys,124.74+,DQ,Logan Mussey,Freer,126.64,174.63,111.13,,,Single-ply,SBD,M
Boys,124.74+,DQ,Orion Riviera,San Diego,126.1,,,,,Single-ply,SBD,M
Boys,124.74+,DQ,Chance Schirmer,Skidmore-Tynan,149.23,206.38,140.61,,,Single-ply,SBD,M
